   1               		.file	"interconnect_link.cpp"
   2               	__SP_H__ = 0x3e
   3               	__SP_L__ = 0x3d
   4               	__SREG__ = 0x3f
   5               	__CCP__ = 0x34
   6               	__tmp_reg__ = 0
   7               	__zero_reg__ = 1
   8               	 ;  GNU C++ (GCC) version 4.7.2 (avr)
   9               	 ; 	compiled by GNU C version 4.7.2, GMP version 5.0.5, MPFR version 3.1.0-p10, MPC version 0.9
  10               	 ;  warning: GMP header version 5.0.5 differs from library version 5.1.2.
  11               	 ;  warning: MPFR header version 3.1.0-p10 differs from library version 3.1.1-p2.
  12               	 ;  GGC heuristics: --param ggc-min-expand=100 --param ggc-min-heapsize=131072
  13               	 ;  options passed:  -I /home/rene/xpcc/src/stdc++ -I /home/rene/xpcc/src
  14               	 ;  -I /home/rene/xpcc/ext -I build/libxpcc -imultilib avrxmega2
  15               	 ;  -D BASENAME=interconnect_link.cpp -D F_CPU=16000000ul
  16               	 ;  /home/rene/xpcc/src/xpcc/driver/connectivity/interconnect/interconnect_link.cpp
  17               	 ;  -mmcu=atxmega32a4
  18               	 ;  -auxbase-strip build/libxpcc/src/xpcc/driver/connectivity/interconnect/interconnect_link.o
  19               	 ;  -gdwarf-2 -Os -Woverloaded-virtual -Wall -Wextra -Wundef -std=gnu++11
  20               	 ;  -fno-threadsafe-statics -fuse-cxa-atexit -funsigned-char
  21               	 ;  -funsigned-bitfields -fshort-enums -ffunction-sections -fdata-sections
  22               	 ;  -fno-split-wide-types -fno-move-loop-invariants -fno-tree-loop-optimize
  23               	 ;  -finline-limit=10000 -fverbose-asm -fno-rtti -fno-enforce-eh-specs
  24               	 ;  -fno-exceptions
  25               	 ;  options enabled:  -fauto-inc-dec -fbranch-count-reg -fcaller-saves
  26               	 ;  -fcombine-stack-adjustments -fcommon -fcompare-elim -fcprop-registers
  27               	 ;  -fcrossjumping -fcse-follow-jumps -fdata-sections -fdebug-types-section
  28               	 ;  -fdefer-pop -fdevirtualize -fearly-inlining
  29               	 ;  -feliminate-unused-debug-types -fexpensive-optimizations
  30               	 ;  -fforward-propagate -ffunction-cse -ffunction-sections -fgcse -fgcse-lm
  31               	 ;  -fgnu-runtime -fguess-branch-probability -fident -fif-conversion
  32               	 ;  -fif-conversion2 -findirect-inlining -finline -finline-atomics
  33               	 ;  -finline-functions -finline-functions-called-once
  34               	 ;  -finline-small-functions -fipa-cp -fipa-profile -fipa-pure-const
  35               	 ;  -fipa-reference -fipa-sra -fira-share-save-slots
  36               	 ;  -fira-share-spill-slots -fivopts -fkeep-static-consts
  37               	 ;  -fleading-underscore -fmath-errno -fmerge-constants
  38               	 ;  -fmerge-debug-strings -fomit-frame-pointer -foptimize-register-move
  39               	 ;  -foptimize-sibling-calls -fpartial-inlining -fpeephole -fpeephole2
  40               	 ;  -fprefetch-loop-arrays -freg-struct-return -fregmove -freorder-blocks
  41               	 ;  -freorder-functions -frerun-cse-after-loop
  42               	 ;  -fsched-critical-path-heuristic -fsched-dep-count-heuristic
  43               	 ;  -fsched-group-heuristic -fsched-interblock -fsched-last-insn-heuristic
  44               	 ;  -fsched-rank-heuristic -fsched-spec -fsched-spec-insn-heuristic
  45               	 ;  -fsched-stalled-insns-dep -fshow-column -fshrink-wrap -fsigned-zeros
  46               	 ;  -fsplit-ivs-in-unroller -fstrict-aliasing -fstrict-overflow
  47               	 ;  -fstrict-volatile-bitfields -fthread-jumps -ftoplevel-reorder
  48               	 ;  -ftrapping-math -ftree-bit-ccp -ftree-builtin-call-dce -ftree-ccp
  49               	 ;  -ftree-ch -ftree-copy-prop -ftree-copyrename -ftree-dce
  50               	 ;  -ftree-dominator-opts -ftree-dse -ftree-forwprop -ftree-fre
  51               	 ;  -ftree-loop-if-convert -ftree-loop-im -ftree-loop-ivcanon
  52               	 ;  -ftree-parallelize-loops= -ftree-phiprop -ftree-pre -ftree-pta
  53               	 ;  -ftree-reassoc -ftree-scev-cprop -ftree-sink -ftree-slp-vectorize
  54               	 ;  -ftree-sra -ftree-switch-conversion -ftree-tail-merge -ftree-ter
  55               	 ;  -ftree-vect-loop-version -ftree-vrp -funit-at-a-time -fvar-tracking
  56               	 ;  -fvar-tracking-assignments -fverbose-asm -fzero-initialized-in-bss
  57               	
  58               		.text
  59               	.Ltext0:
  60               		.section	.text._ZN4xpcc16InterconnectLink14configureUsartEv,"ax",@progbits
  61               	.global	_ZN4xpcc16InterconnectLink14configureUsartEv
  63               	_ZN4xpcc16InterconnectLink14configureUsartEv:
  64               	.LFB618:
  65               		.file 1 "/home/rene/xpcc/src/xpcc/driver/connectivity/interconnect/interconnect_link.cpp"
   1:/home/rene/xpcc/src/xpcc/driver/connectivity/interconnect/interconnect_link.cpp **** // coding: utf-8
   2:/home/rene/xpcc/src/xpcc/driver/connectivity/interconnect/interconnect_link.cpp **** // ----------------------------------------------------------------------------
   3:/home/rene/xpcc/src/xpcc/driver/connectivity/interconnect/interconnect_link.cpp **** /* Copyright (c) 2011, Roboterclub Aachen e.V.
   4:/home/rene/xpcc/src/xpcc/driver/connectivity/interconnect/interconnect_link.cpp ****  * All rights reserved.
   5:/home/rene/xpcc/src/xpcc/driver/connectivity/interconnect/interconnect_link.cpp ****  *
   6:/home/rene/xpcc/src/xpcc/driver/connectivity/interconnect/interconnect_link.cpp ****  * Redistribution and use in source and binary forms, with or without
   7:/home/rene/xpcc/src/xpcc/driver/connectivity/interconnect/interconnect_link.cpp ****  * modification, are permitted provided that the following conditions are met:
   8:/home/rene/xpcc/src/xpcc/driver/connectivity/interconnect/interconnect_link.cpp ****  *
   9:/home/rene/xpcc/src/xpcc/driver/connectivity/interconnect/interconnect_link.cpp ****  *     * Redistributions of source code must retain the above copyright
  10:/home/rene/xpcc/src/xpcc/driver/connectivity/interconnect/interconnect_link.cpp ****  *       notice, this list of conditions and the following disclaimer.
  11:/home/rene/xpcc/src/xpcc/driver/connectivity/interconnect/interconnect_link.cpp ****  *     * Redistributions in binary form must reproduce the above copyright
  12:/home/rene/xpcc/src/xpcc/driver/connectivity/interconnect/interconnect_link.cpp ****  *       notice, this list of conditions and the following disclaimer in the
  13:/home/rene/xpcc/src/xpcc/driver/connectivity/interconnect/interconnect_link.cpp ****  *       documentation and/or other materials provided with the distribution.
  14:/home/rene/xpcc/src/xpcc/driver/connectivity/interconnect/interconnect_link.cpp ****  *     * Neither the name of the Roboterclub Aachen e.V. nor the
  15:/home/rene/xpcc/src/xpcc/driver/connectivity/interconnect/interconnect_link.cpp ****  *       names of its contributors may be used to endorse or promote products
  16:/home/rene/xpcc/src/xpcc/driver/connectivity/interconnect/interconnect_link.cpp ****  *       derived from this software without specific prior written permission.
  17:/home/rene/xpcc/src/xpcc/driver/connectivity/interconnect/interconnect_link.cpp ****  *
  18:/home/rene/xpcc/src/xpcc/driver/connectivity/interconnect/interconnect_link.cpp ****  * THIS SOFTWARE IS PROVIDED BY ROBOTERCLUB AACHEN E.V. ''AS IS'' AND ANY
  19:/home/rene/xpcc/src/xpcc/driver/connectivity/interconnect/interconnect_link.cpp ****  * EXPRESS OR IMPLIED WARRANTIES, INCLUDING, BUT NOT LIMITED TO, THE IMPLIED
  20:/home/rene/xpcc/src/xpcc/driver/connectivity/interconnect/interconnect_link.cpp ****  * WARRANTIES OF MERCHANTABILITY AND FITNESS FOR A PARTICULAR PURPOSE ARE
  21:/home/rene/xpcc/src/xpcc/driver/connectivity/interconnect/interconnect_link.cpp ****  * DISCLAIMED. IN NO EVENT SHALL ROBOTERCLUB AACHEN E.V. BE LIABLE FOR ANY
  22:/home/rene/xpcc/src/xpcc/driver/connectivity/interconnect/interconnect_link.cpp ****  * DIRECT, INDIRECT, INCIDENTAL, SPECIAL, EXEMPLARY, OR CONSEQUENTIAL DAMAGES
  23:/home/rene/xpcc/src/xpcc/driver/connectivity/interconnect/interconnect_link.cpp ****  * (INCLUDING, BUT NOT LIMITED TO, PROCUREMENT OF SUBSTITUTE GOODS OR SERVICES;
  24:/home/rene/xpcc/src/xpcc/driver/connectivity/interconnect/interconnect_link.cpp ****  * LOSS OF USE, DATA, OR PROFITS; OR BUSINESS INTERRUPTION) HOWEVER CAUSED AND
  25:/home/rene/xpcc/src/xpcc/driver/connectivity/interconnect/interconnect_link.cpp ****  * ON ANY THEORY OF LIABILITY, WHETHER IN CONTRACT, STRICT LIABILITY, OR TORT
  26:/home/rene/xpcc/src/xpcc/driver/connectivity/interconnect/interconnect_link.cpp ****  * (INCLUDING NEGLIGENCE OR OTHERWISE) ARISING IN ANY WAY OUT OF THE USE OF
  27:/home/rene/xpcc/src/xpcc/driver/connectivity/interconnect/interconnect_link.cpp ****  * THIS SOFTWARE, EVEN IF ADVISED OF THE POSSIBILITY OF SUCH DAMAGE.
  28:/home/rene/xpcc/src/xpcc/driver/connectivity/interconnect/interconnect_link.cpp ****  */
  29:/home/rene/xpcc/src/xpcc/driver/connectivity/interconnect/interconnect_link.cpp **** // ----------------------------------------------------------------------------
  30:/home/rene/xpcc/src/xpcc/driver/connectivity/interconnect/interconnect_link.cpp **** 
  31:/home/rene/xpcc/src/xpcc/driver/connectivity/interconnect/interconnect_link.cpp **** #include <avr/interrupt.h>
  32:/home/rene/xpcc/src/xpcc/driver/connectivity/interconnect/interconnect_link.cpp **** #include <xpcc/architecture/platform/avr/atxmega.hpp>
  33:/home/rene/xpcc/src/xpcc/driver/connectivity/interconnect/interconnect_link.cpp **** 
  34:/home/rene/xpcc/src/xpcc/driver/connectivity/interconnect/interconnect_link.cpp **** #include "interconnect_link.hpp"
  35:/home/rene/xpcc/src/xpcc/driver/connectivity/interconnect/interconnect_link.cpp **** #include <xpcc_config.hpp>
  36:/home/rene/xpcc/src/xpcc/driver/connectivity/interconnect/interconnect_link.cpp **** 
  37:/home/rene/xpcc/src/xpcc/driver/connectivity/interconnect/interconnect_link.cpp **** #if defined(CPU_BOARD2_MASTER)
  38:/home/rene/xpcc/src/xpcc/driver/connectivity/interconnect/interconnect_link.cpp **** 
  39:/home/rene/xpcc/src/xpcc/driver/connectivity/interconnect/interconnect_link.cpp **** 	// Atxmega128a1
  40:/home/rene/xpcc/src/xpcc/driver/connectivity/interconnect/interconnect_link.cpp **** #	define INTERCONNECT_ENABLED
  41:/home/rene/xpcc/src/xpcc/driver/connectivity/interconnect/interconnect_link.cpp **** 
  42:/home/rene/xpcc/src/xpcc/driver/connectivity/interconnect/interconnect_link.cpp **** #	undef  INTERCONNECT_USART_PORT
  43:/home/rene/xpcc/src/xpcc/driver/connectivity/interconnect/interconnect_link.cpp **** #	undef  INTERCONNECT_USART_ID
  44:/home/rene/xpcc/src/xpcc/driver/connectivity/interconnect/interconnect_link.cpp **** #	undef  INTERCONNECT_PIN_OUTPUT
  45:/home/rene/xpcc/src/xpcc/driver/connectivity/interconnect/interconnect_link.cpp **** #	undef  INTERCONNECT_PIN_INPUT
  46:/home/rene/xpcc/src/xpcc/driver/connectivity/interconnect/interconnect_link.cpp **** 
  47:/home/rene/xpcc/src/xpcc/driver/connectivity/interconnect/interconnect_link.cpp **** #	define INTERCONNECT_USART_PORT		C
  48:/home/rene/xpcc/src/xpcc/driver/connectivity/interconnect/interconnect_link.cpp **** #	define INTERCONNECT_USART_ID		0
  49:/home/rene/xpcc/src/xpcc/driver/connectivity/interconnect/interconnect_link.cpp **** #	define INTERCONNECT_PIN_OUTPUT		C,0
  50:/home/rene/xpcc/src/xpcc/driver/connectivity/interconnect/interconnect_link.cpp **** #	define INTERCONNECT_PIN_INPUT		C,1
  51:/home/rene/xpcc/src/xpcc/driver/connectivity/interconnect/interconnect_link.cpp **** 
  52:/home/rene/xpcc/src/xpcc/driver/connectivity/interconnect/interconnect_link.cpp **** #elif defined(CPU_BOARD2_SLAVE)
  53:/home/rene/xpcc/src/xpcc/driver/connectivity/interconnect/interconnect_link.cpp **** 
  54:/home/rene/xpcc/src/xpcc/driver/connectivity/interconnect/interconnect_link.cpp **** 	// Atxmega32a4
  55:/home/rene/xpcc/src/xpcc/driver/connectivity/interconnect/interconnect_link.cpp **** #	define INTERCONNECT_ENABLED
  56:/home/rene/xpcc/src/xpcc/driver/connectivity/interconnect/interconnect_link.cpp **** 
  57:/home/rene/xpcc/src/xpcc/driver/connectivity/interconnect/interconnect_link.cpp **** #	undef  INTERCONNECT_USART_PORT
  58:/home/rene/xpcc/src/xpcc/driver/connectivity/interconnect/interconnect_link.cpp **** #	undef  INTERCONNECT_USART_ID
  59:/home/rene/xpcc/src/xpcc/driver/connectivity/interconnect/interconnect_link.cpp **** #	undef  INTERCONNECT_PIN_OUTPUT
  60:/home/rene/xpcc/src/xpcc/driver/connectivity/interconnect/interconnect_link.cpp **** #	undef  INTERCONNECT_PIN_INPUT
  61:/home/rene/xpcc/src/xpcc/driver/connectivity/interconnect/interconnect_link.cpp **** 
  62:/home/rene/xpcc/src/xpcc/driver/connectivity/interconnect/interconnect_link.cpp **** #	define INTERCONNECT_USART_PORT		D
  63:/home/rene/xpcc/src/xpcc/driver/connectivity/interconnect/interconnect_link.cpp **** #	define INTERCONNECT_USART_ID		1
  64:/home/rene/xpcc/src/xpcc/driver/connectivity/interconnect/interconnect_link.cpp **** #	define INTERCONNECT_PIN_OUTPUT		D,4
  65:/home/rene/xpcc/src/xpcc/driver/connectivity/interconnect/interconnect_link.cpp **** #	define INTERCONNECT_PIN_INPUT		D,5
  66:/home/rene/xpcc/src/xpcc/driver/connectivity/interconnect/interconnect_link.cpp **** 
  67:/home/rene/xpcc/src/xpcc/driver/connectivity/interconnect/interconnect_link.cpp **** #elif INTERCONNECT_USART_PORT != -1 || INTERCONNECT_USART_ID != -1 || \
  68:/home/rene/xpcc/src/xpcc/driver/connectivity/interconnect/interconnect_link.cpp **** 	  INTERCONNECT_PIN_OUTPUT != -1 || INTERCONNECT_PIN_INPUT != -1
  69:/home/rene/xpcc/src/xpcc/driver/connectivity/interconnect/interconnect_link.cpp **** 
  70:/home/rene/xpcc/src/xpcc/driver/connectivity/interconnect/interconnect_link.cpp **** 	// check that every needed define is there
  71:/home/rene/xpcc/src/xpcc/driver/connectivity/interconnect/interconnect_link.cpp **** #	if  INTERCONNECT_USART_PORT == -1 || INTERCONNECT_USART_ID == -1 || \
  72:/home/rene/xpcc/src/xpcc/driver/connectivity/interconnect/interconnect_link.cpp **** 		INTERCONNECT_PIN_OUTPUT == -1 || INTERCONNECT_PIN_INPUT == -1
  73:/home/rene/xpcc/src/xpcc/driver/connectivity/interconnect/interconnect_link.cpp **** #		error "Interconnect link was not configured correctly! Please specify all necessary defines."
  74:/home/rene/xpcc/src/xpcc/driver/connectivity/interconnect/interconnect_link.cpp **** #	endif
  75:/home/rene/xpcc/src/xpcc/driver/connectivity/interconnect/interconnect_link.cpp **** #	define INTERCONNECT_ENABLED
  76:/home/rene/xpcc/src/xpcc/driver/connectivity/interconnect/interconnect_link.cpp **** 
  77:/home/rene/xpcc/src/xpcc/driver/connectivity/interconnect/interconnect_link.cpp **** #else
  78:/home/rene/xpcc/src/xpcc/driver/connectivity/interconnect/interconnect_link.cpp **** 	// Disable Interconnect link
  79:/home/rene/xpcc/src/xpcc/driver/connectivity/interconnect/interconnect_link.cpp **** 	#warning "Interconnect disabled"
  80:/home/rene/xpcc/src/xpcc/driver/connectivity/interconnect/interconnect_link.cpp **** #endif
  81:/home/rene/xpcc/src/xpcc/driver/connectivity/interconnect/interconnect_link.cpp **** 
  82:/home/rene/xpcc/src/xpcc/driver/connectivity/interconnect/interconnect_link.cpp **** #ifdef INTERCONNECT_ENABLED
  83:/home/rene/xpcc/src/xpcc/driver/connectivity/interconnect/interconnect_link.cpp **** 
  84:/home/rene/xpcc/src/xpcc/driver/connectivity/interconnect/interconnect_link.cpp **** // Helper macros
  85:/home/rene/xpcc/src/xpcc/driver/connectivity/interconnect/interconnect_link.cpp **** #define INTERCONNECT_PORT(x)				INTERCONNECT_PORT2(x)
  86:/home/rene/xpcc/src/xpcc/driver/connectivity/interconnect/interconnect_link.cpp **** #define INTERCONNECT_PORT2(port, id)		port
  87:/home/rene/xpcc/src/xpcc/driver/connectivity/interconnect/interconnect_link.cpp **** 
  88:/home/rene/xpcc/src/xpcc/driver/connectivity/interconnect/interconnect_link.cpp **** #define INTERCONNECT_USART		CONCAT(INTERCONNECT_USART_PORT, INTERCONNECT_USART_ID)	// e.g. D1
  89:/home/rene/xpcc/src/xpcc/driver/connectivity/interconnect/interconnect_link.cpp **** 
  90:/home/rene/xpcc/src/xpcc/driver/connectivity/interconnect/interconnect_link.cpp **** // Extra macros for _DATA and _STATUS because the compiler can optimize better
  91:/home/rene/xpcc/src/xpcc/driver/connectivity/interconnect/interconnect_link.cpp **** // if the registers are accessed directly and not over the base struct.
  92:/home/rene/xpcc/src/xpcc/driver/connectivity/interconnect/interconnect_link.cpp **** #define	USART_BASE			CONCAT(USART, INTERCONNECT_USART)				// e.g. USARTD1
  93:/home/rene/xpcc/src/xpcc/driver/connectivity/interconnect/interconnect_link.cpp **** #define USART_BASE_DATA		CONCAT3(USART, INTERCONNECT_USART, _DATA)		// e.g. USARTD1_DATA
  94:/home/rene/xpcc/src/xpcc/driver/connectivity/interconnect/interconnect_link.cpp **** #define USART_BASE_STATUS	CONCAT3(USART, INTERCONNECT_USART, _STATUS)	// e.g. USARTD1_STATUS
  95:/home/rene/xpcc/src/xpcc/driver/connectivity/interconnect/interconnect_link.cpp **** 
  96:/home/rene/xpcc/src/xpcc/driver/connectivity/interconnect/interconnect_link.cpp **** #define USART_DMA_RECEIVE_TRIGGER			CONCAT3(DMA_CH_TRIGSRC_USART, INTERCONNECT_USART, _RXC_gc)
  97:/home/rene/xpcc/src/xpcc/driver/connectivity/interconnect/interconnect_link.cpp **** #define USART_DMA_TRANSMIT_TRIGGER			CONCAT3(DMA_CH_TRIGSRC_USART, INTERCONNECT_USART, _DRE_gc)
  98:/home/rene/xpcc/src/xpcc/driver/connectivity/interconnect/interconnect_link.cpp **** 
  99:/home/rene/xpcc/src/xpcc/driver/connectivity/interconnect/interconnect_link.cpp **** #define USART_TRANSMISSION_COMPLETE_VECTOR	CONCAT3(USART, INTERCONNECT_USART, _TXC_vect)
 100:/home/rene/xpcc/src/xpcc/driver/connectivity/interconnect/interconnect_link.cpp **** #define USART_SLAVE_SELECT_INTERRUPT_VECTOR CONCAT3(PORT, INTERCONNECT_PORT(INTERCONNECT_PIN_INPUT)
 101:/home/rene/xpcc/src/xpcc/driver/connectivity/interconnect/interconnect_link.cpp **** 
 102:/home/rene/xpcc/src/xpcc/driver/connectivity/interconnect/interconnect_link.cpp **** // ----------------------------------------------------------------------------
 103:/home/rene/xpcc/src/xpcc/driver/connectivity/interconnect/interconnect_link.cpp **** // Used pins
 104:/home/rene/xpcc/src/xpcc/driver/connectivity/interconnect/interconnect_link.cpp **** 
 105:/home/rene/xpcc/src/xpcc/driver/connectivity/interconnect/interconnect_link.cpp **** #if INTERCONNECT_USART_ID == 0
 106:/home/rene/xpcc/src/xpcc/driver/connectivity/interconnect/interconnect_link.cpp **** 	GPIO__INPUT3(UsartRx, INTERCONNECT_USART_PORT, 2);
 107:/home/rene/xpcc/src/xpcc/driver/connectivity/interconnect/interconnect_link.cpp **** 	GPIO__OUTPUT3(UsartTx, INTERCONNECT_USART_PORT, 3);
 108:/home/rene/xpcc/src/xpcc/driver/connectivity/interconnect/interconnect_link.cpp **** #else
 109:/home/rene/xpcc/src/xpcc/driver/connectivity/interconnect/interconnect_link.cpp **** 	GPIO__INPUT3(UsartRx, INTERCONNECT_USART_PORT, 6);
 110:/home/rene/xpcc/src/xpcc/driver/connectivity/interconnect/interconnect_link.cpp **** 	GPIO__OUTPUT3(UsartTx, INTERCONNECT_USART_PORT, 7);
 111:/home/rene/xpcc/src/xpcc/driver/connectivity/interconnect/interconnect_link.cpp **** #endif
 112:/home/rene/xpcc/src/xpcc/driver/connectivity/interconnect/interconnect_link.cpp **** 
 113:/home/rene/xpcc/src/xpcc/driver/connectivity/interconnect/interconnect_link.cpp **** GPIO__INPUT2(UsartSS, INTERCONNECT_PIN_INPUT);
 114:/home/rene/xpcc/src/xpcc/driver/connectivity/interconnect/interconnect_link.cpp **** GPIO__OUTPUT2(UsartMS, INTERCONNECT_PIN_OUTPUT);
 115:/home/rene/xpcc/src/xpcc/driver/connectivity/interconnect/interconnect_link.cpp **** 
 116:/home/rene/xpcc/src/xpcc/driver/connectivity/interconnect/interconnect_link.cpp **** // ----------------------------------------------------------------------------
 117:/home/rene/xpcc/src/xpcc/driver/connectivity/interconnect/interconnect_link.cpp **** uint16_t xpcc::InterconnectLink::sizeReceiveBuffer;
 118:/home/rene/xpcc/src/xpcc/driver/connectivity/interconnect/interconnect_link.cpp **** uint16_t xpcc::InterconnectLink::sizeTransmitBuffer;
 119:/home/rene/xpcc/src/xpcc/driver/connectivity/interconnect/interconnect_link.cpp **** 
 120:/home/rene/xpcc/src/xpcc/driver/connectivity/interconnect/interconnect_link.cpp **** uint8_t *xpcc::InterconnectLink::receiveBufferUser;
 121:/home/rene/xpcc/src/xpcc/driver/connectivity/interconnect/interconnect_link.cpp **** uint8_t *xpcc::InterconnectLink::receiveBufferSystem;
 122:/home/rene/xpcc/src/xpcc/driver/connectivity/interconnect/interconnect_link.cpp **** uint8_t *xpcc::InterconnectLink::transmitBuffer;
 123:/home/rene/xpcc/src/xpcc/driver/connectivity/interconnect/interconnect_link.cpp **** 
 124:/home/rene/xpcc/src/xpcc/driver/connectivity/interconnect/interconnect_link.cpp **** volatile xpcc::InterconnectLink::ReceptionState xpcc::InterconnectLink::stateReception;
 125:/home/rene/xpcc/src/xpcc/driver/connectivity/interconnect/interconnect_link.cpp **** volatile xpcc::InterconnectLink::TransmissionState xpcc::InterconnectLink::stateTransmission;
 126:/home/rene/xpcc/src/xpcc/driver/connectivity/interconnect/interconnect_link.cpp **** 
 127:/home/rene/xpcc/src/xpcc/driver/connectivity/interconnect/interconnect_link.cpp **** bool xpcc::InterconnectLink::newDataReceived;
 128:/home/rene/xpcc/src/xpcc/driver/connectivity/interconnect/interconnect_link.cpp **** 
 129:/home/rene/xpcc/src/xpcc/driver/connectivity/interconnect/interconnect_link.cpp **** // ----------------------------------------------------------------------------
 130:/home/rene/xpcc/src/xpcc/driver/connectivity/interconnect/interconnect_link.cpp **** void
 131:/home/rene/xpcc/src/xpcc/driver/connectivity/interconnect/interconnect_link.cpp **** xpcc::InterconnectLink::initialize()
 132:/home/rene/xpcc/src/xpcc/driver/connectivity/interconnect/interconnect_link.cpp **** {
 133:/home/rene/xpcc/src/xpcc/driver/connectivity/interconnect/interconnect_link.cpp **** 	UsartSS::configureInputSense(xpcc::atxmega::BOTHEDGES);
 134:/home/rene/xpcc/src/xpcc/driver/connectivity/interconnect/interconnect_link.cpp **** 	UsartSS::configureInterrupt0(xpcc::atxmega::INTERRUPT_LEVEL_MEDIUM);
 135:/home/rene/xpcc/src/xpcc/driver/connectivity/interconnect/interconnect_link.cpp **** 	
 136:/home/rene/xpcc/src/xpcc/driver/connectivity/interconnect/interconnect_link.cpp **** 	UsartMS::setOutput();
 137:/home/rene/xpcc/src/xpcc/driver/connectivity/interconnect/interconnect_link.cpp **** 	UsartMS::set();
 138:/home/rene/xpcc/src/xpcc/driver/connectivity/interconnect/interconnect_link.cpp **** 	
 139:/home/rene/xpcc/src/xpcc/driver/connectivity/interconnect/interconnect_link.cpp **** 	xpcc::InterconnectLink::stateReception = xpcc::InterconnectLink::RECEIVE_BUFFER_FREE;
 140:/home/rene/xpcc/src/xpcc/driver/connectivity/interconnect/interconnect_link.cpp **** 	xpcc::InterconnectLink::stateTransmission = xpcc::InterconnectLink::TRANSMIT_BUFFER_FREE;
 141:/home/rene/xpcc/src/xpcc/driver/connectivity/interconnect/interconnect_link.cpp **** 	xpcc::InterconnectLink::newDataReceived = false;
 142:/home/rene/xpcc/src/xpcc/driver/connectivity/interconnect/interconnect_link.cpp **** 	
 143:/home/rene/xpcc/src/xpcc/driver/connectivity/interconnect/interconnect_link.cpp **** 	configureUsart();
 144:/home/rene/xpcc/src/xpcc/driver/connectivity/interconnect/interconnect_link.cpp **** 	
 145:/home/rene/xpcc/src/xpcc/driver/connectivity/interconnect/interconnect_link.cpp **** 	// Enable DMA controller
 146:/home/rene/xpcc/src/xpcc/driver/connectivity/interconnect/interconnect_link.cpp **** 	DMA.CTRL = DMA_ENABLE_bm | DMA_PRIMODE_CH0123_gc;
 147:/home/rene/xpcc/src/xpcc/driver/connectivity/interconnect/interconnect_link.cpp **** 	
 148:/home/rene/xpcc/src/xpcc/driver/connectivity/interconnect/interconnect_link.cpp **** 	configureDmaChannel0(); // transmit
 149:/home/rene/xpcc/src/xpcc/driver/connectivity/interconnect/interconnect_link.cpp **** 	configureDmaChannel1(); // receive
 150:/home/rene/xpcc/src/xpcc/driver/connectivity/interconnect/interconnect_link.cpp **** }
 151:/home/rene/xpcc/src/xpcc/driver/connectivity/interconnect/interconnect_link.cpp **** 
 152:/home/rene/xpcc/src/xpcc/driver/connectivity/interconnect/interconnect_link.cpp **** // ----------------------------------------------------------------------------
 153:/home/rene/xpcc/src/xpcc/driver/connectivity/interconnect/interconnect_link.cpp **** void
 154:/home/rene/xpcc/src/xpcc/driver/connectivity/interconnect/interconnect_link.cpp **** xpcc::InterconnectLink::configureUsart()
 155:/home/rene/xpcc/src/xpcc/driver/connectivity/interconnect/interconnect_link.cpp **** {
  66               		.loc 1 155 0
  67               	/* prologue: function */
  68               	/* frame size = 0 */
  69               	/* stack size = 0 */
  70               	.L__stack_usage = 0
  71               	.LBB30:
  72               	.LBB31:
  73               	.LBB32:
 106:/home/rene/xpcc/src/xpcc/driver/connectivity/interconnect/interconnect_link.cpp **** 	GPIO__INPUT3(UsartRx, INTERCONNECT_USART_PORT, 2);
  74               		.loc 1 106 0
  75 0000 84E0      		ldi r24,lo8(4)	 ;  tmp43,
  76 0002 8093 4206 		sts 1602,r24	 ;  MEM[(volatile uint8_t *)1602B], tmp43
  77               	.LBE32:
  78               	.LBE31:
  79               	.LBB33:
  80               	.LBB34:
 107:/home/rene/xpcc/src/xpcc/driver/connectivity/interconnect/interconnect_link.cpp **** 	GPIO__OUTPUT3(UsartTx, INTERCONNECT_USART_PORT, 3);
  81               		.loc 1 107 0
  82 0006 88E0      		ldi r24,lo8(8)	 ;  tmp45,
  83 0008 8093 4506 		sts 1605,r24	 ;  MEM[(volatile uint8_t *)1605B], tmp45
  84               	.LBE34:
  85               	.LBE33:
  86               	.LBB35:
  87               	.LBB36:
  88 000c 8093 4106 		sts 1601,r24	 ;  MEM[(volatile uint8_t *)1601B], tmp45
  89               	.LVL0:
  90               	.LBE36:
  91               	.LBE35:
 156:/home/rene/xpcc/src/xpcc/driver/connectivity/interconnect/interconnect_link.cpp **** 	UsartRx::setInput();
 157:/home/rene/xpcc/src/xpcc/driver/connectivity/interconnect/interconnect_link.cpp **** 	UsartTx::set();
 158:/home/rene/xpcc/src/xpcc/driver/connectivity/interconnect/interconnect_link.cpp **** 	UsartTx::setOutput();
 159:/home/rene/xpcc/src/xpcc/driver/connectivity/interconnect/interconnect_link.cpp **** 	
 160:/home/rene/xpcc/src/xpcc/driver/connectivity/interconnect/interconnect_link.cpp **** 	uint16_t ubrr = 0; // TODO
 161:/home/rene/xpcc/src/xpcc/driver/connectivity/interconnect/interconnect_link.cpp **** 	
 162:/home/rene/xpcc/src/xpcc/driver/connectivity/interconnect/interconnect_link.cpp **** 	USART_BASE.BAUDCTRLB = static_cast<uint8_t>(ubrr >> 8);
  92               		.loc 1 162 0
  93 0010 E0EA      		ldi r30,lo8(-96)	 ;  tmp48,
  94 0012 F8E0      		ldi r31,lo8(8)	 ; ,
  95 0014 1782      		std Z+7,__zero_reg__	 ;  MEM[(struct USART_t *)2208B].BAUDCTRLB,
 163:/home/rene/xpcc/src/xpcc/driver/connectivity/interconnect/interconnect_link.cpp **** 	USART_BASE.BAUDCTRLA = static_cast<uint8_t>(ubrr & 0xff);
  96               		.loc 1 163 0
  97 0016 1682      		std Z+6,__zero_reg__	 ;  MEM[(struct USART_t *)2208B].BAUDCTRLA,
 164:/home/rene/xpcc/src/xpcc/driver/connectivity/interconnect/interconnect_link.cpp **** 	
 165:/home/rene/xpcc/src/xpcc/driver/connectivity/interconnect/interconnect_link.cpp **** 	// Enable transmit complete interrupt, receiver and transmitter
 166:/home/rene/xpcc/src/xpcc/driver/connectivity/interconnect/interconnect_link.cpp **** 	// and set  the frame size to 8 bit
 167:/home/rene/xpcc/src/xpcc/driver/connectivity/interconnect/interconnect_link.cpp **** 	USART_BASE.CTRLA = USART_TXCINTLVL_MED_gc;
  98               		.loc 1 167 0
  99 0018 8383      		std Z+3,r24	 ;  MEM[(struct USART_t *)2208B].CTRLA, tmp45
 168:/home/rene/xpcc/src/xpcc/driver/connectivity/interconnect/interconnect_link.cpp **** 	USART_BASE.CTRLC = USART_CHSIZE_8BIT_gc;
 100               		.loc 1 168 0
 101 001a 83E0      		ldi r24,lo8(3)	 ;  tmp53,
 102 001c 8583      		std Z+5,r24	 ;  MEM[(struct USART_t *)2208B].CTRLC, tmp53
 169:/home/rene/xpcc/src/xpcc/driver/connectivity/interconnect/interconnect_link.cpp **** 	USART_BASE.CTRLB = USART_RXEN_bm | USART_TXEN_bm;
 103               		.loc 1 169 0
 104 001e 88E1      		ldi r24,lo8(24)	 ;  tmp55,
 105 0020 8483      		std Z+4,r24	 ;  MEM[(struct USART_t *)2208B].CTRLB, tmp55
 106 0022 0895      		ret
 107               	.LBE30:
 108               	.LFE618:
 110               		.section	.text._ZN4xpcc16InterconnectLink20configureDmaChannel0Ev,"ax",@progbits
 111               	.global	_ZN4xpcc16InterconnectLink20configureDmaChannel0Ev
 113               	_ZN4xpcc16InterconnectLink20configureDmaChannel0Ev:
 114               	.LFB619:
 170:/home/rene/xpcc/src/xpcc/driver/connectivity/interconnect/interconnect_link.cpp **** }
 171:/home/rene/xpcc/src/xpcc/driver/connectivity/interconnect/interconnect_link.cpp **** 
 172:/home/rene/xpcc/src/xpcc/driver/connectivity/interconnect/interconnect_link.cpp **** void
 173:/home/rene/xpcc/src/xpcc/driver/connectivity/interconnect/interconnect_link.cpp **** xpcc::InterconnectLink::configureDmaChannel0()
 174:/home/rene/xpcc/src/xpcc/driver/connectivity/interconnect/interconnect_link.cpp **** {
 115               		.loc 1 174 0
 116               	/* prologue: function */
 117               	/* frame size = 0 */
 118               	/* stack size = 0 */
 119               	.L__stack_usage = 0
 175:/home/rene/xpcc/src/xpcc/driver/connectivity/interconnect/interconnect_link.cpp **** 	DMA.CH0.ADDRCTRL = DMA_CH_SRCRELOAD_TRANSACTION_gc  // source is reloaded with initial value
 176:/home/rene/xpcc/src/xpcc/driver/connectivity/interconnect/interconnect_link.cpp **** 					| DMA_CH_SRCDIR_INC_gc			// mode of changing source
 177:/home/rene/xpcc/src/xpcc/driver/connectivity/interconnect/interconnect_link.cpp **** 					| DMA_CH_DESTRELOAD_NONE_gc
 178:/home/rene/xpcc/src/xpcc/driver/connectivity/interconnect/interconnect_link.cpp **** 					| DMA_CH_DESTDIR_FIXED_gc;
 120               		.loc 1 178 0
 121 0000 E0E0      		ldi r30,0	 ;  tmp42
 122 0002 F1E0      		ldi r31,lo8(1)	 ; ,
 123 0004 80ED      		ldi r24,lo8(-48)	 ;  tmp43,
 124 0006 828B      		std Z+18,r24	 ;  MEM[(struct DMA_t *)256B].CH0.ADDRCTRL, tmp43
 179:/home/rene/xpcc/src/xpcc/driver/connectivity/interconnect/interconnect_link.cpp **** 	
 180:/home/rene/xpcc/src/xpcc/driver/connectivity/interconnect/interconnect_link.cpp **** 	DMA.CH0.TRIGSRC = USART_DMA_TRANSMIT_TRIGGER; // trigger source select
 125               		.loc 1 180 0
 126 0008 8CE4      		ldi r24,lo8(76)	 ;  tmp45,
 127 000a 838B      		std Z+19,r24	 ;  MEM[(struct DMA_t *)256B].CH0.TRIGSRC, tmp45
 181:/home/rene/xpcc/src/xpcc/driver/connectivity/interconnect/interconnect_link.cpp **** 	
 182:/home/rene/xpcc/src/xpcc/driver/connectivity/interconnect/interconnect_link.cpp **** 	DMA.CH0.DESTADDR0 = (((uint16_t) &USART_BASE_DATA) >> 0) & 0xff;
 128               		.loc 1 182 0
 129 000c 80EA      		ldi r24,lo8(-96)	 ;  tmp47,
 130 000e 848F      		std Z+28,r24	 ;  MEM[(struct DMA_t *)256B].CH0.DESTADDR0, tmp47
 183:/home/rene/xpcc/src/xpcc/driver/connectivity/interconnect/interconnect_link.cpp **** 	DMA.CH0.DESTADDR1 = (((uint16_t) &USART_BASE_DATA) >> 8) & 0xff;
 131               		.loc 1 183 0
 132 0010 88E0      		ldi r24,lo8(8)	 ;  tmp49,
 133 0012 858F      		std Z+29,r24	 ;  MEM[(struct DMA_t *)256B].CH0.DESTADDR1, tmp49
 184:/home/rene/xpcc/src/xpcc/driver/connectivity/interconnect/interconnect_link.cpp **** 	DMA.CH0.DESTADDR2 = 0;
 134               		.loc 1 184 0
 135 0014 168E      		std Z+30,__zero_reg__	 ;  MEM[(struct DMA_t *)256B].CH0.DESTADDR2,
 136 0016 0895      		ret
 137               	.LFE619:
 139               		.section	.text._ZN4xpcc16InterconnectLink20configureDmaChannel1Ev,"ax",@progbits
 140               	.global	_ZN4xpcc16InterconnectLink20configureDmaChannel1Ev
 142               	_ZN4xpcc16InterconnectLink20configureDmaChannel1Ev:
 143               	.LFB620:
 185:/home/rene/xpcc/src/xpcc/driver/connectivity/interconnect/interconnect_link.cpp **** }
 186:/home/rene/xpcc/src/xpcc/driver/connectivity/interconnect/interconnect_link.cpp **** 
 187:/home/rene/xpcc/src/xpcc/driver/connectivity/interconnect/interconnect_link.cpp **** void
 188:/home/rene/xpcc/src/xpcc/driver/connectivity/interconnect/interconnect_link.cpp **** xpcc::InterconnectLink::configureDmaChannel1()
 189:/home/rene/xpcc/src/xpcc/driver/connectivity/interconnect/interconnect_link.cpp **** {
 144               		.loc 1 189 0
 145               	/* prologue: function */
 146               	/* frame size = 0 */
 147               	/* stack size = 0 */
 148               	.L__stack_usage = 0
 190:/home/rene/xpcc/src/xpcc/driver/connectivity/interconnect/interconnect_link.cpp **** 	// Enable error interrupt and disable transaction complete interrupt enable
 191:/home/rene/xpcc/src/xpcc/driver/connectivity/interconnect/interconnect_link.cpp **** 	DMA.CH1.CTRLB =   DMA_CH_ERRINTLVL_MED_gc | DMA_CH_TRNINTLVL_OFF_gc;
 149               		.loc 1 191 0
 150 0000 E0E0      		ldi r30,0	 ;  tmp42
 151 0002 F1E0      		ldi r31,lo8(1)	 ; ,
 152 0004 88E0      		ldi r24,lo8(8)	 ;  tmp43,
 153 0006 81A3      		std Z+33,r24	 ;  MEM[(struct DMA_t *)256B].CH1.CTRLB, tmp43
 192:/home/rene/xpcc/src/xpcc/driver/connectivity/interconnect/interconnect_link.cpp **** 	
 193:/home/rene/xpcc/src/xpcc/driver/connectivity/interconnect/interconnect_link.cpp **** 	DMA.CH1.ADDRCTRL = DMA_CH_SRCRELOAD_NONE_gc		// source is reloaded with initial value
 194:/home/rene/xpcc/src/xpcc/driver/connectivity/interconnect/interconnect_link.cpp **** 					| DMA_CH_SRCDIR_FIXED_gc		// mode of changing source
 195:/home/rene/xpcc/src/xpcc/driver/connectivity/interconnect/interconnect_link.cpp **** 					| DMA_CH_DESTRELOAD_NONE_gc
 196:/home/rene/xpcc/src/xpcc/driver/connectivity/interconnect/interconnect_link.cpp **** 					| DMA_CH_DESTDIR_INC_gc;
 154               		.loc 1 196 0
 155 0008 91E0      		ldi r25,lo8(1)	 ;  tmp45,
 156 000a 92A3      		std Z+34,r25	 ;  MEM[(struct DMA_t *)256B].CH1.ADDRCTRL, tmp45
 197:/home/rene/xpcc/src/xpcc/driver/connectivity/interconnect/interconnect_link.cpp **** 	DMA.CH1.TRIGSRC = USART_DMA_RECEIVE_TRIGGER; // trigger source select
 157               		.loc 1 197 0
 158 000c 9BE4      		ldi r25,lo8(75)	 ;  tmp47,
 159 000e 93A3      		std Z+35,r25	 ;  MEM[(struct DMA_t *)256B].CH1.TRIGSRC, tmp47
 198:/home/rene/xpcc/src/xpcc/driver/connectivity/interconnect/interconnect_link.cpp **** 	
 199:/home/rene/xpcc/src/xpcc/driver/connectivity/interconnect/interconnect_link.cpp **** 	DMA.CH1.SRCADDR0 = (((uint16_t) &USART_BASE_DATA) >> 0) & 0xff;
 160               		.loc 1 199 0
 161 0010 90EA      		ldi r25,lo8(-96)	 ;  tmp49,
 162 0012 90A7      		std Z+40,r25	 ;  MEM[(struct DMA_t *)256B].CH1.SRCADDR0, tmp49
 200:/home/rene/xpcc/src/xpcc/driver/connectivity/interconnect/interconnect_link.cpp **** 	DMA.CH1.SRCADDR1 = (((uint16_t) &USART_BASE_DATA) >> 8) & 0xff;
 163               		.loc 1 200 0
 164 0014 81A7      		std Z+41,r24	 ;  MEM[(struct DMA_t *)256B].CH1.SRCADDR1, tmp43
 201:/home/rene/xpcc/src/xpcc/driver/connectivity/interconnect/interconnect_link.cpp **** 	DMA.CH1.SRCADDR2 = 0;
 165               		.loc 1 201 0
 166 0016 12A6      		std Z+42,__zero_reg__	 ;  MEM[(struct DMA_t *)256B].CH1.SRCADDR2,
 167 0018 0895      		ret
 168               	.LFE620:
 170               		.section	.text._ZN4xpcc16InterconnectLink10initializeEv,"ax",@progbits
 171               	.global	_ZN4xpcc16InterconnectLink10initializeEv
 173               	_ZN4xpcc16InterconnectLink10initializeEv:
 174               	.LFB617:
 132:/home/rene/xpcc/src/xpcc/driver/connectivity/interconnect/interconnect_link.cpp **** {
 175               		.loc 1 132 0
 176               	/* prologue: function */
 177               	/* frame size = 0 */
 178               	/* stack size = 0 */
 179               	.L__stack_usage = 0
 180               	.LVL1:
 181               	.LBB37:
 182               	.LBB38:
 113:/home/rene/xpcc/src/xpcc/driver/connectivity/interconnect/interconnect_link.cpp **** GPIO__INPUT2(UsartSS, INTERCONNECT_PIN_INPUT);
 183               		.loc 1 113 0
 184 0000 E1E5      		ldi r30,lo8(81)	 ;  tmp53,
 185 0002 F6E0      		ldi r31,lo8(6)	 ; ,
 186 0004 8081      		ld r24,Z	 ;  D.8303, MEM[(volatile uint8_t *)1617B]
 187 0006 887F      		andi r24,lo8(-8)	 ;  D.8303,
 188 0008 8083      		st Z,r24	 ;  MEM[(volatile uint8_t *)1617B], D.8303
 189               	.LVL2:
 190               	.LBE38:
 191               	.LBE37:
 192               	.LBB39:
 193               	.LBB40:
 194 000a EAE4      		ldi r30,lo8(74)	 ;  tmp55,
 195 000c F6E0      		ldi r31,lo8(6)	 ; ,
 196 000e 8081      		ld r24,Z	 ;  D.8322, MEM[(volatile uint8_t *)1610B]
 197 0010 8260      		ori r24,lo8(2)	 ;  D.8322,
 198 0012 8083      		st Z,r24	 ;  MEM[(volatile uint8_t *)1610B], D.8322
 199 0014 E9E4      		ldi r30,lo8(73)	 ;  tmp57,
 200 0016 F6E0      		ldi r31,lo8(6)	 ; ,
 201 0018 8081      		ld r24,Z	 ;  D.8315, MEM[(volatile uint8_t *)1609B]
 202 001a 8C7F      		andi r24,lo8(-4)	 ;  D.8315,
 203 001c 8260      		ori r24,lo8(2)	 ;  D.8315,
 204 001e 8083      		st Z,r24	 ;  MEM[(volatile uint8_t *)1609B], D.8315
 205               	.LBE40:
 206               	.LBE39:
 207               	.LBB41:
 208               	.LBB42:
 114:/home/rene/xpcc/src/xpcc/driver/connectivity/interconnect/interconnect_link.cpp **** GPIO__OUTPUT2(UsartMS, INTERCONNECT_PIN_OUTPUT);
 209               		.loc 1 114 0
 210 0020 81E0      		ldi r24,lo8(1)	 ;  tmp61,
 211 0022 8093 4106 		sts 1601,r24	 ;  MEM[(volatile uint8_t *)1601B], tmp61
 212               	.LBE42:
 213               	.LBE41:
 214               	.LBB43:
 215               	.LBB44:
 216 0026 8093 4506 		sts 1605,r24	 ;  MEM[(volatile uint8_t *)1605B], tmp61
 217               	.LBE44:
 218               	.LBE43:
 139:/home/rene/xpcc/src/xpcc/driver/connectivity/interconnect/interconnect_link.cpp **** 	xpcc::InterconnectLink::stateReception = xpcc::InterconnectLink::RECEIVE_BUFFER_FREE;
 219               		.loc 1 139 0
 220 002a 1092 0000 		sts _ZN4xpcc16InterconnectLink14stateReceptionE,__zero_reg__	 ;  stateReception,
 140:/home/rene/xpcc/src/xpcc/driver/connectivity/interconnect/interconnect_link.cpp **** 	xpcc::InterconnectLink::stateTransmission = xpcc::InterconnectLink::TRANSMIT_BUFFER_FREE;
 221               		.loc 1 140 0
 222 002e 1092 0000 		sts _ZN4xpcc16InterconnectLink17stateTransmissionE,__zero_reg__	 ;  stateTransmission,
 141:/home/rene/xpcc/src/xpcc/driver/connectivity/interconnect/interconnect_link.cpp **** 	xpcc::InterconnectLink::newDataReceived = false;
 223               		.loc 1 141 0
 224 0032 1092 0000 		sts _ZN4xpcc16InterconnectLink15newDataReceivedE,__zero_reg__	 ;  newDataReceived,
 143:/home/rene/xpcc/src/xpcc/driver/connectivity/interconnect/interconnect_link.cpp **** 	configureUsart();
 225               		.loc 1 143 0
 226 0036 0E94 0000 		call _ZN4xpcc16InterconnectLink14configureUsartEv	 ; 
 227               	.LVL3:
 146:/home/rene/xpcc/src/xpcc/driver/connectivity/interconnect/interconnect_link.cpp **** 	DMA.CTRL = DMA_ENABLE_bm | DMA_PRIMODE_CH0123_gc;
 228               		.loc 1 146 0
 229 003a 83E8      		ldi r24,lo8(-125)	 ;  tmp65,
 230 003c 8093 0001 		sts 256,r24	 ;  MEM[(struct DMA_t *)256B].CTRL, tmp65
 148:/home/rene/xpcc/src/xpcc/driver/connectivity/interconnect/interconnect_link.cpp **** 	configureDmaChannel0(); // transmit
 231               		.loc 1 148 0
 232 0040 0E94 0000 		call _ZN4xpcc16InterconnectLink20configureDmaChannel0Ev	 ; 
 233               	.LVL4:
 149:/home/rene/xpcc/src/xpcc/driver/connectivity/interconnect/interconnect_link.cpp **** 	configureDmaChannel1(); // receive
 234               		.loc 1 149 0
 235 0044 0C94 0000 		jmp _ZN4xpcc16InterconnectLink20configureDmaChannel1Ev	 ; 
 236               	.LVL5:
 237               	.LFE617:
 239               		.section	.text._ZN4xpcc16InterconnectLink22reactivateTransmissionEv,"ax",@progbits
 240               	.global	_ZN4xpcc16InterconnectLink22reactivateTransmissionEv
 242               	_ZN4xpcc16InterconnectLink22reactivateTransmissionEv:
 243               	.LFB621:
 202:/home/rene/xpcc/src/xpcc/driver/connectivity/interconnect/interconnect_link.cpp **** }
 203:/home/rene/xpcc/src/xpcc/driver/connectivity/interconnect/interconnect_link.cpp **** 
 204:/home/rene/xpcc/src/xpcc/driver/connectivity/interconnect/interconnect_link.cpp **** // ----------------------------------------------------------------------------
 205:/home/rene/xpcc/src/xpcc/driver/connectivity/interconnect/interconnect_link.cpp **** void
 206:/home/rene/xpcc/src/xpcc/driver/connectivity/interconnect/interconnect_link.cpp **** xpcc::InterconnectLink::reactivateTransmission()
 207:/home/rene/xpcc/src/xpcc/driver/connectivity/interconnect/interconnect_link.cpp **** {
 244               		.loc 1 207 0
 245               	/* prologue: function */
 246               	/* frame size = 0 */
 247               	/* stack size = 0 */
 248               	.L__stack_usage = 0
 208:/home/rene/xpcc/src/xpcc/driver/connectivity/interconnect/interconnect_link.cpp **** 	// Clear the flags. maybe necessary if interrupt is enabled.
 209:/home/rene/xpcc/src/xpcc/driver/connectivity/interconnect/interconnect_link.cpp **** 	DMA_CH0_CTRLB |= DMA_CH_TRNIF_bm | DMA_CH_ERRIF_bm;
 249               		.loc 1 209 0
 250 0000 E1E1      		ldi r30,lo8(17)	 ;  tmp52,
 251 0002 F1E0      		ldi r31,lo8(1)	 ; ,
 252 0004 8081      		ld r24,Z	 ;  D.8204, MEM[(volatile uint8_t *)273B]
 253 0006 8063      		ori r24,lo8(48)	 ;  D.8204,
 254 0008 8083      		st Z,r24	 ;  MEM[(volatile uint8_t *)273B], D.8204
 210:/home/rene/xpcc/src/xpcc/driver/connectivity/interconnect/interconnect_link.cpp **** 	
 211:/home/rene/xpcc/src/xpcc/driver/connectivity/interconnect/interconnect_link.cpp **** 	// enable Error Interrupt and Transaction Complete Interrupt
 212:/home/rene/xpcc/src/xpcc/driver/connectivity/interconnect/interconnect_link.cpp **** 	DMA_CH0_CTRLB  =  DMA_CH_ERRINTLVL_MED_gc | DMA_CH_TRNINTLVL_MED_gc;
 255               		.loc 1 212 0
 256 000a 8AE0      		ldi r24,lo8(10)	 ;  tmp55,
 257 000c 8083      		st Z,r24	 ;  MEM[(volatile uint8_t *)273B], tmp55
 213:/home/rene/xpcc/src/xpcc/driver/connectivity/interconnect/interconnect_link.cpp **** 
 214:/home/rene/xpcc/src/xpcc/driver/connectivity/interconnect/interconnect_link.cpp **** 	DMA_CH0_SRCADDR0 = (((uint16_t) transmitBuffer) >> 0) & 0xff;
 258               		.loc 1 214 0
 259 000e 8091 0000 		lds r24,_ZN4xpcc16InterconnectLink14transmitBufferE	 ;  D.8208, transmitBuffer
 260 0012 8093 1801 		sts 280,r24	 ;  MEM[(volatile uint8_t *)280B], D.8208
 215:/home/rene/xpcc/src/xpcc/driver/connectivity/interconnect/interconnect_link.cpp **** 	DMA_CH0_SRCADDR1 = (((uint16_t) transmitBuffer) >> 8) & 0xff;
 261               		.loc 1 215 0
 262 0016 8091 0000 		lds r24,_ZN4xpcc16InterconnectLink14transmitBufferE	 ;  transmitBuffer, transmitBuffer
 263 001a 9091 0000 		lds r25,_ZN4xpcc16InterconnectLink14transmitBufferE+1	 ;  transmitBuffer, transmitBuffer
 264 001e 892F      		mov r24,r25	 ;  tmp58, transmitBuffer
 265 0020 9927      		clr r25	 ;  tmp58
 266 0022 8093 1901 		sts 281,r24	 ;  MEM[(volatile uint8_t *)281B], tmp58
 216:/home/rene/xpcc/src/xpcc/driver/connectivity/interconnect/interconnect_link.cpp **** 	DMA_CH0_SRCADDR2 = 0;
 267               		.loc 1 216 0
 268 0026 1092 1A01 		sts 282,__zero_reg__	 ;  MEM[(volatile uint8_t *)282B],
 217:/home/rene/xpcc/src/xpcc/driver/connectivity/interconnect/interconnect_link.cpp **** 	
 218:/home/rene/xpcc/src/xpcc/driver/connectivity/interconnect/interconnect_link.cpp **** 	DMA_CH0_TRFCNT = sizeTransmitBuffer;
 269               		.loc 1 218 0
 270 002a 8091 0000 		lds r24,_ZN4xpcc16InterconnectLink18sizeTransmitBufferE	 ;  sizeTransmitBuffer.18, sizeTransmitBuf
 271 002e 9091 0000 		lds r25,_ZN4xpcc16InterconnectLink18sizeTransmitBufferE+1	 ;  sizeTransmitBuffer.18, sizeTransmitB
 272 0032 8093 1401 		sts 276,r24	 ;  MEM[(volatile uint16_t *)276B], sizeTransmitBuffer.18
 273 0036 9093 1501 		sts 276+1,r25	 ;  MEM[(volatile uint16_t *)276B], sizeTransmitBuffer.18
 219:/home/rene/xpcc/src/xpcc/driver/connectivity/interconnect/interconnect_link.cpp **** 	
 220:/home/rene/xpcc/src/xpcc/driver/connectivity/interconnect/interconnect_link.cpp **** 	DMA_CH0_REPCNT = 1;
 274               		.loc 1 220 0
 275 003a 81E0      		ldi r24,lo8(1)	 ;  tmp64,
 276 003c 8093 1601 		sts 278,r24	 ;  MEM[(volatile uint8_t *)278B], tmp64
 221:/home/rene/xpcc/src/xpcc/driver/connectivity/interconnect/interconnect_link.cpp **** 	
 222:/home/rene/xpcc/src/xpcc/driver/connectivity/interconnect/interconnect_link.cpp **** 	DMA_CH0_CTRLA = DMA_CH_ENABLE_bm		// autocleared on transaction end
 223:/home/rene/xpcc/src/xpcc/driver/connectivity/interconnect/interconnect_link.cpp **** 					| DMA_CH_REPEAT_bm		// autocleared at last repetition
 224:/home/rene/xpcc/src/xpcc/driver/connectivity/interconnect/interconnect_link.cpp **** 					| DMA_CH_SINGLE_bm
 225:/home/rene/xpcc/src/xpcc/driver/connectivity/interconnect/interconnect_link.cpp **** 					| DMA_CH_BURSTLEN_1BYTE_gc;
 277               		.loc 1 225 0
 278 0040 84EA      		ldi r24,lo8(-92)	 ;  tmp66,
 279 0042 8093 1001 		sts 272,r24	 ;  MEM[(volatile uint8_t *)272B], tmp66
 280 0046 0895      		ret
 281               	.LFE621:
 283               		.section	.text._ZN4xpcc16InterconnectLink19reactivateReceptionEv,"ax",@progbits
 284               	.global	_ZN4xpcc16InterconnectLink19reactivateReceptionEv
 286               	_ZN4xpcc16InterconnectLink19reactivateReceptionEv:
 287               	.LFB622:
 226:/home/rene/xpcc/src/xpcc/driver/connectivity/interconnect/interconnect_link.cpp **** }
 227:/home/rene/xpcc/src/xpcc/driver/connectivity/interconnect/interconnect_link.cpp **** 
 228:/home/rene/xpcc/src/xpcc/driver/connectivity/interconnect/interconnect_link.cpp **** // ----------------------------------------------------------------------------
 229:/home/rene/xpcc/src/xpcc/driver/connectivity/interconnect/interconnect_link.cpp **** void
 230:/home/rene/xpcc/src/xpcc/driver/connectivity/interconnect/interconnect_link.cpp **** xpcc::InterconnectLink::reactivateReception()
 231:/home/rene/xpcc/src/xpcc/driver/connectivity/interconnect/interconnect_link.cpp **** {
 288               		.loc 1 231 0
 289               	/* prologue: function */
 290               	/* frame size = 0 */
 291               	/* stack size = 0 */
 292               	.L__stack_usage = 0
 293               	.LBB45:
 232:/home/rene/xpcc/src/xpcc/driver/connectivity/interconnect/interconnect_link.cpp **** 	// flush unread data
 233:/home/rene/xpcc/src/xpcc/driver/connectivity/interconnect/interconnect_link.cpp **** 	while (USART_BASE_STATUS & USART_RXCIF_bm) {
 294               		.loc 1 233 0
 295 0000 00C0      		rjmp .L7	 ; 
 296               	.L8:
 297               	.LBB46:
 234:/home/rene/xpcc/src/xpcc/driver/connectivity/interconnect/interconnect_link.cpp **** 		char c = USART_BASE_DATA;
 298               		.loc 1 234 0
 299 0002 8091 A008 		lds r24,2208	 ;  c, MEM[(volatile uint8_t *)2208B]
 300               	.LVL6:
 301               	.L7:
 302               	.LBE46:
 233:/home/rene/xpcc/src/xpcc/driver/connectivity/interconnect/interconnect_link.cpp **** 	while (USART_BASE_STATUS & USART_RXCIF_bm) {
 303               		.loc 1 233 0 discriminator 1
 304 0006 8091 A108 		lds r24,2209	 ;  D.8191, MEM[(volatile uint8_t *)2209B]
 305 000a 87FD      		sbrc r24,7	 ;  D.8191,
 306 000c 00C0      		rjmp .L8	 ; 
 235:/home/rene/xpcc/src/xpcc/driver/connectivity/interconnect/interconnect_link.cpp **** 		c = 0;
 236:/home/rene/xpcc/src/xpcc/driver/connectivity/interconnect/interconnect_link.cpp **** 	}
 237:/home/rene/xpcc/src/xpcc/driver/connectivity/interconnect/interconnect_link.cpp **** 	DMA.CH1.TRFCNT = sizeReceiveBuffer;
 307               		.loc 1 237 0
 308 000e 8091 0000 		lds r24,_ZN4xpcc16InterconnectLink17sizeReceiveBufferE	 ;  sizeReceiveBuffer.11, sizeReceiveBuffer
 309 0012 9091 0000 		lds r25,_ZN4xpcc16InterconnectLink17sizeReceiveBufferE+1	 ;  sizeReceiveBuffer.11, sizeReceiveBuff
 310 0016 8093 2401 		sts 292,r24	 ;  MEM[(struct DMA_t *)256B].CH1.D.2044.TRFCNT, sizeReceiveBuffer.11
 311 001a 9093 2501 		sts 292+1,r25	 ;  MEM[(struct DMA_t *)256B].CH1.D.2044.TRFCNT, sizeReceiveBuffer.11
 238:/home/rene/xpcc/src/xpcc/driver/connectivity/interconnect/interconnect_link.cpp **** 	DMA.CH1.REPCNT = 1;
 312               		.loc 1 238 0
 313 001e 81E0      		ldi r24,lo8(1)	 ;  tmp56,
 314 0020 8093 2601 		sts 294,r24	 ;  MEM[(struct DMA_t *)256B].CH1.REPCNT, tmp56
 239:/home/rene/xpcc/src/xpcc/driver/connectivity/interconnect/interconnect_link.cpp **** 	
 240:/home/rene/xpcc/src/xpcc/driver/connectivity/interconnect/interconnect_link.cpp **** 	DMA.CH1.DESTADDR0 = (((uint16_t) receiveBufferSystem) >> 0) & 0xff;
 315               		.loc 1 240 0
 316 0024 8091 0000 		lds r24,_ZN4xpcc16InterconnectLink19receiveBufferSystemE	 ;  receiveBufferSystem.12, receiveBuffer
 317 0028 9091 0000 		lds r25,_ZN4xpcc16InterconnectLink19receiveBufferSystemE+1	 ;  receiveBufferSystem.12, receiveBuff
 318 002c 8093 2C01 		sts 300,r24	 ;  MEM[(struct DMA_t *)256B].CH1.DESTADDR0, receiveBufferSystem.12
 241:/home/rene/xpcc/src/xpcc/driver/connectivity/interconnect/interconnect_link.cpp **** 	DMA.CH1.DESTADDR1 = (((uint16_t) receiveBufferSystem) >> 8) & 0xff;
 319               		.loc 1 241 0
 320 0030 892F      		mov r24,r25	 ;  tmp58, receiveBufferSystem.12
 321 0032 9927      		clr r25	 ;  tmp58
 322 0034 8093 2D01 		sts 301,r24	 ;  MEM[(struct DMA_t *)256B].CH1.DESTADDR1, tmp58
 242:/home/rene/xpcc/src/xpcc/driver/connectivity/interconnect/interconnect_link.cpp **** 	DMA.CH1.DESTADDR2 = 0;
 323               		.loc 1 242 0
 324 0038 1092 2E01 		sts 302,__zero_reg__	 ;  MEM[(struct DMA_t *)256B].CH1.DESTADDR2,
 243:/home/rene/xpcc/src/xpcc/driver/connectivity/interconnect/interconnect_link.cpp **** 	
 244:/home/rene/xpcc/src/xpcc/driver/connectivity/interconnect/interconnect_link.cpp **** 	DMA.CH1.CTRLA = DMA_CH_ENABLE_bm		// autocleared on transaction end
 245:/home/rene/xpcc/src/xpcc/driver/connectivity/interconnect/interconnect_link.cpp **** 					| DMA_CH_REPEAT_bm		// autocleared at last repetition
 246:/home/rene/xpcc/src/xpcc/driver/connectivity/interconnect/interconnect_link.cpp **** 					| DMA_CH_SINGLE_bm
 247:/home/rene/xpcc/src/xpcc/driver/connectivity/interconnect/interconnect_link.cpp **** 					| DMA_CH_BURSTLEN_1BYTE_gc;
 325               		.loc 1 247 0
 326 003c 84EA      		ldi r24,lo8(-92)	 ;  tmp62,
 327 003e 8093 2001 		sts 288,r24	 ;  MEM[(struct DMA_t *)256B].CH1.CTRLA, tmp62
 328 0042 0895      		ret
 329               	.LBE45:
 330               	.LFE622:
 332               		.section	.text._ZN4xpcc16InterconnectLink15makeTransactionEv,"ax",@progbits
 333               	.global	_ZN4xpcc16InterconnectLink15makeTransactionEv
 335               	_ZN4xpcc16InterconnectLink15makeTransactionEv:
 336               	.LFB623:
 248:/home/rene/xpcc/src/xpcc/driver/connectivity/interconnect/interconnect_link.cpp **** }
 249:/home/rene/xpcc/src/xpcc/driver/connectivity/interconnect/interconnect_link.cpp **** 
 250:/home/rene/xpcc/src/xpcc/driver/connectivity/interconnect/interconnect_link.cpp **** // ----------------------------------------------------------------------------
 251:/home/rene/xpcc/src/xpcc/driver/connectivity/interconnect/interconnect_link.cpp **** void
 252:/home/rene/xpcc/src/xpcc/driver/connectivity/interconnect/interconnect_link.cpp **** xpcc::InterconnectLink::makeTransaction()
 253:/home/rene/xpcc/src/xpcc/driver/connectivity/interconnect/interconnect_link.cpp **** {
 337               		.loc 1 253 0
 338               	/* prologue: function */
 339               	/* frame size = 0 */
 340               	/* stack size = 0 */
 341               	.L__stack_usage = 0
 254:/home/rene/xpcc/src/xpcc/driver/connectivity/interconnect/interconnect_link.cpp **** 	if (xpcc::InterconnectLink::stateTransmission == xpcc::InterconnectLink::TRANSMIT_BUFFER_FREE)
 342               		.loc 1 254 0
 343 0000 8091 0000 		lds r24,_ZN4xpcc16InterconnectLink17stateTransmissionE	 ;  stateTransmission.9, stateTransmission
 344 0004 8111      		cpse r24,__zero_reg__	 ;  stateTransmission.9,
 345 0006 00C0      		rjmp .L9	 ; 
 255:/home/rene/xpcc/src/xpcc/driver/connectivity/interconnect/interconnect_link.cpp **** 	{
 256:/home/rene/xpcc/src/xpcc/driver/connectivity/interconnect/interconnect_link.cpp **** 		xpcc::InterconnectLink::stateTransmission = xpcc::InterconnectLink::TRANSMISSION_IN_PROGRESS;
 346               		.loc 1 256 0
 347 0008 82E0      		ldi r24,lo8(2)	 ;  tmp43,
 348 000a 8093 0000 		sts _ZN4xpcc16InterconnectLink17stateTransmissionE,r24	 ;  stateTransmission, tmp43
 349               	.LBB47:
 350               	.LBB48:
 114:/home/rene/xpcc/src/xpcc/driver/connectivity/interconnect/interconnect_link.cpp **** GPIO__OUTPUT2(UsartMS, INTERCONNECT_PIN_OUTPUT);
 351               		.loc 1 114 0
 352 000e 81E0      		ldi r24,lo8(1)	 ;  tmp45,
 353 0010 8093 4606 		sts 1606,r24	 ;  MEM[(volatile uint8_t *)1606B], tmp45
 354               	.LBE48:
 355               	.LBE47:
 257:/home/rene/xpcc/src/xpcc/driver/connectivity/interconnect/interconnect_link.cpp **** 		
 258:/home/rene/xpcc/src/xpcc/driver/connectivity/interconnect/interconnect_link.cpp **** 		UsartMS::reset();
 259:/home/rene/xpcc/src/xpcc/driver/connectivity/interconnect/interconnect_link.cpp **** 		xpcc::InterconnectLink::reactivateTransmission();
 356               		.loc 1 259 0
 357 0014 0C94 0000 		jmp _ZN4xpcc16InterconnectLink22reactivateTransmissionEv	 ; 
 358               	.LVL7:
 359               	.L9:
 360 0018 0895      		ret
 361               	.LFE623:
 363               		.section	.text.__vector_27,"ax",@progbits
 364               	.global	__vector_27
 366               	__vector_27:
 367               	.LFB625:
 260:/home/rene/xpcc/src/xpcc/driver/connectivity/interconnect/interconnect_link.cpp **** 	}
 261:/home/rene/xpcc/src/xpcc/driver/connectivity/interconnect/interconnect_link.cpp **** }
 262:/home/rene/xpcc/src/xpcc/driver/connectivity/interconnect/interconnect_link.cpp **** 
 263:/home/rene/xpcc/src/xpcc/driver/connectivity/interconnect/interconnect_link.cpp **** // ----------------------------------------------------------------------------
 264:/home/rene/xpcc/src/xpcc/driver/connectivity/interconnect/interconnect_link.cpp **** static void
 265:/home/rene/xpcc/src/xpcc/driver/connectivity/interconnect/interconnect_link.cpp **** finishTransmit()
 266:/home/rene/xpcc/src/xpcc/driver/connectivity/interconnect/interconnect_link.cpp **** {
 267:/home/rene/xpcc/src/xpcc/driver/connectivity/interconnect/interconnect_link.cpp **** 	UsartMS::set();
 268:/home/rene/xpcc/src/xpcc/driver/connectivity/interconnect/interconnect_link.cpp **** 	xpcc::InterconnectLink::stateTransmission = xpcc::InterconnectLink::TRANSMIT_BUFFER_FREE;
 269:/home/rene/xpcc/src/xpcc/driver/connectivity/interconnect/interconnect_link.cpp **** }
 270:/home/rene/xpcc/src/xpcc/driver/connectivity/interconnect/interconnect_link.cpp **** 
 271:/home/rene/xpcc/src/xpcc/driver/connectivity/interconnect/interconnect_link.cpp **** // ----------------------------------------------------------------------------
 272:/home/rene/xpcc/src/xpcc/driver/connectivity/interconnect/interconnect_link.cpp **** ISR(USART_TRANSMISSION_COMPLETE_VECTOR)
 273:/home/rene/xpcc/src/xpcc/driver/connectivity/interconnect/interconnect_link.cpp **** {
 368               		.loc 1 273 0
 369 0000 1F92      		push r1	 ; 
 370               	.LCFI0:
 371 0002 0F92      		push r0	 ; 
 372               	.LCFI1:
 373 0004 0FB6      		in r0,__SREG__	 ; ,
 374 0006 0F92      		push r0	 ; 
 375 0008 1124      		clr __zero_reg__	 ; 
 376 000a 8F93      		push r24	 ; 
 377               	.LCFI2:
 378               	/* prologue: Signal */
 379               	/* frame size = 0 */
 380               	/* stack size = 4 */
 381               	.L__stack_usage = 4
 382               	.LBB54:
 274:/home/rene/xpcc/src/xpcc/driver/connectivity/interconnect/interconnect_link.cpp **** 	uint8_t c = DMA_CH0_CTRLA;
 383               		.loc 1 274 0
 384 000c 8091 1001 		lds r24,272	 ;  c, MEM[(volatile uint8_t *)272B]
 385               	.LVL8:
 275:/home/rene/xpcc/src/xpcc/driver/connectivity/interconnect/interconnect_link.cpp **** 	if (c & DMA_CH_ENABLE_bm || c & DMA_CH_TRNIF_bm || c & DMA_CH_ERRIF_bm)
 386               		.loc 1 275 0
 387 0010 87FD      		sbrc r24,7	 ;  c,
 388 0012 00C0      		rjmp .L11	 ; 
 272:/home/rene/xpcc/src/xpcc/driver/connectivity/interconnect/interconnect_link.cpp **** ISR(USART_TRANSMISSION_COMPLETE_VECTOR)
 389               		.loc 1 272 0 discriminator 1
 390 0014 8073      		andi r24,lo8(48)	 ;  tmp46,
 391               	.LVL9:
 392               		.loc 1 275 0 discriminator 1
 393 0016 01F4      		brne .L11	 ; ,
 394               	.LBB55:
 395               	.LBB56:
 396               	.LBB57:
 397               	.LBB58:
 114:/home/rene/xpcc/src/xpcc/driver/connectivity/interconnect/interconnect_link.cpp **** GPIO__OUTPUT2(UsartMS, INTERCONNECT_PIN_OUTPUT);
 398               		.loc 1 114 0
 399 0018 81E0      		ldi r24,lo8(1)	 ;  tmp48,
 400 001a 8093 4506 		sts 1605,r24	 ;  MEM[(volatile uint8_t *)1605B], tmp48
 401               	.LBE58:
 402               	.LBE57:
 268:/home/rene/xpcc/src/xpcc/driver/connectivity/interconnect/interconnect_link.cpp **** 	xpcc::InterconnectLink::stateTransmission = xpcc::InterconnectLink::TRANSMIT_BUFFER_FREE;
 403               		.loc 1 268 0
 404 001e 1092 0000 		sts _ZN4xpcc16InterconnectLink17stateTransmissionE,__zero_reg__	 ;  stateTransmission,
 405               	.L11:
 406               	/* epilogue start */
 407               	.LBE56:
 408               	.LBE55:
 409               	.LBE54:
 276:/home/rene/xpcc/src/xpcc/driver/connectivity/interconnect/interconnect_link.cpp **** 	{
 277:/home/rene/xpcc/src/xpcc/driver/connectivity/interconnect/interconnect_link.cpp **** 	}
 278:/home/rene/xpcc/src/xpcc/driver/connectivity/interconnect/interconnect_link.cpp **** 	else {
 279:/home/rene/xpcc/src/xpcc/driver/connectivity/interconnect/interconnect_link.cpp **** 		// DMA disabled => transmission finished
 280:/home/rene/xpcc/src/xpcc/driver/connectivity/interconnect/interconnect_link.cpp **** 		finishTransmit();
 281:/home/rene/xpcc/src/xpcc/driver/connectivity/interconnect/interconnect_link.cpp **** 	}
 282:/home/rene/xpcc/src/xpcc/driver/connectivity/interconnect/interconnect_link.cpp **** }
 410               		.loc 1 282 0
 411 0022 8F91      		pop r24	 ; 
 412 0024 0F90      		pop r0	 ; 
 413 0026 0FBE      		out __SREG__,r0	 ; ,
 414 0028 0F90      		pop r0	 ; 
 415 002a 1F90      		pop r1	 ; 
 416 002c 1895      		reti
 417               	.LFE625:
 419               		.section	.text.__vector_7,"ax",@progbits
 420               	.global	__vector_7
 422               	__vector_7:
 423               	.LFB626:
 283:/home/rene/xpcc/src/xpcc/driver/connectivity/interconnect/interconnect_link.cpp **** 
 284:/home/rene/xpcc/src/xpcc/driver/connectivity/interconnect/interconnect_link.cpp **** ISR(DMA_CH1_vect)
 285:/home/rene/xpcc/src/xpcc/driver/connectivity/interconnect/interconnect_link.cpp **** {
 424               		.loc 1 285 0
 425 0000 1F92      		push r1	 ; 
 426               	.LCFI3:
 427 0002 0F92      		push r0	 ; 
 428               	.LCFI4:
 429 0004 0FB6      		in r0,__SREG__	 ; ,
 430 0006 0F92      		push r0	 ; 
 431 0008 1124      		clr __zero_reg__	 ; 
 432 000a 2F93      		push r18	 ; 
 433               	.LCFI5:
 434 000c 3F93      		push r19	 ; 
 435               	.LCFI6:
 436 000e 4F93      		push r20	 ; 
 437               	.LCFI7:
 438 0010 5F93      		push r21	 ; 
 439               	.LCFI8:
 440 0012 6F93      		push r22	 ; 
 441               	.LCFI9:
 442 0014 7F93      		push r23	 ; 
 443               	.LCFI10:
 444 0016 8F93      		push r24	 ; 
 445               	.LCFI11:
 446 0018 9F93      		push r25	 ; 
 447               	.LCFI12:
 448 001a AF93      		push r26	 ; 
 449               	.LCFI13:
 450 001c BF93      		push r27	 ; 
 451               	.LCFI14:
 452 001e EF93      		push r30	 ; 
 453               	.LCFI15:
 454 0020 FF93      		push r31	 ; 
 455               	.LCFI16:
 456               	/* prologue: Signal */
 457               	/* frame size = 0 */
 458               	/* stack size = 15 */
 459               	.L__stack_usage = 15
 286:/home/rene/xpcc/src/xpcc/driver/connectivity/interconnect/interconnect_link.cpp **** 	// clear the flag. necessary if interrupt is enabled.
 287:/home/rene/xpcc/src/xpcc/driver/connectivity/interconnect/interconnect_link.cpp **** 	DMA_CH1_CTRLB |= DMA_CH_ERRIF_bm;
 460               		.loc 1 287 0
 461 0022 E1E2      		ldi r30,lo8(33)	 ;  tmp44,
 462 0024 F1E0      		ldi r31,lo8(1)	 ; ,
 463 0026 8081      		ld r24,Z	 ;  D.8167, MEM[(volatile uint8_t *)289B]
 464 0028 8062      		ori r24,lo8(32)	 ;  D.8167,
 465 002a 8083      		st Z,r24	 ;  MEM[(volatile uint8_t *)289B], D.8167
 288:/home/rene/xpcc/src/xpcc/driver/connectivity/interconnect/interconnect_link.cpp **** 	xpcc::InterconnectLink::reactivateReception();
 466               		.loc 1 288 0
 467 002c 0E94 0000 		call _ZN4xpcc16InterconnectLink19reactivateReceptionEv	 ; 
 468               	.LVL10:
 469               	/* epilogue start */
 289:/home/rene/xpcc/src/xpcc/driver/connectivity/interconnect/interconnect_link.cpp **** }
 470               		.loc 1 289 0
 471 0030 FF91      		pop r31	 ; 
 472 0032 EF91      		pop r30	 ; 
 473 0034 BF91      		pop r27	 ; 
 474 0036 AF91      		pop r26	 ; 
 475 0038 9F91      		pop r25	 ; 
 476 003a 8F91      		pop r24	 ; 
 477 003c 7F91      		pop r23	 ; 
 478 003e 6F91      		pop r22	 ; 
 479 0040 5F91      		pop r21	 ; 
 480 0042 4F91      		pop r20	 ; 
 481 0044 3F91      		pop r19	 ; 
 482 0046 2F91      		pop r18	 ; 
 483 0048 0F90      		pop r0	 ; 
 484 004a 0FBE      		out __SREG__,r0	 ; ,
 485 004c 0F90      		pop r0	 ; 
 486 004e 1F90      		pop r1	 ; 
 487 0050 1895      		reti
 488               	.LFE626:
 490               		.section	.text.__vector_6,"ax",@progbits
 491               	.global	__vector_6
 493               	__vector_6:
 494               	.LFB627:
 290:/home/rene/xpcc/src/xpcc/driver/connectivity/interconnect/interconnect_link.cpp **** 
 291:/home/rene/xpcc/src/xpcc/driver/connectivity/interconnect/interconnect_link.cpp **** ISR(DMA_CH0_vect)
 292:/home/rene/xpcc/src/xpcc/driver/connectivity/interconnect/interconnect_link.cpp **** {
 495               		.loc 1 292 0
 496 0000 1F92      		push r1	 ; 
 497               	.LCFI17:
 498 0002 0F92      		push r0	 ; 
 499               	.LCFI18:
 500 0004 0FB6      		in r0,__SREG__	 ; ,
 501 0006 0F92      		push r0	 ; 
 502 0008 1124      		clr __zero_reg__	 ; 
 503 000a 8F93      		push r24	 ; 
 504               	.LCFI19:
 505               	/* prologue: Signal */
 506               	/* frame size = 0 */
 507               	/* stack size = 4 */
 508               	.L__stack_usage = 4
 293:/home/rene/xpcc/src/xpcc/driver/connectivity/interconnect/interconnect_link.cpp **** 	// Clear the flags. maybe necessary if interrupt is enabled.
 294:/home/rene/xpcc/src/xpcc/driver/connectivity/interconnect/interconnect_link.cpp **** 	DMA_CH0_CTRLB |= DMA_CH_TRNIF_bm | DMA_CH_ERRIF_bm;
 509               		.loc 1 294 0
 510 000c 8091 1101 		lds r24,273	 ;  D.8153, MEM[(volatile uint8_t *)273B]
 511 0010 8063      		ori r24,lo8(48)	 ;  D.8153,
 512 0012 8093 1101 		sts 273,r24	 ;  MEM[(volatile uint8_t *)273B], D.8153
 295:/home/rene/xpcc/src/xpcc/driver/connectivity/interconnect/interconnect_link.cpp **** 	
 296:/home/rene/xpcc/src/xpcc/driver/connectivity/interconnect/interconnect_link.cpp **** 	// TODO sth
 297:/home/rene/xpcc/src/xpcc/driver/connectivity/interconnect/interconnect_link.cpp **** //	reactivateReceiveCh1();
 298:/home/rene/xpcc/src/xpcc/driver/connectivity/interconnect/interconnect_link.cpp **** 	if (USART_BASE_STATUS & USART_TXCIF_bm)
 513               		.loc 1 298 0
 514 0016 8091 A108 		lds r24,2209	 ;  D.8156, MEM[(volatile uint8_t *)2209B]
 515 001a 86FF      		sbrs r24,6	 ;  D.8156,
 516 001c 00C0      		rjmp .L14	 ; 
 299:/home/rene/xpcc/src/xpcc/driver/connectivity/interconnect/interconnect_link.cpp **** 	{
 300:/home/rene/xpcc/src/xpcc/driver/connectivity/interconnect/interconnect_link.cpp **** 		USART_BASE_STATUS &= USART_TXCIF_bm;
 517               		.loc 1 300 0
 518 001e 8091 A108 		lds r24,2209	 ;  D.8162, MEM[(volatile uint8_t *)2209B]
 519 0022 8074      		andi r24,lo8(64)	 ;  D.8162,
 520 0024 8093 A108 		sts 2209,r24	 ;  MEM[(volatile uint8_t *)2209B], D.8162
 521               	.LBB63:
 522               	.LBB64:
 523               	.LBB65:
 524               	.LBB66:
 114:/home/rene/xpcc/src/xpcc/driver/connectivity/interconnect/interconnect_link.cpp **** GPIO__OUTPUT2(UsartMS, INTERCONNECT_PIN_OUTPUT);
 525               		.loc 1 114 0
 526 0028 81E0      		ldi r24,lo8(1)	 ;  tmp55,
 527 002a 8093 4506 		sts 1605,r24	 ;  MEM[(volatile uint8_t *)1605B], tmp55
 528               	.LBE66:
 529               	.LBE65:
 268:/home/rene/xpcc/src/xpcc/driver/connectivity/interconnect/interconnect_link.cpp **** 	xpcc::InterconnectLink::stateTransmission = xpcc::InterconnectLink::TRANSMIT_BUFFER_FREE;
 530               		.loc 1 268 0
 531 002e 1092 0000 		sts _ZN4xpcc16InterconnectLink17stateTransmissionE,__zero_reg__	 ;  stateTransmission,
 532               	.L14:
 533               	/* epilogue start */
 534               	.LBE64:
 535               	.LBE63:
 301:/home/rene/xpcc/src/xpcc/driver/connectivity/interconnect/interconnect_link.cpp **** 		finishTransmit();
 302:/home/rene/xpcc/src/xpcc/driver/connectivity/interconnect/interconnect_link.cpp **** 	}
 303:/home/rene/xpcc/src/xpcc/driver/connectivity/interconnect/interconnect_link.cpp **** }
 536               		.loc 1 303 0
 537 0032 8F91      		pop r24	 ; 
 538 0034 0F90      		pop r0	 ; 
 539 0036 0FBE      		out __SREG__,r0	 ; ,
 540 0038 0F90      		pop r0	 ; 
 541 003a 1F90      		pop r1	 ; 
 542 003c 1895      		reti
 543               	.LFE627:
 545               		.section	.text.__vector_2,"ax",@progbits
 546               	.global	__vector_2
 548               	__vector_2:
 549               	.LFB628:
 304:/home/rene/xpcc/src/xpcc/driver/connectivity/interconnect/interconnect_link.cpp **** 
 305:/home/rene/xpcc/src/xpcc/driver/connectivity/interconnect/interconnect_link.cpp **** ISR(USART_SLAVE_SELECT_INTERRUPT_VECTOR)
 306:/home/rene/xpcc/src/xpcc/driver/connectivity/interconnect/interconnect_link.cpp **** {
 550               		.loc 1 306 0
 551 0000 1F92      		push r1	 ; 
 552               	.LCFI20:
 553 0002 0F92      		push r0	 ; 
 554               	.LCFI21:
 555 0004 0FB6      		in r0,__SREG__	 ; ,
 556 0006 0F92      		push r0	 ; 
 557 0008 1124      		clr __zero_reg__	 ; 
 558 000a 2F93      		push r18	 ; 
 559               	.LCFI22:
 560 000c 3F93      		push r19	 ; 
 561               	.LCFI23:
 562 000e 4F93      		push r20	 ; 
 563               	.LCFI24:
 564 0010 5F93      		push r21	 ; 
 565               	.LCFI25:
 566 0012 6F93      		push r22	 ; 
 567               	.LCFI26:
 568 0014 7F93      		push r23	 ; 
 569               	.LCFI27:
 570 0016 8F93      		push r24	 ; 
 571               	.LCFI28:
 572 0018 9F93      		push r25	 ; 
 573               	.LCFI29:
 574 001a AF93      		push r26	 ; 
 575               	.LCFI30:
 576 001c BF93      		push r27	 ; 
 577               	.LCFI31:
 578 001e EF93      		push r30	 ; 
 579               	.LCFI32:
 580 0020 FF93      		push r31	 ; 
 581               	.LCFI33:
 582               	/* prologue: Signal */
 583               	/* frame size = 0 */
 584               	/* stack size = 15 */
 585               	.L__stack_usage = 15
 586               	.LBB72:
 587               	.LBB73:
 113:/home/rene/xpcc/src/xpcc/driver/connectivity/interconnect/interconnect_link.cpp **** GPIO__INPUT2(UsartSS, INTERCONNECT_PIN_INPUT);
 588               		.loc 1 113 0
 589 0022 8091 4806 		lds r24,1608	 ;  D.8345, MEM[(volatile uint8_t *)1608B]
 590               	.LBE73:
 591               	.LBE72:
 307:/home/rene/xpcc/src/xpcc/driver/connectivity/interconnect/interconnect_link.cpp **** 	if (UsartSS::read())
 592               		.loc 1 307 0
 593 0026 81FF      		sbrs r24,1	 ;  D.8345,
 594 0028 00C0      		rjmp .L19	 ; 
 308:/home/rene/xpcc/src/xpcc/driver/connectivity/interconnect/interconnect_link.cpp **** 	{
 309:/home/rene/xpcc/src/xpcc/driver/connectivity/interconnect/interconnect_link.cpp **** 		// transaction complete
 310:/home/rene/xpcc/src/xpcc/driver/connectivity/interconnect/interconnect_link.cpp **** 		if (DMA_CH1_CTRLA & DMA_CH_ENABLE_bm)
 595               		.loc 1 310 0
 596 002a 8091 2001 		lds r24,288	 ;  D.8121, MEM[(volatile uint8_t *)288B]
 597 002e 87FF      		sbrs r24,7	 ;  D.8121,
 598 0030 00C0      		rjmp .L22	 ; 
 311:/home/rene/xpcc/src/xpcc/driver/connectivity/interconnect/interconnect_link.cpp **** 		{
 312:/home/rene/xpcc/src/xpcc/driver/connectivity/interconnect/interconnect_link.cpp **** 			// errorcondition is trigered if dmacontroller has expected more bytes then received
 313:/home/rene/xpcc/src/xpcc/driver/connectivity/interconnect/interconnect_link.cpp **** 			DMA_CH1_CTRLA = 0; // deactivate dma controller
 599               		.loc 1 313 0
 600 0032 1092 2001 		sts 288,__zero_reg__	 ;  MEM[(volatile uint8_t *)288B],
 314:/home/rene/xpcc/src/xpcc/driver/connectivity/interconnect/interconnect_link.cpp **** 			if (!(DMA_CH1_CTRLB & DMA_CH_ERRIF_bm)) { // else dma will trigger its ch1 interrupt
 601               		.loc 1 314 0
 602 0036 8091 2101 		lds r24,289	 ;  D.8127, MEM[(volatile uint8_t *)289B]
 603 003a 85FD      		sbrc r24,5	 ;  D.8127,
 604 003c 00C0      		rjmp .L19	 ; 
 605 003e 00C0      		rjmp .L26	 ; 
 606               	.L22:
 315:/home/rene/xpcc/src/xpcc/driver/connectivity/interconnect/interconnect_link.cpp **** 				xpcc::InterconnectLink::reactivateReception();
 316:/home/rene/xpcc/src/xpcc/driver/connectivity/interconnect/interconnect_link.cpp **** 			}
 317:/home/rene/xpcc/src/xpcc/driver/connectivity/interconnect/interconnect_link.cpp **** 		}
 318:/home/rene/xpcc/src/xpcc/driver/connectivity/interconnect/interconnect_link.cpp **** 		else {
 319:/home/rene/xpcc/src/xpcc/driver/connectivity/interconnect/interconnect_link.cpp **** 			// DMA is deactivated => transaction was completed
 320:/home/rene/xpcc/src/xpcc/driver/connectivity/interconnect/interconnect_link.cpp **** 			// TODO: fill more checks here, e.g. checksum
 321:/home/rene/xpcc/src/xpcc/driver/connectivity/interconnect/interconnect_link.cpp **** 			// ...
 322:/home/rene/xpcc/src/xpcc/driver/connectivity/interconnect/interconnect_link.cpp **** 			if (true)
 323:/home/rene/xpcc/src/xpcc/driver/connectivity/interconnect/interconnect_link.cpp **** 			{
 324:/home/rene/xpcc/src/xpcc/driver/connectivity/interconnect/interconnect_link.cpp **** 				// check has succeed ...
 325:/home/rene/xpcc/src/xpcc/driver/connectivity/interconnect/interconnect_link.cpp **** 				switch (xpcc::InterconnectLink::stateReception)
 607               		.loc 1 325 0
 608 0040 8091 0000 		lds r24,_ZN4xpcc16InterconnectLink14stateReceptionE	 ;  stateReception.4, stateReception
 609 0044 8823      		tst r24	 ;  stateReception.4
 610 0046 01F0      		breq .L24	 ; ,
 611 0048 8130      		cpi r24,lo8(1)	 ;  stateReception.4,
 612 004a 01F4      		brne .L19	 ; ,
 613 004c 00C0      		rjmp .L25	 ; 
 614               	.L24:
 615               	.LBB74:
 616               	.LBB75:
 617               		.file 2 "/home/rene/xpcc/src/xpcc/driver/connectivity/interconnect/interconnect_link.hpp"
   1:/home/rene/xpcc/src/xpcc/driver/connectivity/interconnect/interconnect_link.hpp **** // coding: utf-8
   2:/home/rene/xpcc/src/xpcc/driver/connectivity/interconnect/interconnect_link.hpp **** // ----------------------------------------------------------------------------
   3:/home/rene/xpcc/src/xpcc/driver/connectivity/interconnect/interconnect_link.hpp **** /* Copyright (c) 2010, Roboterclub Aachen e.V.
   4:/home/rene/xpcc/src/xpcc/driver/connectivity/interconnect/interconnect_link.hpp ****  * All rights reserved.
   5:/home/rene/xpcc/src/xpcc/driver/connectivity/interconnect/interconnect_link.hpp ****  *
   6:/home/rene/xpcc/src/xpcc/driver/connectivity/interconnect/interconnect_link.hpp ****  * Redistribution and use in source and binary forms, with or without
   7:/home/rene/xpcc/src/xpcc/driver/connectivity/interconnect/interconnect_link.hpp ****  * modification, are permitted provided that the following conditions are met:
   8:/home/rene/xpcc/src/xpcc/driver/connectivity/interconnect/interconnect_link.hpp ****  *
   9:/home/rene/xpcc/src/xpcc/driver/connectivity/interconnect/interconnect_link.hpp ****  *     * Redistributions of source code must retain the above copyright
  10:/home/rene/xpcc/src/xpcc/driver/connectivity/interconnect/interconnect_link.hpp ****  *       notice, this list of conditions and the following disclaimer.
  11:/home/rene/xpcc/src/xpcc/driver/connectivity/interconnect/interconnect_link.hpp ****  *     * Redistributions in binary form must reproduce the above copyright
  12:/home/rene/xpcc/src/xpcc/driver/connectivity/interconnect/interconnect_link.hpp ****  *       notice, this list of conditions and the following disclaimer in the
  13:/home/rene/xpcc/src/xpcc/driver/connectivity/interconnect/interconnect_link.hpp ****  *       documentation and/or other materials provided with the distribution.
  14:/home/rene/xpcc/src/xpcc/driver/connectivity/interconnect/interconnect_link.hpp ****  *     * Neither the name of the Roboterclub Aachen e.V. nor the
  15:/home/rene/xpcc/src/xpcc/driver/connectivity/interconnect/interconnect_link.hpp ****  *       names of its contributors may be used to endorse or promote products
  16:/home/rene/xpcc/src/xpcc/driver/connectivity/interconnect/interconnect_link.hpp ****  *       derived from this software without specific prior written permission.
  17:/home/rene/xpcc/src/xpcc/driver/connectivity/interconnect/interconnect_link.hpp ****  *
  18:/home/rene/xpcc/src/xpcc/driver/connectivity/interconnect/interconnect_link.hpp ****  * THIS SOFTWARE IS PROVIDED BY ROBOTERCLUB AACHEN E.V. ''AS IS'' AND ANY
  19:/home/rene/xpcc/src/xpcc/driver/connectivity/interconnect/interconnect_link.hpp ****  * EXPRESS OR IMPLIED WARRANTIES, INCLUDING, BUT NOT LIMITED TO, THE IMPLIED
  20:/home/rene/xpcc/src/xpcc/driver/connectivity/interconnect/interconnect_link.hpp ****  * WARRANTIES OF MERCHANTABILITY AND FITNESS FOR A PARTICULAR PURPOSE ARE
  21:/home/rene/xpcc/src/xpcc/driver/connectivity/interconnect/interconnect_link.hpp ****  * DISCLAIMED. IN NO EVENT SHALL ROBOTERCLUB AACHEN E.V. BE LIABLE FOR ANY
  22:/home/rene/xpcc/src/xpcc/driver/connectivity/interconnect/interconnect_link.hpp ****  * DIRECT, INDIRECT, INCIDENTAL, SPECIAL, EXEMPLARY, OR CONSEQUENTIAL DAMAGES
  23:/home/rene/xpcc/src/xpcc/driver/connectivity/interconnect/interconnect_link.hpp ****  * (INCLUDING, BUT NOT LIMITED TO, PROCUREMENT OF SUBSTITUTE GOODS OR SERVICES;
  24:/home/rene/xpcc/src/xpcc/driver/connectivity/interconnect/interconnect_link.hpp ****  * LOSS OF USE, DATA, OR PROFITS; OR BUSINESS INTERRUPTION) HOWEVER CAUSED AND
  25:/home/rene/xpcc/src/xpcc/driver/connectivity/interconnect/interconnect_link.hpp ****  * ON ANY THEORY OF LIABILITY, WHETHER IN CONTRACT, STRICT LIABILITY, OR TORT
  26:/home/rene/xpcc/src/xpcc/driver/connectivity/interconnect/interconnect_link.hpp ****  * (INCLUDING NEGLIGENCE OR OTHERWISE) ARISING IN ANY WAY OUT OF THE USE OF
  27:/home/rene/xpcc/src/xpcc/driver/connectivity/interconnect/interconnect_link.hpp ****  * THIS SOFTWARE, EVEN IF ADVISED OF THE POSSIBILITY OF SUCH DAMAGE.
  28:/home/rene/xpcc/src/xpcc/driver/connectivity/interconnect/interconnect_link.hpp ****  */
  29:/home/rene/xpcc/src/xpcc/driver/connectivity/interconnect/interconnect_link.hpp **** // ----------------------------------------------------------------------------
  30:/home/rene/xpcc/src/xpcc/driver/connectivity/interconnect/interconnect_link.hpp **** 
  31:/home/rene/xpcc/src/xpcc/driver/connectivity/interconnect/interconnect_link.hpp **** #ifndef XPCC__INTERCONNECT_LINK_HPP
  32:/home/rene/xpcc/src/xpcc/driver/connectivity/interconnect/interconnect_link.hpp **** #define XPCC__INTERCONNECT_LINK_HPP
  33:/home/rene/xpcc/src/xpcc/driver/connectivity/interconnect/interconnect_link.hpp **** 
  34:/home/rene/xpcc/src/xpcc/driver/connectivity/interconnect/interconnect_link.hpp **** #include <xpcc/architecture/utils.hpp>
  35:/home/rene/xpcc/src/xpcc/driver/connectivity/interconnect/interconnect_link.hpp **** #include <xpcc/architecture/driver.hpp>
  36:/home/rene/xpcc/src/xpcc/driver/connectivity/interconnect/interconnect_link.hpp **** 
  37:/home/rene/xpcc/src/xpcc/driver/connectivity/interconnect/interconnect_link.hpp **** namespace xpcc
  38:/home/rene/xpcc/src/xpcc/driver/connectivity/interconnect/interconnect_link.hpp **** {
  39:/home/rene/xpcc/src/xpcc/driver/connectivity/interconnect/interconnect_link.hpp **** 	/**
  40:/home/rene/xpcc/src/xpcc/driver/connectivity/interconnect/interconnect_link.hpp **** 	 * \brief	Fast data exchange between two microcontrollers via USART.
  41:/home/rene/xpcc/src/xpcc/driver/connectivity/interconnect/interconnect_link.hpp **** 	 * 
  42:/home/rene/xpcc/src/xpcc/driver/connectivity/interconnect/interconnect_link.hpp **** 	 * The class can be configured with the \c project.cfg file. Example:
  43:/home/rene/xpcc/src/xpcc/driver/connectivity/interconnect/interconnect_link.hpp **** 	 * \code
  44:/home/rene/xpcc/src/xpcc/driver/connectivity/interconnect/interconnect_link.hpp **** 	 * [defines]
  45:/home/rene/xpcc/src/xpcc/driver/connectivity/interconnect/interconnect_link.hpp **** 	 * INTERCONNECT_USART_PORT	 = D
  46:/home/rene/xpcc/src/xpcc/driver/connectivity/interconnect/interconnect_link.hpp **** 	 * INTERCONNECT_USART_ID	 = 1
  47:/home/rene/xpcc/src/xpcc/driver/connectivity/interconnect/interconnect_link.hpp **** 	 * INTERCONNECT_PIN_OUTPUT	 = D,5
  48:/home/rene/xpcc/src/xpcc/driver/connectivity/interconnect/interconnect_link.hpp **** 	 * INTERCONNECT_PIN_INPUT	 = D,4
  49:/home/rene/xpcc/src/xpcc/driver/connectivity/interconnect/interconnect_link.hpp **** 	 * \endcode
  50:/home/rene/xpcc/src/xpcc/driver/connectivity/interconnect/interconnect_link.hpp **** 	 * 
  51:/home/rene/xpcc/src/xpcc/driver/connectivity/interconnect/interconnect_link.hpp **** 	 * Or you can use the predefined values for the CPU Board by defining
  52:/home/rene/xpcc/src/xpcc/driver/connectivity/interconnect/interconnect_link.hpp **** 	 * CPU_BOARD2_MASTER = 1 or CPU_BOARD2_SLAVE = 1. 
  53:/home/rene/xpcc/src/xpcc/driver/connectivity/interconnect/interconnect_link.hpp **** 	 * 
  54:/home/rene/xpcc/src/xpcc/driver/connectivity/interconnect/interconnect_link.hpp **** 	 * Resources used:
  55:/home/rene/xpcc/src/xpcc/driver/connectivity/interconnect/interconnect_link.hpp **** 	 * - DMA Channel 0 is used to transmit Data
  56:/home/rene/xpcc/src/xpcc/driver/connectivity/interconnect/interconnect_link.hpp **** 	 * - DMA Channel 1 is used to receive Data
  57:/home/rene/xpcc/src/xpcc/driver/connectivity/interconnect/interconnect_link.hpp **** 	 * - INT0 of the Port connected to the input pin (see INTERCONNECT_PIN_INPUT) is
  58:/home/rene/xpcc/src/xpcc/driver/connectivity/interconnect/interconnect_link.hpp **** 	 * 	 used to check when data was received.
  59:/home/rene/xpcc/src/xpcc/driver/connectivity/interconnect/interconnect_link.hpp **** 	 * 
  60:/home/rene/xpcc/src/xpcc/driver/connectivity/interconnect/interconnect_link.hpp **** 	 * \warning	Medium level interrupts and interrupts in general must be enabled!
  61:/home/rene/xpcc/src/xpcc/driver/connectivity/interconnect/interconnect_link.hpp **** 	 * 
  62:/home/rene/xpcc/src/xpcc/driver/connectivity/interconnect/interconnect_link.hpp **** 	 * \author	Georgi
  63:/home/rene/xpcc/src/xpcc/driver/connectivity/interconnect/interconnect_link.hpp **** 	 * \ingroup	connectivity
  64:/home/rene/xpcc/src/xpcc/driver/connectivity/interconnect/interconnect_link.hpp **** 	 */
  65:/home/rene/xpcc/src/xpcc/driver/connectivity/interconnect/interconnect_link.hpp **** 	struct InterconnectLink
  66:/home/rene/xpcc/src/xpcc/driver/connectivity/interconnect/interconnect_link.hpp **** 	{
  67:/home/rene/xpcc/src/xpcc/driver/connectivity/interconnect/interconnect_link.hpp **** 	public:
  68:/home/rene/xpcc/src/xpcc/driver/connectivity/interconnect/interconnect_link.hpp **** 		static void
  69:/home/rene/xpcc/src/xpcc/driver/connectivity/interconnect/interconnect_link.hpp **** 		initialize();
  70:/home/rene/xpcc/src/xpcc/driver/connectivity/interconnect/interconnect_link.hpp **** 		
  71:/home/rene/xpcc/src/xpcc/driver/connectivity/interconnect/interconnect_link.hpp **** 		static inline void
  72:/home/rene/xpcc/src/xpcc/driver/connectivity/interconnect/interconnect_link.hpp **** 		switchReceiveBuffers()
  73:/home/rene/xpcc/src/xpcc/driver/connectivity/interconnect/interconnect_link.hpp **** 		{
  74:/home/rene/xpcc/src/xpcc/driver/connectivity/interconnect/interconnect_link.hpp **** 			uint8_t *r = receiveBufferUser;
 618               		.loc 2 74 0
 619 004e 8091 0000 		lds r24,_ZN4xpcc16InterconnectLink17receiveBufferUserE	 ;  r, receiveBufferUser
 620 0052 9091 0000 		lds r25,_ZN4xpcc16InterconnectLink17receiveBufferUserE+1	 ;  r, receiveBufferUser
 621               	.LVL11:
  75:/home/rene/xpcc/src/xpcc/driver/connectivity/interconnect/interconnect_link.hpp **** 			receiveBufferUser = receiveBufferSystem;
 622               		.loc 2 75 0
 623 0056 2091 0000 		lds r18,_ZN4xpcc16InterconnectLink19receiveBufferSystemE	 ;  receiveBufferSystem, receiveBufferSys
 624 005a 3091 0000 		lds r19,_ZN4xpcc16InterconnectLink19receiveBufferSystemE+1	 ;  receiveBufferSystem, receiveBufferS
 625 005e 2093 0000 		sts _ZN4xpcc16InterconnectLink17receiveBufferUserE,r18	 ;  receiveBufferUser, receiveBufferSystem
 626 0062 3093 0000 		sts _ZN4xpcc16InterconnectLink17receiveBufferUserE+1,r19	 ;  receiveBufferUser, receiveBufferSyste
  76:/home/rene/xpcc/src/xpcc/driver/connectivity/interconnect/interconnect_link.hpp **** 			receiveBufferSystem = r;
 627               		.loc 2 76 0
 628 0066 8093 0000 		sts _ZN4xpcc16InterconnectLink19receiveBufferSystemE,r24	 ;  receiveBufferSystem, r
 629 006a 9093 0000 		sts _ZN4xpcc16InterconnectLink19receiveBufferSystemE+1,r25	 ;  receiveBufferSystem, r
 630               	.LBE75:
 631               	.LBE74:
 326:/home/rene/xpcc/src/xpcc/driver/connectivity/interconnect/interconnect_link.cpp **** 				{
 327:/home/rene/xpcc/src/xpcc/driver/connectivity/interconnect/interconnect_link.cpp **** 					// ... switch receive buffers if possible ...
 328:/home/rene/xpcc/src/xpcc/driver/connectivity/interconnect/interconnect_link.cpp **** 					case xpcc::InterconnectLink::RECEIVE_BUFFER_FREE:
 329:/home/rene/xpcc/src/xpcc/driver/connectivity/interconnect/interconnect_link.cpp **** 						xpcc::InterconnectLink::switchReceiveBuffers();
 330:/home/rene/xpcc/src/xpcc/driver/connectivity/interconnect/interconnect_link.cpp **** 						xpcc::InterconnectLink::newDataReceived = false;
 632               		.loc 1 330 0
 633 006e 1092 0000 		sts _ZN4xpcc16InterconnectLink15newDataReceivedE,__zero_reg__	 ;  newDataReceived,
 634               	.LVL12:
 635               	.L26:
 331:/home/rene/xpcc/src/xpcc/driver/connectivity/interconnect/interconnect_link.cpp **** 						
 332:/home/rene/xpcc/src/xpcc/driver/connectivity/interconnect/interconnect_link.cpp **** 						xpcc::InterconnectLink::reactivateReception();
 636               		.loc 1 332 0
 637 0072 0E94 0000 		call _ZN4xpcc16InterconnectLink19reactivateReceptionEv	 ; 
 638               	.LVL13:
 333:/home/rene/xpcc/src/xpcc/driver/connectivity/interconnect/interconnect_link.cpp **** 						break;
 639               		.loc 1 333 0
 640 0076 00C0      		rjmp .L19	 ; 
 641               	.L25:
 334:/home/rene/xpcc/src/xpcc/driver/connectivity/interconnect/interconnect_link.cpp **** 					
 335:/home/rene/xpcc/src/xpcc/driver/connectivity/interconnect/interconnect_link.cpp **** 					case xpcc::InterconnectLink::RECEIVE_BUFFER_ACCESSED:
 336:/home/rene/xpcc/src/xpcc/driver/connectivity/interconnect/interconnect_link.cpp **** 						// no activate here
 337:/home/rene/xpcc/src/xpcc/driver/connectivity/interconnect/interconnect_link.cpp **** 						// do while release
 338:/home/rene/xpcc/src/xpcc/driver/connectivity/interconnect/interconnect_link.cpp **** 						xpcc::InterconnectLink::newDataReceived = true;
 642               		.loc 1 338 0
 643 0078 8093 0000 		sts _ZN4xpcc16InterconnectLink15newDataReceivedE,r24	 ;  newDataReceived, stateReception.4
 644               	.L19:
 645               	/* epilogue start */
 339:/home/rene/xpcc/src/xpcc/driver/connectivity/interconnect/interconnect_link.cpp **** 						break;
 340:/home/rene/xpcc/src/xpcc/driver/connectivity/interconnect/interconnect_link.cpp **** 				}
 341:/home/rene/xpcc/src/xpcc/driver/connectivity/interconnect/interconnect_link.cpp **** 			}
 342:/home/rene/xpcc/src/xpcc/driver/connectivity/interconnect/interconnect_link.cpp **** 			else {
 343:/home/rene/xpcc/src/xpcc/driver/connectivity/interconnect/interconnect_link.cpp **** 				xpcc::InterconnectLink::reactivateReception();
 344:/home/rene/xpcc/src/xpcc/driver/connectivity/interconnect/interconnect_link.cpp **** 				xpcc::InterconnectLink::newDataReceived = false;
 345:/home/rene/xpcc/src/xpcc/driver/connectivity/interconnect/interconnect_link.cpp **** 			}
 346:/home/rene/xpcc/src/xpcc/driver/connectivity/interconnect/interconnect_link.cpp **** 		}
 347:/home/rene/xpcc/src/xpcc/driver/connectivity/interconnect/interconnect_link.cpp **** 	}
 348:/home/rene/xpcc/src/xpcc/driver/connectivity/interconnect/interconnect_link.cpp **** 	else {
 349:/home/rene/xpcc/src/xpcc/driver/connectivity/interconnect/interconnect_link.cpp **** 		// transaction started
 350:/home/rene/xpcc/src/xpcc/driver/connectivity/interconnect/interconnect_link.cpp **** 		// receiving part, with switching of the buffers
 351:/home/rene/xpcc/src/xpcc/driver/connectivity/interconnect/interconnect_link.cpp **** 		// DMA controller has to be activated before.
 352:/home/rene/xpcc/src/xpcc/driver/connectivity/interconnect/interconnect_link.cpp **** 		// if not, no data will be received this time
 353:/home/rene/xpcc/src/xpcc/driver/connectivity/interconnect/interconnect_link.cpp **** 	}
 354:/home/rene/xpcc/src/xpcc/driver/connectivity/interconnect/interconnect_link.cpp **** }
 646               		.loc 1 354 0
 647 007c FF91      		pop r31	 ; 
 648 007e EF91      		pop r30	 ; 
 649 0080 BF91      		pop r27	 ; 
 650 0082 AF91      		pop r26	 ; 
 651 0084 9F91      		pop r25	 ; 
 652 0086 8F91      		pop r24	 ; 
 653 0088 7F91      		pop r23	 ; 
 654 008a 6F91      		pop r22	 ; 
 655 008c 5F91      		pop r21	 ; 
 656 008e 4F91      		pop r20	 ; 
 657 0090 3F91      		pop r19	 ; 
 658 0092 2F91      		pop r18	 ; 
 659 0094 0F90      		pop r0	 ; 
 660 0096 0FBE      		out __SREG__,r0	 ; ,
 661 0098 0F90      		pop r0	 ; 
 662 009a 1F90      		pop r1	 ; 
 663 009c 1895      		reti
 664               	.LFE628:
 666               	.global	_ZN4xpcc16InterconnectLink15newDataReceivedE
 667               		.section	.bss._ZN4xpcc16InterconnectLink15newDataReceivedE,"aw",@nobits
 670               	_ZN4xpcc16InterconnectLink15newDataReceivedE:
 671 0000 00        		.zero	1
 672               	.global	_ZN4xpcc16InterconnectLink17stateTransmissionE
 673               		.section	.bss._ZN4xpcc16InterconnectLink17stateTransmissionE,"aw",@nobits
 676               	_ZN4xpcc16InterconnectLink17stateTransmissionE:
 677 0000 00        		.zero	1
 678               	.global	_ZN4xpcc16InterconnectLink14stateReceptionE
 679               		.section	.bss._ZN4xpcc16InterconnectLink14stateReceptionE,"aw",@nobits
 682               	_ZN4xpcc16InterconnectLink14stateReceptionE:
 683 0000 00        		.zero	1
 684               	.global	_ZN4xpcc16InterconnectLink14transmitBufferE
 685               		.section	.bss._ZN4xpcc16InterconnectLink14transmitBufferE,"aw",@nobits
 688               	_ZN4xpcc16InterconnectLink14transmitBufferE:
 689 0000 0000      		.zero	2
 690               	.global	_ZN4xpcc16InterconnectLink19receiveBufferSystemE
 691               		.section	.bss._ZN4xpcc16InterconnectLink19receiveBufferSystemE,"aw",@nobits
 694               	_ZN4xpcc16InterconnectLink19receiveBufferSystemE:
 695 0000 0000      		.zero	2
 696               	.global	_ZN4xpcc16InterconnectLink17receiveBufferUserE
 697               		.section	.bss._ZN4xpcc16InterconnectLink17receiveBufferUserE,"aw",@nobits
 700               	_ZN4xpcc16InterconnectLink17receiveBufferUserE:
 701 0000 0000      		.zero	2
 702               	.global	_ZN4xpcc16InterconnectLink18sizeTransmitBufferE
 703               		.section	.bss._ZN4xpcc16InterconnectLink18sizeTransmitBufferE,"aw",@nobits
 706               	_ZN4xpcc16InterconnectLink18sizeTransmitBufferE:
 707 0000 0000      		.zero	2
 708               	.global	_ZN4xpcc16InterconnectLink17sizeReceiveBufferE
 709               		.section	.bss._ZN4xpcc16InterconnectLink17sizeReceiveBufferE,"aw",@nobits
 712               	_ZN4xpcc16InterconnectLink17sizeReceiveBufferE:
 713 0000 0000      		.zero	2
 1024               	.Letext0:
 1025               		.file 3 "/usr/lib/gcc/avr/4.7.2/../../../avr/include/stdint.h"
 1026               		.file 4 "/usr/lib/gcc/avr/4.7.2/../../../avr/include/avr/iox32a4.h"
 1027               		.file 5 "/home/rene/xpcc/src/xpcc/architecture/platform/avr/../avr.hpp"
 1028               		.file 6 "/home/rene/xpcc/src/xpcc/architecture/platform/avr/atxmega.hpp"
 1029               		.file 7 "/home/rene/xpcc/src/xpcc/architecture/platform/avr/atxmega/gpio.hpp"
 1030               		.file 8 "/home/rene/xpcc/src/xpcc/architecture/platform/avr/atxmega/spi/spi.hpp"
 1031               		.file 9 "/home/rene/xpcc/src/xpcc/architecture/platform/avr/atxmega/adc/adc.hpp"
 1032               		.file 10 "/home/rene/xpcc/src/xpcc/architecture/platform/avr/atxmega/dma/dma.hpp"
 1033               		.file 11 "/home/rene/xpcc/src/xpcc/architecture/driver/gpio.hpp"
 1034               		.file 12 "/home/rene/xpcc/src/xpcc/architecture/platform/avr/atxmega/timer/input_capture.hpp"
 1035               		.file 13 "/home/rene/xpcc/src/xpcc/architecture/platform/avr/atxmega/timer/timer.hpp"
 1036               		.file 14 "/home/rene/xpcc/src/xpcc/architecture/driver/atomic/lock.hpp"
 1037               		.file 15 "/home/rene/xpcc/src/xpcc/driver/connectivity/i2c/constants.hpp"
 1038               		.file 16 "/home/rene/xpcc/src/xpcc/utils/template_metaprogramming.hpp"
 1039               		.file 17 "/usr/lib/gcc/avr/4.7.2/include/stddef.h"
 1040               		.file 18 "<built-in>"
 1041               		.file 19 "/home/rene/xpcc/src/stdc++/cstddef"
 1042               		.file 20 "/home/rene/xpcc/src/stdc++/cmath"
 1043               		.file 21 "/usr/lib/gcc/avr/4.7.2/../../../avr/include/math.h"
 1044               		.file 22 "/home/rene/xpcc/src/xpcc/io/iodevice.hpp"
DEFINED SYMBOLS
                            *ABS*:0000000000000000 interconnect_link.cpp
     /tmp/ccYGIDBg.s:2      *ABS*:000000000000003e __SP_H__
     /tmp/ccYGIDBg.s:3      *ABS*:000000000000003d __SP_L__
     /tmp/ccYGIDBg.s:4      *ABS*:000000000000003f __SREG__
     /tmp/ccYGIDBg.s:5      *ABS*:0000000000000034 __CCP__
     /tmp/ccYGIDBg.s:6      *ABS*:0000000000000000 __tmp_reg__
     /tmp/ccYGIDBg.s:7      *ABS*:0000000000000001 __zero_reg__
     /tmp/ccYGIDBg.s:63     .text._ZN4xpcc16InterconnectLink14configureUsartEv:0000000000000000 _ZN4xpcc16InterconnectLink14configureUsartEv
     /tmp/ccYGIDBg.s:113    .text._ZN4xpcc16InterconnectLink20configureDmaChannel0Ev:0000000000000000 _ZN4xpcc16InterconnectLink20configureDmaChannel0Ev
     /tmp/ccYGIDBg.s:142    .text._ZN4xpcc16InterconnectLink20configureDmaChannel1Ev:0000000000000000 _ZN4xpcc16InterconnectLink20configureDmaChannel1Ev
     /tmp/ccYGIDBg.s:173    .text._ZN4xpcc16InterconnectLink10initializeEv:0000000000000000 _ZN4xpcc16InterconnectLink10initializeEv
     /tmp/ccYGIDBg.s:682    .bss._ZN4xpcc16InterconnectLink14stateReceptionE:0000000000000000 _ZN4xpcc16InterconnectLink14stateReceptionE
     /tmp/ccYGIDBg.s:676    .bss._ZN4xpcc16InterconnectLink17stateTransmissionE:0000000000000000 _ZN4xpcc16InterconnectLink17stateTransmissionE
     /tmp/ccYGIDBg.s:670    .bss._ZN4xpcc16InterconnectLink15newDataReceivedE:0000000000000000 _ZN4xpcc16InterconnectLink15newDataReceivedE
     /tmp/ccYGIDBg.s:242    .text._ZN4xpcc16InterconnectLink22reactivateTransmissionEv:0000000000000000 _ZN4xpcc16InterconnectLink22reactivateTransmissionEv
     /tmp/ccYGIDBg.s:688    .bss._ZN4xpcc16InterconnectLink14transmitBufferE:0000000000000000 _ZN4xpcc16InterconnectLink14transmitBufferE
     /tmp/ccYGIDBg.s:706    .bss._ZN4xpcc16InterconnectLink18sizeTransmitBufferE:0000000000000000 _ZN4xpcc16InterconnectLink18sizeTransmitBufferE
     /tmp/ccYGIDBg.s:286    .text._ZN4xpcc16InterconnectLink19reactivateReceptionEv:0000000000000000 _ZN4xpcc16InterconnectLink19reactivateReceptionEv
     /tmp/ccYGIDBg.s:712    .bss._ZN4xpcc16InterconnectLink17sizeReceiveBufferE:0000000000000000 _ZN4xpcc16InterconnectLink17sizeReceiveBufferE
     /tmp/ccYGIDBg.s:694    .bss._ZN4xpcc16InterconnectLink19receiveBufferSystemE:0000000000000000 _ZN4xpcc16InterconnectLink19receiveBufferSystemE
     /tmp/ccYGIDBg.s:335    .text._ZN4xpcc16InterconnectLink15makeTransactionEv:0000000000000000 _ZN4xpcc16InterconnectLink15makeTransactionEv
     /tmp/ccYGIDBg.s:366    .text.__vector_27:0000000000000000 __vector_27
     /tmp/ccYGIDBg.s:422    .text.__vector_7:0000000000000000 __vector_7
     /tmp/ccYGIDBg.s:493    .text.__vector_6:0000000000000000 __vector_6
     /tmp/ccYGIDBg.s:548    .text.__vector_2:0000000000000000 __vector_2
     /tmp/ccYGIDBg.s:700    .bss._ZN4xpcc16InterconnectLink17receiveBufferUserE:0000000000000000 _ZN4xpcc16InterconnectLink17receiveBufferUserE

UNDEFINED SYMBOLS
__do_clear_bss
