   1               		.file	"cxxabi.cpp"
   2               	__SP_H__ = 0x3e
   3               	__SP_L__ = 0x3d
   4               	__SREG__ = 0x3f
   5               	__CCP__ = 0x34
   6               	__tmp_reg__ = 0
   7               	__zero_reg__ = 1
   8               	 ;  GNU C++ (GCC) version 4.7.2 (avr)
   9               	 ; 	compiled by GNU C version 4.7.2, GMP version 5.0.5, MPFR version 3.1.0-p10, MPC version 0.9
  10               	 ;  warning: GMP header version 5.0.5 differs from library version 5.1.2.
  11               	 ;  warning: MPFR header version 3.1.0-p10 differs from library version 3.1.1-p2.
  12               	 ;  GGC heuristics: --param ggc-min-expand=100 --param ggc-min-heapsize=131072
  13               	 ;  options passed:  -I /home/rene/xpcc/src/stdc++ -I /home/rene/xpcc/src
  14               	 ;  -I /home/rene/xpcc/ext -I build/libxpcc -imultilib avrxmega2
  15               	 ;  -D BASENAME=cxxabi.cpp -D F_CPU=16000000ul
  16               	 ;  /home/rene/xpcc/src/xpcc/architecture/platform/avr/cxxabi.cpp
  17               	 ;  -mmcu=atxmega32a4
  18               	 ;  -auxbase-strip build/libxpcc/src/xpcc/architecture/platform/avr/cxxabi.o
  19               	 ;  -gdwarf-2 -Os -Woverloaded-virtual -Wall -Wextra -Wundef -std=gnu++11
  20               	 ;  -fno-threadsafe-statics -fuse-cxa-atexit -funsigned-char
  21               	 ;  -funsigned-bitfields -fshort-enums -ffunction-sections -fdata-sections
  22               	 ;  -fno-split-wide-types -fno-move-loop-invariants -fno-tree-loop-optimize
  23               	 ;  -finline-limit=10000 -fverbose-asm -fno-rtti -fno-enforce-eh-specs
  24               	 ;  -fno-exceptions
  25               	 ;  options enabled:  -fauto-inc-dec -fbranch-count-reg -fcaller-saves
  26               	 ;  -fcombine-stack-adjustments -fcommon -fcompare-elim -fcprop-registers
  27               	 ;  -fcrossjumping -fcse-follow-jumps -fdata-sections -fdebug-types-section
  28               	 ;  -fdefer-pop -fdevirtualize -fearly-inlining
  29               	 ;  -feliminate-unused-debug-types -fexpensive-optimizations
  30               	 ;  -fforward-propagate -ffunction-cse -ffunction-sections -fgcse -fgcse-lm
  31               	 ;  -fgnu-runtime -fguess-branch-probability -fident -fif-conversion
  32               	 ;  -fif-conversion2 -findirect-inlining -finline -finline-atomics
  33               	 ;  -finline-functions -finline-functions-called-once
  34               	 ;  -finline-small-functions -fipa-cp -fipa-profile -fipa-pure-const
  35               	 ;  -fipa-reference -fipa-sra -fira-share-save-slots
  36               	 ;  -fira-share-spill-slots -fivopts -fkeep-static-consts
  37               	 ;  -fleading-underscore -fmath-errno -fmerge-constants
  38               	 ;  -fmerge-debug-strings -fomit-frame-pointer -foptimize-register-move
  39               	 ;  -foptimize-sibling-calls -fpartial-inlining -fpeephole -fpeephole2
  40               	 ;  -fprefetch-loop-arrays -freg-struct-return -fregmove -freorder-blocks
  41               	 ;  -freorder-functions -frerun-cse-after-loop
  42               	 ;  -fsched-critical-path-heuristic -fsched-dep-count-heuristic
  43               	 ;  -fsched-group-heuristic -fsched-interblock -fsched-last-insn-heuristic
  44               	 ;  -fsched-rank-heuristic -fsched-spec -fsched-spec-insn-heuristic
  45               	 ;  -fsched-stalled-insns-dep -fshow-column -fshrink-wrap -fsigned-zeros
  46               	 ;  -fsplit-ivs-in-unroller -fstrict-aliasing -fstrict-overflow
  47               	 ;  -fstrict-volatile-bitfields -fthread-jumps -ftoplevel-reorder
  48               	 ;  -ftrapping-math -ftree-bit-ccp -ftree-builtin-call-dce -ftree-ccp
  49               	 ;  -ftree-ch -ftree-copy-prop -ftree-copyrename -ftree-dce
  50               	 ;  -ftree-dominator-opts -ftree-dse -ftree-forwprop -ftree-fre
  51               	 ;  -ftree-loop-if-convert -ftree-loop-im -ftree-loop-ivcanon
  52               	 ;  -ftree-parallelize-loops= -ftree-phiprop -ftree-pre -ftree-pta
  53               	 ;  -ftree-reassoc -ftree-scev-cprop -ftree-sink -ftree-slp-vectorize
  54               	 ;  -ftree-sra -ftree-switch-conversion -ftree-tail-merge -ftree-ter
  55               	 ;  -ftree-vect-loop-version -ftree-vrp -funit-at-a-time -fvar-tracking
  56               	 ;  -fvar-tracking-assignments -fverbose-asm -fzero-initialized-in-bss
  57               	
  58               		.text
  59               	.Ltext0:
  60               		.section	.text.__cxa_pure_virtual,"ax",@progbits
  61               	.global	__cxa_pure_virtual
  63               	__cxa_pure_virtual:
  64               	.LFB0:
  65               		.file 1 "/home/rene/xpcc/src/xpcc/architecture/platform/avr/cxxabi.cpp"
   1:/home/rene/xpcc/src/xpcc/architecture/platform/avr/cxxabi.cpp **** // coding: utf-8
   2:/home/rene/xpcc/src/xpcc/architecture/platform/avr/cxxabi.cpp **** // ----------------------------------------------------------------------------
   3:/home/rene/xpcc/src/xpcc/architecture/platform/avr/cxxabi.cpp **** /* Copyright (c) 2009, Roboterclub Aachen e.V.
   4:/home/rene/xpcc/src/xpcc/architecture/platform/avr/cxxabi.cpp ****  * All rights reserved.
   5:/home/rene/xpcc/src/xpcc/architecture/platform/avr/cxxabi.cpp ****  *
   6:/home/rene/xpcc/src/xpcc/architecture/platform/avr/cxxabi.cpp ****  * Redistribution and use in source and binary forms, with or without
   7:/home/rene/xpcc/src/xpcc/architecture/platform/avr/cxxabi.cpp ****  * modification, are permitted provided that the following conditions are met:
   8:/home/rene/xpcc/src/xpcc/architecture/platform/avr/cxxabi.cpp ****  *     * Redistributions of source code must retain the above copyright
   9:/home/rene/xpcc/src/xpcc/architecture/platform/avr/cxxabi.cpp ****  *       notice, this list of conditions and the following disclaimer.
  10:/home/rene/xpcc/src/xpcc/architecture/platform/avr/cxxabi.cpp ****  *     * Redistributions in binary form must reproduce the above copyright
  11:/home/rene/xpcc/src/xpcc/architecture/platform/avr/cxxabi.cpp ****  *       notice, this list of conditions and the following disclaimer in the
  12:/home/rene/xpcc/src/xpcc/architecture/platform/avr/cxxabi.cpp ****  *       documentation and/or other materials provided with the distribution.
  13:/home/rene/xpcc/src/xpcc/architecture/platform/avr/cxxabi.cpp ****  *     * Neither the name of the Roboterclub Aachen e.V. nor the
  14:/home/rene/xpcc/src/xpcc/architecture/platform/avr/cxxabi.cpp ****  *       names of its contributors may be used to endorse or promote products
  15:/home/rene/xpcc/src/xpcc/architecture/platform/avr/cxxabi.cpp ****  *       derived from this software without specific prior written permission.
  16:/home/rene/xpcc/src/xpcc/architecture/platform/avr/cxxabi.cpp ****  *
  17:/home/rene/xpcc/src/xpcc/architecture/platform/avr/cxxabi.cpp ****  * THIS SOFTWARE IS PROVIDED BY ROBOTERCLUB AACHEN E.V. ''AS IS'' AND ANY
  18:/home/rene/xpcc/src/xpcc/architecture/platform/avr/cxxabi.cpp ****  * EXPRESS OR IMPLIED WARRANTIES, INCLUDING, BUT NOT LIMITED TO, THE IMPLIED
  19:/home/rene/xpcc/src/xpcc/architecture/platform/avr/cxxabi.cpp ****  * WARRANTIES OF MERCHANTABILITY AND FITNESS FOR A PARTICULAR PURPOSE ARE
  20:/home/rene/xpcc/src/xpcc/architecture/platform/avr/cxxabi.cpp ****  * DISCLAIMED. IN NO EVENT SHALL ROBOTERCLUB AACHEN E.V. BE LIABLE FOR ANY
  21:/home/rene/xpcc/src/xpcc/architecture/platform/avr/cxxabi.cpp ****  * DIRECT, INDIRECT, INCIDENTAL, SPECIAL, EXEMPLARY, OR CONSEQUENTIAL DAMAGES
  22:/home/rene/xpcc/src/xpcc/architecture/platform/avr/cxxabi.cpp ****  * (INCLUDING, BUT NOT LIMITED TO, PROCUREMENT OF SUBSTITUTE GOODS OR SERVICES;
  23:/home/rene/xpcc/src/xpcc/architecture/platform/avr/cxxabi.cpp ****  * LOSS OF USE, DATA, OR PROFITS; OR BUSINESS INTERRUPTION) HOWEVER CAUSED AND
  24:/home/rene/xpcc/src/xpcc/architecture/platform/avr/cxxabi.cpp ****  * ON ANY THEORY OF LIABILITY, WHETHER IN CONTRACT, STRICT LIABILITY, OR TORT
  25:/home/rene/xpcc/src/xpcc/architecture/platform/avr/cxxabi.cpp ****  * (INCLUDING NEGLIGENCE OR OTHERWISE) ARISING IN ANY WAY OUT OF THE USE OF
  26:/home/rene/xpcc/src/xpcc/architecture/platform/avr/cxxabi.cpp ****  * THIS SOFTWARE, EVEN IF ADVISED OF THE POSSIBILITY OF SUCH DAMAGE.
  27:/home/rene/xpcc/src/xpcc/architecture/platform/avr/cxxabi.cpp ****  */
  28:/home/rene/xpcc/src/xpcc/architecture/platform/avr/cxxabi.cpp **** // ----------------------------------------------------------------------------
  29:/home/rene/xpcc/src/xpcc/architecture/platform/avr/cxxabi.cpp **** /**
  30:/home/rene/xpcc/src/xpcc/architecture/platform/avr/cxxabi.cpp ****  * \file	cxxabi.cpp
  31:/home/rene/xpcc/src/xpcc/architecture/platform/avr/cxxabi.cpp ****  * \brief	Minimal C++ support, no exception handling, no RTTI
  32:/home/rene/xpcc/src/xpcc/architecture/platform/avr/cxxabi.cpp ****  */
  33:/home/rene/xpcc/src/xpcc/architecture/platform/avr/cxxabi.cpp **** // ----------------------------------------------------------------------------
  34:/home/rene/xpcc/src/xpcc/architecture/platform/avr/cxxabi.cpp **** 
  35:/home/rene/xpcc/src/xpcc/architecture/platform/avr/cxxabi.cpp **** extern "C"
  36:/home/rene/xpcc/src/xpcc/architecture/platform/avr/cxxabi.cpp **** {
  37:/home/rene/xpcc/src/xpcc/architecture/platform/avr/cxxabi.cpp **** 	/**
  38:/home/rene/xpcc/src/xpcc/architecture/platform/avr/cxxabi.cpp **** 	 * \brief Pure-virtual workaround.
  39:/home/rene/xpcc/src/xpcc/architecture/platform/avr/cxxabi.cpp **** 	 *
  40:/home/rene/xpcc/src/xpcc/architecture/platform/avr/cxxabi.cpp **** 	 * The avr-libc does not support a default implementation for handling 
  41:/home/rene/xpcc/src/xpcc/architecture/platform/avr/cxxabi.cpp **** 	 * possible pure-virtual calls. This is a short and empty workaround for this.
  42:/home/rene/xpcc/src/xpcc/architecture/platform/avr/cxxabi.cpp **** 	 */
  43:/home/rene/xpcc/src/xpcc/architecture/platform/avr/cxxabi.cpp **** 	void
  44:/home/rene/xpcc/src/xpcc/architecture/platform/avr/cxxabi.cpp **** 	__cxa_pure_virtual()
  45:/home/rene/xpcc/src/xpcc/architecture/platform/avr/cxxabi.cpp **** 	{
  66               		.loc 1 45 0
  67               	/* prologue: function */
  68               	/* frame size = 0 */
  69               	/* stack size = 0 */
  70               	.L__stack_usage = 0
  71 0000 0895      		ret
  72               	.LFE0:
  74               		.section	.text.__cxa_guard_acquire,"ax",@progbits
  75               	.global	__cxa_guard_acquire
  77               	__cxa_guard_acquire:
  78               	.LFB1:
  46:/home/rene/xpcc/src/xpcc/architecture/platform/avr/cxxabi.cpp **** 		// put error handling here
  47:/home/rene/xpcc/src/xpcc/architecture/platform/avr/cxxabi.cpp **** 	}
  48:/home/rene/xpcc/src/xpcc/architecture/platform/avr/cxxabi.cpp **** 	
  49:/home/rene/xpcc/src/xpcc/architecture/platform/avr/cxxabi.cpp **** 	__extension__ typedef int __guard __attribute__((mode (__DI__)));
  50:/home/rene/xpcc/src/xpcc/architecture/platform/avr/cxxabi.cpp **** 	
  51:/home/rene/xpcc/src/xpcc/architecture/platform/avr/cxxabi.cpp **** 	int
  52:/home/rene/xpcc/src/xpcc/architecture/platform/avr/cxxabi.cpp **** 	__cxa_guard_acquire(__guard *g)
  53:/home/rene/xpcc/src/xpcc/architecture/platform/avr/cxxabi.cpp **** 	{
  79               		.loc 1 53 0
  80               	.LVL0:
  81               	/* prologue: function */
  82               	/* frame size = 0 */
  83               	/* stack size = 0 */
  84               	.L__stack_usage = 0
  85               		.loc 1 53 0
  86 0000 FC01      		movw r30,r24	 ;  g, g
  54:/home/rene/xpcc/src/xpcc/architecture/platform/avr/cxxabi.cpp **** 		return !*(char *)(g);
  87               		.loc 1 54 0
  88 0002 81E0      		ldi r24,lo8(1)	 ;  tmp48,
  89 0004 90E0      		ldi r25,0	 ; 
  90               	.LVL1:
  91 0006 2081      		ld r18,Z	 ;  MEM[(char *)g_1(D)], MEM[(char *)g_1(D)]
  92 0008 2223      		tst r18	 ;  MEM[(char *)g_1(D)]
  93 000a 01F0      		breq .L3	 ; ,
  94 000c 80E0      		ldi r24,0	 ;  tmp48
  95 000e 90E0      		ldi r25,0	 ; 
  96               	.L3:
  55:/home/rene/xpcc/src/xpcc/architecture/platform/avr/cxxabi.cpp **** 	}
  97               		.loc 1 55 0
  98 0010 0895      		ret
  99               	.LFE1:
 101               		.section	.text.__cxa_guard_release,"ax",@progbits
 102               	.global	__cxa_guard_release
 104               	__cxa_guard_release:
 105               	.LFB2:
  56:/home/rene/xpcc/src/xpcc/architecture/platform/avr/cxxabi.cpp **** 	
  57:/home/rene/xpcc/src/xpcc/architecture/platform/avr/cxxabi.cpp **** 	void
  58:/home/rene/xpcc/src/xpcc/architecture/platform/avr/cxxabi.cpp **** 	__cxa_guard_release (__guard *g)
  59:/home/rene/xpcc/src/xpcc/architecture/platform/avr/cxxabi.cpp **** 	{
 106               		.loc 1 59 0
 107               	.LVL2:
 108               	/* prologue: function */
 109               	/* frame size = 0 */
 110               	/* stack size = 0 */
 111               	.L__stack_usage = 0
  60:/home/rene/xpcc/src/xpcc/architecture/platform/avr/cxxabi.cpp **** 		*(char *)g = 1;
 112               		.loc 1 60 0
 113 0000 21E0      		ldi r18,lo8(1)	 ;  tmp43,
 114 0002 FC01      		movw r30,r24	 ; , g
 115 0004 2083      		st Z,r18	 ;  MEM[(char *)g_1(D)], tmp43
 116 0006 0895      		ret
 117               	.LFE2:
 119               		.section	.text.__cxa_guard_abort,"ax",@progbits
 120               	.global	__cxa_guard_abort
 122               	__cxa_guard_abort:
 123               	.LFB3:
  61:/home/rene/xpcc/src/xpcc/architecture/platform/avr/cxxabi.cpp **** 	}
  62:/home/rene/xpcc/src/xpcc/architecture/platform/avr/cxxabi.cpp **** 	
  63:/home/rene/xpcc/src/xpcc/architecture/platform/avr/cxxabi.cpp **** 	void
  64:/home/rene/xpcc/src/xpcc/architecture/platform/avr/cxxabi.cpp **** 	__cxa_guard_abort (__guard *)
  65:/home/rene/xpcc/src/xpcc/architecture/platform/avr/cxxabi.cpp **** 	{
 124               		.loc 1 65 0
 125               	/* prologue: function */
 126               	/* frame size = 0 */
 127               	/* stack size = 0 */
 128               	.L__stack_usage = 0
 129 0000 0895      		ret
 130               	.LFE3:
 132               		.section	.text.__cxa_atexit,"ax",@progbits
 133               	.global	__cxa_atexit
 135               	__cxa_atexit:
 136               	.LFB4:
  66:/home/rene/xpcc/src/xpcc/architecture/platform/avr/cxxabi.cpp **** 	}
  67:/home/rene/xpcc/src/xpcc/architecture/platform/avr/cxxabi.cpp **** 	
  68:/home/rene/xpcc/src/xpcc/architecture/platform/avr/cxxabi.cpp **** 	int
  69:/home/rene/xpcc/src/xpcc/architecture/platform/avr/cxxabi.cpp **** 	__cxa_atexit (void (* /*destructor*/)(void *), void */*object*/, void */*dso_handle*/)
  70:/home/rene/xpcc/src/xpcc/architecture/platform/avr/cxxabi.cpp **** 	{
 137               		.loc 1 70 0
 138               	/* prologue: function */
 139               	/* frame size = 0 */
 140               	/* stack size = 0 */
 141               	.L__stack_usage = 0
  71:/home/rene/xpcc/src/xpcc/architecture/platform/avr/cxxabi.cpp **** 		return 0;
  72:/home/rene/xpcc/src/xpcc/architecture/platform/avr/cxxabi.cpp **** 	}
 142               		.loc 1 72 0
 143 0000 80E0      		ldi r24,0	 ; 
 144 0002 90E0      		ldi r25,0	 ; 
 145 0004 0895      		ret
 146               	.LFE4:
 148               	.global	__dso_handle
 149               		.section	.data.__dso_handle,"aw",@progbits
 152               	__dso_handle:
 153 0000 0000      		.word	__dso_handle
 212               	.Letext0:
DEFINED SYMBOLS
                            *ABS*:0000000000000000 cxxabi.cpp
     /tmp/ccer8FkJ.s:2      *ABS*:000000000000003e __SP_H__
     /tmp/ccer8FkJ.s:3      *ABS*:000000000000003d __SP_L__
     /tmp/ccer8FkJ.s:4      *ABS*:000000000000003f __SREG__
     /tmp/ccer8FkJ.s:5      *ABS*:0000000000000034 __CCP__
     /tmp/ccer8FkJ.s:6      *ABS*:0000000000000000 __tmp_reg__
     /tmp/ccer8FkJ.s:7      *ABS*:0000000000000001 __zero_reg__
     /tmp/ccer8FkJ.s:63     .text.__cxa_pure_virtual:0000000000000000 __cxa_pure_virtual
     /tmp/ccer8FkJ.s:77     .text.__cxa_guard_acquire:0000000000000000 __cxa_guard_acquire
     /tmp/ccer8FkJ.s:104    .text.__cxa_guard_release:0000000000000000 __cxa_guard_release
     /tmp/ccer8FkJ.s:122    .text.__cxa_guard_abort:0000000000000000 __cxa_guard_abort
     /tmp/ccer8FkJ.s:135    .text.__cxa_atexit:0000000000000000 __cxa_atexit
     /tmp/ccer8FkJ.s:152    .data.__dso_handle:0000000000000000 __dso_handle

UNDEFINED SYMBOLS
__do_copy_data
