   1               		.file	"flash.cpp"
   2               	__SP_H__ = 0x3e
   3               	__SP_L__ = 0x3d
   4               	__SREG__ = 0x3f
   5               	__CCP__ = 0x34
   6               	__tmp_reg__ = 0
   7               	__zero_reg__ = 1
   8               	 ;  GNU C++ (GCC) version 4.7.2 (avr)
   9               	 ; 	compiled by GNU C version 4.7.2, GMP version 5.0.5, MPFR version 3.1.0-p10, MPC version 0.9
  10               	 ;  warning: GMP header version 5.0.5 differs from library version 5.1.2.
  11               	 ;  warning: MPFR header version 3.1.0-p10 differs from library version 3.1.1-p2.
  12               	 ;  GGC heuristics: --param ggc-min-expand=100 --param ggc-min-heapsize=131072
  13               	 ;  options passed:  -I /home/rene/xpcc/src/stdc++ -I /home/rene/xpcc/src
  14               	 ;  -I /home/rene/xpcc/ext -I build/libxpcc -imultilib avrxmega2
  15               	 ;  -D BASENAME=flash.cpp -D F_CPU=16000000ul
  16               	 ;  /home/rene/xpcc/src/xpcc/architecture/driver/accessor/flash.cpp
  17               	 ;  -mmcu=atxmega32a4
  18               	 ;  -auxbase-strip build/libxpcc/src/xpcc/architecture/driver/accessor/flash.o
  19               	 ;  -gdwarf-2 -Os -Woverloaded-virtual -Wall -Wextra -Wundef -std=gnu++11
  20               	 ;  -fno-threadsafe-statics -fuse-cxa-atexit -funsigned-char
  21               	 ;  -funsigned-bitfields -fshort-enums -ffunction-sections -fdata-sections
  22               	 ;  -fno-split-wide-types -fno-move-loop-invariants -fno-tree-loop-optimize
  23               	 ;  -finline-limit=10000 -fverbose-asm -fno-rtti -fno-enforce-eh-specs
  24               	 ;  -fno-exceptions
  25               	 ;  options enabled:  -fauto-inc-dec -fbranch-count-reg -fcaller-saves
  26               	 ;  -fcombine-stack-adjustments -fcommon -fcompare-elim -fcprop-registers
  27               	 ;  -fcrossjumping -fcse-follow-jumps -fdata-sections -fdebug-types-section
  28               	 ;  -fdefer-pop -fdevirtualize -fearly-inlining
  29               	 ;  -feliminate-unused-debug-types -fexpensive-optimizations
  30               	 ;  -fforward-propagate -ffunction-cse -ffunction-sections -fgcse -fgcse-lm
  31               	 ;  -fgnu-runtime -fguess-branch-probability -fident -fif-conversion
  32               	 ;  -fif-conversion2 -findirect-inlining -finline -finline-atomics
  33               	 ;  -finline-functions -finline-functions-called-once
  34               	 ;  -finline-small-functions -fipa-cp -fipa-profile -fipa-pure-const
  35               	 ;  -fipa-reference -fipa-sra -fira-share-save-slots
  36               	 ;  -fira-share-spill-slots -fivopts -fkeep-static-consts
  37               	 ;  -fleading-underscore -fmath-errno -fmerge-constants
  38               	 ;  -fmerge-debug-strings -fomit-frame-pointer -foptimize-register-move
  39               	 ;  -foptimize-sibling-calls -fpartial-inlining -fpeephole -fpeephole2
  40               	 ;  -fprefetch-loop-arrays -freg-struct-return -fregmove -freorder-blocks
  41               	 ;  -freorder-functions -frerun-cse-after-loop
  42               	 ;  -fsched-critical-path-heuristic -fsched-dep-count-heuristic
  43               	 ;  -fsched-group-heuristic -fsched-interblock -fsched-last-insn-heuristic
  44               	 ;  -fsched-rank-heuristic -fsched-spec -fsched-spec-insn-heuristic
  45               	 ;  -fsched-stalled-insns-dep -fshow-column -fshrink-wrap -fsigned-zeros
  46               	 ;  -fsplit-ivs-in-unroller -fstrict-aliasing -fstrict-overflow
  47               	 ;  -fstrict-volatile-bitfields -fthread-jumps -ftoplevel-reorder
  48               	 ;  -ftrapping-math -ftree-bit-ccp -ftree-builtin-call-dce -ftree-ccp
  49               	 ;  -ftree-ch -ftree-copy-prop -ftree-copyrename -ftree-dce
  50               	 ;  -ftree-dominator-opts -ftree-dse -ftree-forwprop -ftree-fre
  51               	 ;  -ftree-loop-if-convert -ftree-loop-im -ftree-loop-ivcanon
  52               	 ;  -ftree-parallelize-loops= -ftree-phiprop -ftree-pre -ftree-pta
  53               	 ;  -ftree-reassoc -ftree-scev-cprop -ftree-sink -ftree-slp-vectorize
  54               	 ;  -ftree-sra -ftree-switch-conversion -ftree-tail-merge -ftree-ter
  55               	 ;  -ftree-vect-loop-version -ftree-vrp -funit-at-a-time -fvar-tracking
  56               	 ;  -fvar-tracking-assignments -fverbose-asm -fzero-initialized-in-bss
  57               	
  58               		.text
  59               	.Ltext0:
  60               		.section	.text._ZlsRN4xpcc8IOStreamENS_8accessor5FlashIcEE,"ax",@progbits
  61               	.global	_ZlsRN4xpcc8IOStreamENS_8accessor5FlashIcEE
  63               	_ZlsRN4xpcc8IOStreamENS_8accessor5FlashIcEE:
  64               	.LFB60:
  65               		.file 1 "/home/rene/xpcc/src/xpcc/architecture/driver/accessor/flash.cpp"
   1:/home/rene/xpcc/src/xpcc/architecture/driver/accessor/flash.cpp **** // coding: utf-8
   2:/home/rene/xpcc/src/xpcc/architecture/driver/accessor/flash.cpp **** // ----------------------------------------------------------------------------
   3:/home/rene/xpcc/src/xpcc/architecture/driver/accessor/flash.cpp **** /* Copyright (c) 2009, Roboterclub Aachen e.V.
   4:/home/rene/xpcc/src/xpcc/architecture/driver/accessor/flash.cpp ****  * All rights reserved.
   5:/home/rene/xpcc/src/xpcc/architecture/driver/accessor/flash.cpp ****  *
   6:/home/rene/xpcc/src/xpcc/architecture/driver/accessor/flash.cpp ****  * Redistribution and use in source and binary forms, with or without
   7:/home/rene/xpcc/src/xpcc/architecture/driver/accessor/flash.cpp ****  * modification, are permitted provided that the following conditions are met:
   8:/home/rene/xpcc/src/xpcc/architecture/driver/accessor/flash.cpp ****  * 
   9:/home/rene/xpcc/src/xpcc/architecture/driver/accessor/flash.cpp ****  *     * Redistributions of source code must retain the above copyright
  10:/home/rene/xpcc/src/xpcc/architecture/driver/accessor/flash.cpp ****  *       notice, this list of conditions and the following disclaimer.
  11:/home/rene/xpcc/src/xpcc/architecture/driver/accessor/flash.cpp ****  *     * Redistributions in binary form must reproduce the above copyright
  12:/home/rene/xpcc/src/xpcc/architecture/driver/accessor/flash.cpp ****  *       notice, this list of conditions and the following disclaimer in the
  13:/home/rene/xpcc/src/xpcc/architecture/driver/accessor/flash.cpp ****  *       documentation and/or other materials provided with the distribution.
  14:/home/rene/xpcc/src/xpcc/architecture/driver/accessor/flash.cpp ****  *     * Neither the name of the Roboterclub Aachen e.V. nor the
  15:/home/rene/xpcc/src/xpcc/architecture/driver/accessor/flash.cpp ****  *       names of its contributors may be used to endorse or promote products
  16:/home/rene/xpcc/src/xpcc/architecture/driver/accessor/flash.cpp ****  *       derived from this software without specific prior written permission.
  17:/home/rene/xpcc/src/xpcc/architecture/driver/accessor/flash.cpp ****  *
  18:/home/rene/xpcc/src/xpcc/architecture/driver/accessor/flash.cpp ****  * THIS SOFTWARE IS PROVIDED BY ROBOTERCLUB AACHEN E.V. ''AS IS'' AND ANY
  19:/home/rene/xpcc/src/xpcc/architecture/driver/accessor/flash.cpp ****  * EXPRESS OR IMPLIED WARRANTIES, INCLUDING, BUT NOT LIMITED TO, THE IMPLIED
  20:/home/rene/xpcc/src/xpcc/architecture/driver/accessor/flash.cpp ****  * WARRANTIES OF MERCHANTABILITY AND FITNESS FOR A PARTICULAR PURPOSE ARE
  21:/home/rene/xpcc/src/xpcc/architecture/driver/accessor/flash.cpp ****  * DISCLAIMED. IN NO EVENT SHALL ROBOTERCLUB AACHEN E.V. BE LIABLE FOR ANY
  22:/home/rene/xpcc/src/xpcc/architecture/driver/accessor/flash.cpp ****  * DIRECT, INDIRECT, INCIDENTAL, SPECIAL, EXEMPLARY, OR CONSEQUENTIAL DAMAGES
  23:/home/rene/xpcc/src/xpcc/architecture/driver/accessor/flash.cpp ****  * (INCLUDING, BUT NOT LIMITED TO, PROCUREMENT OF SUBSTITUTE GOODS OR SERVICES;
  24:/home/rene/xpcc/src/xpcc/architecture/driver/accessor/flash.cpp ****  * LOSS OF USE, DATA, OR PROFITS; OR BUSINESS INTERRUPTION) HOWEVER CAUSED AND
  25:/home/rene/xpcc/src/xpcc/architecture/driver/accessor/flash.cpp ****  * ON ANY THEORY OF LIABILITY, WHETHER IN CONTRACT, STRICT LIABILITY, OR TORT
  26:/home/rene/xpcc/src/xpcc/architecture/driver/accessor/flash.cpp ****  * (INCLUDING NEGLIGENCE OR OTHERWISE) ARISING IN ANY WAY OUT OF THE USE OF
  27:/home/rene/xpcc/src/xpcc/architecture/driver/accessor/flash.cpp ****  * THIS SOFTWARE, EVEN IF ADVISED OF THE POSSIBILITY OF SUCH DAMAGE.
  28:/home/rene/xpcc/src/xpcc/architecture/driver/accessor/flash.cpp ****  */
  29:/home/rene/xpcc/src/xpcc/architecture/driver/accessor/flash.cpp **** // ----------------------------------------------------------------------------
  30:/home/rene/xpcc/src/xpcc/architecture/driver/accessor/flash.cpp **** 
  31:/home/rene/xpcc/src/xpcc/architecture/driver/accessor/flash.cpp **** #include "flash.hpp"
  32:/home/rene/xpcc/src/xpcc/architecture/driver/accessor/flash.cpp **** 
  33:/home/rene/xpcc/src/xpcc/architecture/driver/accessor/flash.cpp **** // ----------------------------------------------------------------------------
  34:/home/rene/xpcc/src/xpcc/architecture/driver/accessor/flash.cpp **** xpcc::IOStream&
  35:/home/rene/xpcc/src/xpcc/architecture/driver/accessor/flash.cpp **** operator << (xpcc::IOStream& os, xpcc::accessor::Flash<char> ptr)
  36:/home/rene/xpcc/src/xpcc/architecture/driver/accessor/flash.cpp **** {
  66               		.loc 1 36 0
  67               	.LVL0:
  68 0000 0F93      		push r16	 ; 
  69               	.LCFI0:
  70 0002 1F93      		push r17	 ; 
  71               	.LCFI1:
  72 0004 CF93      		push r28	 ; 
  73               	.LCFI2:
  74 0006 DF93      		push r29	 ; 
  75               	.LCFI3:
  76               	/* prologue: function */
  77               	/* frame size = 0 */
  78               	/* stack size = 4 */
  79               	.L__stack_usage = 4
  80 0008 EC01      		movw r28,r24	 ;  os, os
  81               	.LVL1:
  82               	.LBB46:
  37:/home/rene/xpcc/src/xpcc/architecture/driver/accessor/flash.cpp **** 	char c;
  38:/home/rene/xpcc/src/xpcc/architecture/driver/accessor/flash.cpp **** 	while ((c = *ptr++)) {
  83               		.loc 1 38 0
  84 000a 00C0      		rjmp .L2	 ; 
  85               	.LVL2:
  86               	.L6:
  87               	.LBB47:
  88               	.LBB48:
  89               		.file 2 "/home/rene/xpcc/src/xpcc/io/iostream.hpp"
   1:/home/rene/xpcc/src/xpcc/io/iostream.hpp **** // coding: utf-8
   2:/home/rene/xpcc/src/xpcc/io/iostream.hpp **** // ----------------------------------------------------------------------------
   3:/home/rene/xpcc/src/xpcc/io/iostream.hpp **** /* Copyright (c) 2009, Roboterclub Aachen e.V.
   4:/home/rene/xpcc/src/xpcc/io/iostream.hpp ****  * All rights reserved.
   5:/home/rene/xpcc/src/xpcc/io/iostream.hpp ****  *
   6:/home/rene/xpcc/src/xpcc/io/iostream.hpp ****  * Redistribution and use in source and binary forms, with or without
   7:/home/rene/xpcc/src/xpcc/io/iostream.hpp ****  * modification, are permitted provided that the following conditions are met:
   8:/home/rene/xpcc/src/xpcc/io/iostream.hpp ****  * 
   9:/home/rene/xpcc/src/xpcc/io/iostream.hpp ****  *     * Redistributions of source code must retain the above copyright
  10:/home/rene/xpcc/src/xpcc/io/iostream.hpp ****  *       notice, this list of conditions and the following disclaimer.
  11:/home/rene/xpcc/src/xpcc/io/iostream.hpp ****  *     * Redistributions in binary form must reproduce the above copyright
  12:/home/rene/xpcc/src/xpcc/io/iostream.hpp ****  *       notice, this list of conditions and the following disclaimer in the
  13:/home/rene/xpcc/src/xpcc/io/iostream.hpp ****  *       documentation and/or other materials provided with the distribution.
  14:/home/rene/xpcc/src/xpcc/io/iostream.hpp ****  *     * Neither the name of the Roboterclub Aachen e.V. nor the
  15:/home/rene/xpcc/src/xpcc/io/iostream.hpp ****  *       names of its contributors may be used to endorse or promote products
  16:/home/rene/xpcc/src/xpcc/io/iostream.hpp ****  *       derived from this software without specific prior written permission.
  17:/home/rene/xpcc/src/xpcc/io/iostream.hpp ****  *
  18:/home/rene/xpcc/src/xpcc/io/iostream.hpp ****  * THIS SOFTWARE IS PROVIDED BY ROBOTERCLUB AACHEN E.V. ''AS IS'' AND ANY
  19:/home/rene/xpcc/src/xpcc/io/iostream.hpp ****  * EXPRESS OR IMPLIED WARRANTIES, INCLUDING, BUT NOT LIMITED TO, THE IMPLIED
  20:/home/rene/xpcc/src/xpcc/io/iostream.hpp ****  * WARRANTIES OF MERCHANTABILITY AND FITNESS FOR A PARTICULAR PURPOSE ARE
  21:/home/rene/xpcc/src/xpcc/io/iostream.hpp ****  * DISCLAIMED. IN NO EVENT SHALL ROBOTERCLUB AACHEN E.V. BE LIABLE FOR ANY
  22:/home/rene/xpcc/src/xpcc/io/iostream.hpp ****  * DIRECT, INDIRECT, INCIDENTAL, SPECIAL, EXEMPLARY, OR CONSEQUENTIAL DAMAGES
  23:/home/rene/xpcc/src/xpcc/io/iostream.hpp ****  * (INCLUDING, BUT NOT LIMITED TO, PROCUREMENT OF SUBSTITUTE GOODS OR SERVICES;
  24:/home/rene/xpcc/src/xpcc/io/iostream.hpp ****  * LOSS OF USE, DATA, OR PROFITS; OR BUSINESS INTERRUPTION) HOWEVER CAUSED AND
  25:/home/rene/xpcc/src/xpcc/io/iostream.hpp ****  * ON ANY THEORY OF LIABILITY, WHETHER IN CONTRACT, STRICT LIABILITY, OR TORT
  26:/home/rene/xpcc/src/xpcc/io/iostream.hpp ****  * (INCLUDING NEGLIGENCE OR OTHERWISE) ARISING IN ANY WAY OUT OF THE USE OF
  27:/home/rene/xpcc/src/xpcc/io/iostream.hpp ****  * THIS SOFTWARE, EVEN IF ADVISED OF THE POSSIBILITY OF SUCH DAMAGE.
  28:/home/rene/xpcc/src/xpcc/io/iostream.hpp ****  */
  29:/home/rene/xpcc/src/xpcc/io/iostream.hpp **** // ----------------------------------------------------------------------------
  30:/home/rene/xpcc/src/xpcc/io/iostream.hpp **** 
  31:/home/rene/xpcc/src/xpcc/io/iostream.hpp **** #ifndef XPCC__IOSTREAM_HPP
  32:/home/rene/xpcc/src/xpcc/io/iostream.hpp **** #define XPCC__IOSTREAM_HPP
  33:/home/rene/xpcc/src/xpcc/io/iostream.hpp **** 
  34:/home/rene/xpcc/src/xpcc/io/iostream.hpp **** #include <xpcc/architecture/utils.hpp>
  35:/home/rene/xpcc/src/xpcc/io/iostream.hpp **** 
  36:/home/rene/xpcc/src/xpcc/io/iostream.hpp **** #include "iodevice.hpp"
  37:/home/rene/xpcc/src/xpcc/io/iostream.hpp **** #include "iodevice_wrapper.hpp"
  38:/home/rene/xpcc/src/xpcc/io/iostream.hpp **** 
  39:/home/rene/xpcc/src/xpcc/io/iostream.hpp **** namespace xpcc
  40:/home/rene/xpcc/src/xpcc/io/iostream.hpp **** {
  41:/home/rene/xpcc/src/xpcc/io/iostream.hpp **** 	/**
  42:/home/rene/xpcc/src/xpcc/io/iostream.hpp **** 	 * \brief 	This Formats all primary types into a string stream for
  43:/home/rene/xpcc/src/xpcc/io/iostream.hpp **** 	 * 			output or it reads values from a input and converts them to
  44:/home/rene/xpcc/src/xpcc/io/iostream.hpp **** 	 * 			a given type;
  45:/home/rene/xpcc/src/xpcc/io/iostream.hpp **** 	 *
  46:/home/rene/xpcc/src/xpcc/io/iostream.hpp **** 	 * \ingroup io
  47:/home/rene/xpcc/src/xpcc/io/iostream.hpp **** 	 * \author	Martin Rosekeit <martin.rosekeit@rwth-aachen.de>
  48:/home/rene/xpcc/src/xpcc/io/iostream.hpp **** 	 */
  49:/home/rene/xpcc/src/xpcc/io/iostream.hpp **** 	class IOStream
  50:/home/rene/xpcc/src/xpcc/io/iostream.hpp **** 	{
  51:/home/rene/xpcc/src/xpcc/io/iostream.hpp **** 	public :
  52:/home/rene/xpcc/src/xpcc/io/iostream.hpp **** 		/**
  53:/home/rene/xpcc/src/xpcc/io/iostream.hpp **** 		 * \brief	Constructor
  54:/home/rene/xpcc/src/xpcc/io/iostream.hpp **** 		 * 
  55:/home/rene/xpcc/src/xpcc/io/iostream.hpp **** 		 * \param	device	device to write the stream to
  56:/home/rene/xpcc/src/xpcc/io/iostream.hpp **** 		 * 
  57:/home/rene/xpcc/src/xpcc/io/iostream.hpp **** 		 * \code
  58:/home/rene/xpcc/src/xpcc/io/iostream.hpp **** 		 *	MyIODevice device;
  59:/home/rene/xpcc/src/xpcc/io/iostream.hpp **** 		 *	IOStream stream( device );
  60:/home/rene/xpcc/src/xpcc/io/iostream.hpp **** 		 * \endcode
  61:/home/rene/xpcc/src/xpcc/io/iostream.hpp **** 		 */
  62:/home/rene/xpcc/src/xpcc/io/iostream.hpp **** 		IOStream(IODevice& device);
  63:/home/rene/xpcc/src/xpcc/io/iostream.hpp **** 
  64:/home/rene/xpcc/src/xpcc/io/iostream.hpp **** 		inline IOStream&
  65:/home/rene/xpcc/src/xpcc/io/iostream.hpp **** 		write(char c)
  66:/home/rene/xpcc/src/xpcc/io/iostream.hpp **** 		{
  67:/home/rene/xpcc/src/xpcc/io/iostream.hpp **** 			this->device->write(c);
  68:/home/rene/xpcc/src/xpcc/io/iostream.hpp **** 			return *this;
  69:/home/rene/xpcc/src/xpcc/io/iostream.hpp **** 		}
  70:/home/rene/xpcc/src/xpcc/io/iostream.hpp **** 		
  71:/home/rene/xpcc/src/xpcc/io/iostream.hpp **** 		inline IOStream&
  72:/home/rene/xpcc/src/xpcc/io/iostream.hpp **** 		flush()
  73:/home/rene/xpcc/src/xpcc/io/iostream.hpp **** 		{
  74:/home/rene/xpcc/src/xpcc/io/iostream.hpp **** 			this->device->flush();
  75:/home/rene/xpcc/src/xpcc/io/iostream.hpp **** 			this->mode = Mode::Ascii;
  76:/home/rene/xpcc/src/xpcc/io/iostream.hpp **** 			return *this;
  77:/home/rene/xpcc/src/xpcc/io/iostream.hpp **** 		}
  78:/home/rene/xpcc/src/xpcc/io/iostream.hpp **** 		
  79:/home/rene/xpcc/src/xpcc/io/iostream.hpp **** 		/// set the output mode to Mode::Binary style for \c char and \c char*
  80:/home/rene/xpcc/src/xpcc/io/iostream.hpp **** 		ALWAYS_INLINE IOStream&
  81:/home/rene/xpcc/src/xpcc/io/iostream.hpp **** 		bin()
  82:/home/rene/xpcc/src/xpcc/io/iostream.hpp **** 		{
  83:/home/rene/xpcc/src/xpcc/io/iostream.hpp **** 			this->mode = Mode::Binary;
  84:/home/rene/xpcc/src/xpcc/io/iostream.hpp **** 			return *this;
  85:/home/rene/xpcc/src/xpcc/io/iostream.hpp **** 		}
  86:/home/rene/xpcc/src/xpcc/io/iostream.hpp **** 
  87:/home/rene/xpcc/src/xpcc/io/iostream.hpp **** 		/// set the output mode to Mode::Hexadecimal style for \c char and \c char*
  88:/home/rene/xpcc/src/xpcc/io/iostream.hpp **** 		ALWAYS_INLINE IOStream&
  89:/home/rene/xpcc/src/xpcc/io/iostream.hpp **** 		hex()
  90:/home/rene/xpcc/src/xpcc/io/iostream.hpp **** 		{
  91:/home/rene/xpcc/src/xpcc/io/iostream.hpp **** 			this->mode = Mode::Hexadecimal;
  92:/home/rene/xpcc/src/xpcc/io/iostream.hpp **** 			return *this;
  93:/home/rene/xpcc/src/xpcc/io/iostream.hpp **** 		}
  94:/home/rene/xpcc/src/xpcc/io/iostream.hpp **** 
  95:/home/rene/xpcc/src/xpcc/io/iostream.hpp **** 		/// set the output mode to Mode::Ascii style for \c char and \c char*
  96:/home/rene/xpcc/src/xpcc/io/iostream.hpp **** 		ALWAYS_INLINE IOStream&
  97:/home/rene/xpcc/src/xpcc/io/iostream.hpp **** 		ascii()
  98:/home/rene/xpcc/src/xpcc/io/iostream.hpp **** 		{
  99:/home/rene/xpcc/src/xpcc/io/iostream.hpp **** 			this->mode = Mode::Ascii;
 100:/home/rene/xpcc/src/xpcc/io/iostream.hpp **** 			return *this;
 101:/home/rene/xpcc/src/xpcc/io/iostream.hpp **** 		}
 102:/home/rene/xpcc/src/xpcc/io/iostream.hpp **** 		
 103:/home/rene/xpcc/src/xpcc/io/iostream.hpp **** 		
 104:/home/rene/xpcc/src/xpcc/io/iostream.hpp **** 		IOStream&
 105:/home/rene/xpcc/src/xpcc/io/iostream.hpp **** 		operator << (const unsigned char& v)
 106:/home/rene/xpcc/src/xpcc/io/iostream.hpp **** 		{
 107:/home/rene/xpcc/src/xpcc/io/iostream.hpp **** 			if (this->mode == Mode::Ascii) {
 108:/home/rene/xpcc/src/xpcc/io/iostream.hpp **** 				this->writeInteger(static_cast<uint16_t>(v));
 109:/home/rene/xpcc/src/xpcc/io/iostream.hpp **** 			}
 110:/home/rene/xpcc/src/xpcc/io/iostream.hpp **** 			else if (this->mode == Mode::Binary) {
 111:/home/rene/xpcc/src/xpcc/io/iostream.hpp **** 				this->writeBin(v);
 112:/home/rene/xpcc/src/xpcc/io/iostream.hpp **** 			}
 113:/home/rene/xpcc/src/xpcc/io/iostream.hpp **** 			else {
 114:/home/rene/xpcc/src/xpcc/io/iostream.hpp **** 				this->writeHex(v);
 115:/home/rene/xpcc/src/xpcc/io/iostream.hpp **** 			}
 116:/home/rene/xpcc/src/xpcc/io/iostream.hpp **** 			return *this;
 117:/home/rene/xpcc/src/xpcc/io/iostream.hpp **** 		}
 118:/home/rene/xpcc/src/xpcc/io/iostream.hpp **** 
 119:/home/rene/xpcc/src/xpcc/io/iostream.hpp **** 		IOStream&
 120:/home/rene/xpcc/src/xpcc/io/iostream.hpp **** 		operator << (const char& v)
 121:/home/rene/xpcc/src/xpcc/io/iostream.hpp **** 		{
 122:/home/rene/xpcc/src/xpcc/io/iostream.hpp **** 			if (this->mode == Mode::Ascii) {
  90               		.loc 2 122 0
  91 000c 8A81      		ldd r24,Y+2	 ;  D.4709, os_5(D)->mode
  92 000e 9B81      		ldd r25,Y+3	 ;  D.4709, os_5(D)->mode
  93 0010 0097      		sbiw r24,0	 ;  D.4709,
  94 0012 01F4      		brne .L3	 ; ,
 123:/home/rene/xpcc/src/xpcc/io/iostream.hpp **** 				this->device->write(v);
  95               		.loc 2 123 0
  96 0014 8881      		ld r24,Y	 ;  D.4710, os_5(D)->device
  97 0016 9981      		ldd r25,Y+1	 ;  D.4710, os_5(D)->device
  98 0018 DC01      		movw r26,r24	 ; , D.4710
  99 001a ED91      		ld r30,X+	 ;  D.4710_25->_vptr.IODevice
 100 001c FC91      		ld r31,X	 ;  D.4710_25->_vptr.IODevice
 101               	.LVL3:
 102 001e 0480      		ldd __tmp_reg__,Z+4	 ;  MEM[(int (*__vtbl_ptr_type) () *)D.4711_26 + 4B]
 103 0020 F581      		ldd r31,Z+5	 ;  MEM[(int (*__vtbl_ptr_type) () *)D.4711_26 + 4B], MEM[(int (*__vtbl_ptr_type) () *
 104 0022 E02D      		mov r30,__tmp_reg__	 ;  MEM[(int (*__vtbl_ptr_type) () *)D.4711_26 + 4B]
 105 0024 0995      		icall
 106               	.LVL4:
 107 0026 00C0      		rjmp .L4	 ; 
 108               	.LVL5:
 109               	.L3:
 124:/home/rene/xpcc/src/xpcc/io/iostream.hpp **** 			}
 125:/home/rene/xpcc/src/xpcc/io/iostream.hpp **** 			else if (this->mode == Mode::Binary) {
 110               		.loc 2 125 0
 111 0028 0297      		sbiw r24,2	 ;  D.4709,
 112 002a 01F4      		brne .L5	 ; ,
 126:/home/rene/xpcc/src/xpcc/io/iostream.hpp **** 				this->writeBin(v);
 113               		.loc 2 126 0
 114 002c CE01      		movw r24,r28	 ; , os
 115 002e 0E94 0000 		call _ZN4xpcc8IOStream8writeBinEh	 ; 
 116               	.LVL6:
 117 0032 00C0      		rjmp .L4	 ; 
 118               	.LVL7:
 119               	.L5:
 127:/home/rene/xpcc/src/xpcc/io/iostream.hpp **** 			}
 128:/home/rene/xpcc/src/xpcc/io/iostream.hpp **** 			else {
 129:/home/rene/xpcc/src/xpcc/io/iostream.hpp **** 				this->writeHex(v);
 120               		.loc 2 129 0
 121 0034 CE01      		movw r24,r28	 ; , os
 122 0036 0E94 0000 		call _ZN4xpcc8IOStream8writeHexEh	 ; 
 123               	.LVL8:
 124               	.L4:
 125               	.LBE48:
 126               	.LBE47:
 127               	.LBE46:
  36:/home/rene/xpcc/src/xpcc/architecture/driver/accessor/flash.cpp **** {
 128               		.loc 1 36 0 discriminator 1
 129 003a B801      		movw r22,r16	 ;  ptr$address, ptr$address
 130               	.LVL9:
 131               	.L2:
 132               	.LBB59:
 133               	.LBB49:
 134               	.LBB50:
 135               	.LBB51:
 136               	.LBB52:
 137               	.LBB53:
 138               	.LBB54:
 139               		.file 3 "/home/rene/xpcc/src/xpcc/architecture/driver/accessor/flash.hpp"
   1:/home/rene/xpcc/src/xpcc/architecture/driver/accessor/flash.hpp **** // coding: utf-8
   2:/home/rene/xpcc/src/xpcc/architecture/driver/accessor/flash.hpp **** // ----------------------------------------------------------------------------
   3:/home/rene/xpcc/src/xpcc/architecture/driver/accessor/flash.hpp **** /* Copyright (c) 2009, Roboterclub Aachen e.V.
   4:/home/rene/xpcc/src/xpcc/architecture/driver/accessor/flash.hpp ****  * All rights reserved.
   5:/home/rene/xpcc/src/xpcc/architecture/driver/accessor/flash.hpp ****  *
   6:/home/rene/xpcc/src/xpcc/architecture/driver/accessor/flash.hpp ****  * Redistribution and use in source and binary forms, with or without
   7:/home/rene/xpcc/src/xpcc/architecture/driver/accessor/flash.hpp ****  * modification, are permitted provided that the following conditions are met:
   8:/home/rene/xpcc/src/xpcc/architecture/driver/accessor/flash.hpp ****  *
   9:/home/rene/xpcc/src/xpcc/architecture/driver/accessor/flash.hpp ****  *     * Redistributions of source code must retain the above copyright
  10:/home/rene/xpcc/src/xpcc/architecture/driver/accessor/flash.hpp ****  *       notice, this list of conditions and the following disclaimer.
  11:/home/rene/xpcc/src/xpcc/architecture/driver/accessor/flash.hpp ****  *     * Redistributions in binary form must reproduce the above copyright
  12:/home/rene/xpcc/src/xpcc/architecture/driver/accessor/flash.hpp ****  *       notice, this list of conditions and the following disclaimer in the
  13:/home/rene/xpcc/src/xpcc/architecture/driver/accessor/flash.hpp ****  *       documentation and/or other materials provided with the distribution.
  14:/home/rene/xpcc/src/xpcc/architecture/driver/accessor/flash.hpp ****  *     * Neither the name of the Roboterclub Aachen e.V. nor the
  15:/home/rene/xpcc/src/xpcc/architecture/driver/accessor/flash.hpp ****  *       names of its contributors may be used to endorse or promote products
  16:/home/rene/xpcc/src/xpcc/architecture/driver/accessor/flash.hpp ****  *       derived from this software without specific prior written permission.
  17:/home/rene/xpcc/src/xpcc/architecture/driver/accessor/flash.hpp ****  *
  18:/home/rene/xpcc/src/xpcc/architecture/driver/accessor/flash.hpp ****  * THIS SOFTWARE IS PROVIDED BY ROBOTERCLUB AACHEN E.V. ''AS IS'' AND ANY
  19:/home/rene/xpcc/src/xpcc/architecture/driver/accessor/flash.hpp ****  * EXPRESS OR IMPLIED WARRANTIES, INCLUDING, BUT NOT LIMITED TO, THE IMPLIED
  20:/home/rene/xpcc/src/xpcc/architecture/driver/accessor/flash.hpp ****  * WARRANTIES OF MERCHANTABILITY AND FITNESS FOR A PARTICULAR PURPOSE ARE
  21:/home/rene/xpcc/src/xpcc/architecture/driver/accessor/flash.hpp ****  * DISCLAIMED. IN NO EVENT SHALL ROBOTERCLUB AACHEN E.V. BE LIABLE FOR ANY
  22:/home/rene/xpcc/src/xpcc/architecture/driver/accessor/flash.hpp ****  * DIRECT, INDIRECT, INCIDENTAL, SPECIAL, EXEMPLARY, OR CONSEQUENTIAL DAMAGES
  23:/home/rene/xpcc/src/xpcc/architecture/driver/accessor/flash.hpp ****  * (INCLUDING, BUT NOT LIMITED TO, PROCUREMENT OF SUBSTITUTE GOODS OR SERVICES;
  24:/home/rene/xpcc/src/xpcc/architecture/driver/accessor/flash.hpp ****  * LOSS OF USE, DATA, OR PROFITS; OR BUSINESS INTERRUPTION) HOWEVER CAUSED AND
  25:/home/rene/xpcc/src/xpcc/architecture/driver/accessor/flash.hpp ****  * ON ANY THEORY OF LIABILITY, WHETHER IN CONTRACT, STRICT LIABILITY, OR TORT
  26:/home/rene/xpcc/src/xpcc/architecture/driver/accessor/flash.hpp ****  * (INCLUDING NEGLIGENCE OR OTHERWISE) ARISING IN ANY WAY OUT OF THE USE OF
  27:/home/rene/xpcc/src/xpcc/architecture/driver/accessor/flash.hpp ****  * THIS SOFTWARE, EVEN IF ADVISED OF THE POSSIBILITY OF SUCH DAMAGE.
  28:/home/rene/xpcc/src/xpcc/architecture/driver/accessor/flash.hpp ****  */
  29:/home/rene/xpcc/src/xpcc/architecture/driver/accessor/flash.hpp **** // ----------------------------------------------------------------------------
  30:/home/rene/xpcc/src/xpcc/architecture/driver/accessor/flash.hpp **** 
  31:/home/rene/xpcc/src/xpcc/architecture/driver/accessor/flash.hpp **** #ifndef	XPCC_ACCESSOR__FLASH_HPP
  32:/home/rene/xpcc/src/xpcc/architecture/driver/accessor/flash.hpp **** #define	XPCC_ACCESSOR__FLASH_HPP
  33:/home/rene/xpcc/src/xpcc/architecture/driver/accessor/flash.hpp **** 
  34:/home/rene/xpcc/src/xpcc/architecture/driver/accessor/flash.hpp **** #include <xpcc/architecture/utils.hpp>
  35:/home/rene/xpcc/src/xpcc/architecture/driver/accessor/flash.hpp **** #include <xpcc/io/iostream.hpp>
  36:/home/rene/xpcc/src/xpcc/architecture/driver/accessor/flash.hpp **** 
  37:/home/rene/xpcc/src/xpcc/architecture/driver/accessor/flash.hpp **** #include "flash_reader.hpp"
  38:/home/rene/xpcc/src/xpcc/architecture/driver/accessor/flash.hpp **** 
  39:/home/rene/xpcc/src/xpcc/architecture/driver/accessor/flash.hpp **** namespace xpcc
  40:/home/rene/xpcc/src/xpcc/architecture/driver/accessor/flash.hpp **** {
  41:/home/rene/xpcc/src/xpcc/architecture/driver/accessor/flash.hpp **** 	namespace accessor
  42:/home/rene/xpcc/src/xpcc/architecture/driver/accessor/flash.hpp **** 	{
  43:/home/rene/xpcc/src/xpcc/architecture/driver/accessor/flash.hpp **** 		/**
  44:/home/rene/xpcc/src/xpcc/architecture/driver/accessor/flash.hpp **** 		 * \brief	Pointer to flash memory
  45:/home/rene/xpcc/src/xpcc/architecture/driver/accessor/flash.hpp **** 		 * 
  46:/home/rene/xpcc/src/xpcc/architecture/driver/accessor/flash.hpp **** 		 * This template can mostly be used like a regular pointer, but operates
  47:/home/rene/xpcc/src/xpcc/architecture/driver/accessor/flash.hpp **** 		 * on the flash memory rather than RAM. It will automatically read the 
  48:/home/rene/xpcc/src/xpcc/architecture/driver/accessor/flash.hpp **** 		 * data from flash when dereferenced.
  49:/home/rene/xpcc/src/xpcc/architecture/driver/accessor/flash.hpp **** 		 * 
  50:/home/rene/xpcc/src/xpcc/architecture/driver/accessor/flash.hpp **** 		 * Based on a implementation of Rolf Magnus, see
  51:/home/rene/xpcc/src/xpcc/architecture/driver/accessor/flash.hpp **** 		 * http://www.mikrocontroller.net/topic/78610#656695
  52:/home/rene/xpcc/src/xpcc/architecture/driver/accessor/flash.hpp **** 		 * 
  53:/home/rene/xpcc/src/xpcc/architecture/driver/accessor/flash.hpp **** 		 * \ingroup	accessor
  54:/home/rene/xpcc/src/xpcc/architecture/driver/accessor/flash.hpp **** 		 * \author	Fabian Greif
  55:/home/rene/xpcc/src/xpcc/architecture/driver/accessor/flash.hpp **** 		 */
  56:/home/rene/xpcc/src/xpcc/architecture/driver/accessor/flash.hpp **** 		template<typename T>
  57:/home/rene/xpcc/src/xpcc/architecture/driver/accessor/flash.hpp **** 		class Flash
  58:/home/rene/xpcc/src/xpcc/architecture/driver/accessor/flash.hpp **** 		{
  59:/home/rene/xpcc/src/xpcc/architecture/driver/accessor/flash.hpp **** 		public:
  60:/home/rene/xpcc/src/xpcc/architecture/driver/accessor/flash.hpp **** 			ALWAYS_INLINE
  61:/home/rene/xpcc/src/xpcc/architecture/driver/accessor/flash.hpp **** 			explicit Flash(const T* addr = 0) :
  62:/home/rene/xpcc/src/xpcc/architecture/driver/accessor/flash.hpp **** 				address(addr)
  63:/home/rene/xpcc/src/xpcc/architecture/driver/accessor/flash.hpp **** 			{
  64:/home/rene/xpcc/src/xpcc/architecture/driver/accessor/flash.hpp **** 			}
  65:/home/rene/xpcc/src/xpcc/architecture/driver/accessor/flash.hpp **** 			
  66:/home/rene/xpcc/src/xpcc/architecture/driver/accessor/flash.hpp **** 			template <typename U>
  67:/home/rene/xpcc/src/xpcc/architecture/driver/accessor/flash.hpp **** 			ALWAYS_INLINE
  68:/home/rene/xpcc/src/xpcc/architecture/driver/accessor/flash.hpp **** 			explicit Flash(const Flash<U>& rhs) :
  69:/home/rene/xpcc/src/xpcc/architecture/driver/accessor/flash.hpp **** 				address((T*) rhs.address)
  70:/home/rene/xpcc/src/xpcc/architecture/driver/accessor/flash.hpp **** 			{
  71:/home/rene/xpcc/src/xpcc/architecture/driver/accessor/flash.hpp **** 			}
  72:/home/rene/xpcc/src/xpcc/architecture/driver/accessor/flash.hpp **** 			
  73:/home/rene/xpcc/src/xpcc/architecture/driver/accessor/flash.hpp **** 			ALWAYS_INLINE
  74:/home/rene/xpcc/src/xpcc/architecture/driver/accessor/flash.hpp **** 			const T
  75:/home/rene/xpcc/src/xpcc/architecture/driver/accessor/flash.hpp **** 			operator *() const
  76:/home/rene/xpcc/src/xpcc/architecture/driver/accessor/flash.hpp **** 			{
  77:/home/rene/xpcc/src/xpcc/architecture/driver/accessor/flash.hpp **** 				return FlashReader<T, sizeof(T)>::read(address);
  78:/home/rene/xpcc/src/xpcc/architecture/driver/accessor/flash.hpp **** 			}
  79:/home/rene/xpcc/src/xpcc/architecture/driver/accessor/flash.hpp **** 			
  80:/home/rene/xpcc/src/xpcc/architecture/driver/accessor/flash.hpp **** 			ALWAYS_INLINE
  81:/home/rene/xpcc/src/xpcc/architecture/driver/accessor/flash.hpp **** 			const T
  82:/home/rene/xpcc/src/xpcc/architecture/driver/accessor/flash.hpp **** 			operator [](size_t index) const
  83:/home/rene/xpcc/src/xpcc/architecture/driver/accessor/flash.hpp **** 			{
  84:/home/rene/xpcc/src/xpcc/architecture/driver/accessor/flash.hpp **** 				return FlashReader<T, sizeof(T)>::read(address + index);
  85:/home/rene/xpcc/src/xpcc/architecture/driver/accessor/flash.hpp **** 			}
  86:/home/rene/xpcc/src/xpcc/architecture/driver/accessor/flash.hpp **** 			
  87:/home/rene/xpcc/src/xpcc/architecture/driver/accessor/flash.hpp **** 			ALWAYS_INLINE
  88:/home/rene/xpcc/src/xpcc/architecture/driver/accessor/flash.hpp **** 			Flash&
  89:/home/rene/xpcc/src/xpcc/architecture/driver/accessor/flash.hpp **** 			operator++()
  90:/home/rene/xpcc/src/xpcc/architecture/driver/accessor/flash.hpp **** 			{
  91:/home/rene/xpcc/src/xpcc/architecture/driver/accessor/flash.hpp **** 				*this += 1;
  92:/home/rene/xpcc/src/xpcc/architecture/driver/accessor/flash.hpp **** 				return *this;
  93:/home/rene/xpcc/src/xpcc/architecture/driver/accessor/flash.hpp **** 			}
  94:/home/rene/xpcc/src/xpcc/architecture/driver/accessor/flash.hpp **** 
  95:/home/rene/xpcc/src/xpcc/architecture/driver/accessor/flash.hpp **** 			ALWAYS_INLINE
  96:/home/rene/xpcc/src/xpcc/architecture/driver/accessor/flash.hpp **** 			Flash
  97:/home/rene/xpcc/src/xpcc/architecture/driver/accessor/flash.hpp **** 			operator++(int)
  98:/home/rene/xpcc/src/xpcc/architecture/driver/accessor/flash.hpp **** 			{
  99:/home/rene/xpcc/src/xpcc/architecture/driver/accessor/flash.hpp **** 				Flash ret = *this;
 100:/home/rene/xpcc/src/xpcc/architecture/driver/accessor/flash.hpp **** 				++*this;
 101:/home/rene/xpcc/src/xpcc/architecture/driver/accessor/flash.hpp **** 				return ret;
 102:/home/rene/xpcc/src/xpcc/architecture/driver/accessor/flash.hpp **** 			}
 103:/home/rene/xpcc/src/xpcc/architecture/driver/accessor/flash.hpp **** 
 104:/home/rene/xpcc/src/xpcc/architecture/driver/accessor/flash.hpp **** 			ALWAYS_INLINE
 105:/home/rene/xpcc/src/xpcc/architecture/driver/accessor/flash.hpp **** 			Flash&
 106:/home/rene/xpcc/src/xpcc/architecture/driver/accessor/flash.hpp **** 			operator--()
 107:/home/rene/xpcc/src/xpcc/architecture/driver/accessor/flash.hpp **** 			{
 108:/home/rene/xpcc/src/xpcc/architecture/driver/accessor/flash.hpp **** 				*this -= 1;
 109:/home/rene/xpcc/src/xpcc/architecture/driver/accessor/flash.hpp **** 				return *this;
 110:/home/rene/xpcc/src/xpcc/architecture/driver/accessor/flash.hpp **** 			}
 111:/home/rene/xpcc/src/xpcc/architecture/driver/accessor/flash.hpp **** 
 112:/home/rene/xpcc/src/xpcc/architecture/driver/accessor/flash.hpp **** 			ALWAYS_INLINE
 113:/home/rene/xpcc/src/xpcc/architecture/driver/accessor/flash.hpp **** 			Flash&
 114:/home/rene/xpcc/src/xpcc/architecture/driver/accessor/flash.hpp **** 			operator--(int)
 115:/home/rene/xpcc/src/xpcc/architecture/driver/accessor/flash.hpp **** 			{
 116:/home/rene/xpcc/src/xpcc/architecture/driver/accessor/flash.hpp **** 				Flash ret = *this;
 117:/home/rene/xpcc/src/xpcc/architecture/driver/accessor/flash.hpp **** 				--*this;
 118:/home/rene/xpcc/src/xpcc/architecture/driver/accessor/flash.hpp **** 				return ret;
 119:/home/rene/xpcc/src/xpcc/architecture/driver/accessor/flash.hpp **** 			}
 120:/home/rene/xpcc/src/xpcc/architecture/driver/accessor/flash.hpp **** 			
 121:/home/rene/xpcc/src/xpcc/architecture/driver/accessor/flash.hpp **** 			ALWAYS_INLINE
 122:/home/rene/xpcc/src/xpcc/architecture/driver/accessor/flash.hpp **** 			Flash&
 123:/home/rene/xpcc/src/xpcc/architecture/driver/accessor/flash.hpp **** 			operator+=(size_t rhs)
 124:/home/rene/xpcc/src/xpcc/architecture/driver/accessor/flash.hpp **** 			{
 125:/home/rene/xpcc/src/xpcc/architecture/driver/accessor/flash.hpp **** 				address += rhs;
 140               		.loc 3 125 0 discriminator 1
 141 003c 8B01      		movw r16,r22	 ;  ptr$address, ptr$address
 142 003e 0F5F      		subi r16,-1	 ;  ptr$address,
 143 0040 1F4F      		sbci r17,-1	 ;  ptr$address,
 144               	.LVL10:
 145               	.LBE54:
 146               	.LBE53:
 147               	.LBE52:
 148               	.LBE51:
 149               	.LBE50:
 150               	.LBE49:
 151               	.LBB55:
 152               	.LBB56:
 153               	.LBB57:
 154               	.LBB58:
 155               		.file 4 "/home/rene/xpcc/src/xpcc/architecture/driver/accessor/flash_reader_avr_impl.hpp"
   1:/home/rene/xpcc/src/xpcc/architecture/driver/accessor/flash_reader_avr_impl.hpp **** // coding: utf-8
   2:/home/rene/xpcc/src/xpcc/architecture/driver/accessor/flash_reader_avr_impl.hpp **** // ----------------------------------------------------------------------------
   3:/home/rene/xpcc/src/xpcc/architecture/driver/accessor/flash_reader_avr_impl.hpp **** /* Copyright (c) 2009, Roboterclub Aachen e.V.
   4:/home/rene/xpcc/src/xpcc/architecture/driver/accessor/flash_reader_avr_impl.hpp ****  * All rights reserved.
   5:/home/rene/xpcc/src/xpcc/architecture/driver/accessor/flash_reader_avr_impl.hpp ****  *
   6:/home/rene/xpcc/src/xpcc/architecture/driver/accessor/flash_reader_avr_impl.hpp ****  * Redistribution and use in source and binary forms, with or without
   7:/home/rene/xpcc/src/xpcc/architecture/driver/accessor/flash_reader_avr_impl.hpp ****  * modification, are permitted provided that the following conditions are met:
   8:/home/rene/xpcc/src/xpcc/architecture/driver/accessor/flash_reader_avr_impl.hpp ****  *
   9:/home/rene/xpcc/src/xpcc/architecture/driver/accessor/flash_reader_avr_impl.hpp ****  *     * Redistributions of source code must retain the above copyright
  10:/home/rene/xpcc/src/xpcc/architecture/driver/accessor/flash_reader_avr_impl.hpp ****  *       notice, this list of conditions and the following disclaimer.
  11:/home/rene/xpcc/src/xpcc/architecture/driver/accessor/flash_reader_avr_impl.hpp ****  *     * Redistributions in binary form must reproduce the above copyright
  12:/home/rene/xpcc/src/xpcc/architecture/driver/accessor/flash_reader_avr_impl.hpp ****  *       notice, this list of conditions and the following disclaimer in the
  13:/home/rene/xpcc/src/xpcc/architecture/driver/accessor/flash_reader_avr_impl.hpp ****  *       documentation and/or other materials provided with the distribution.
  14:/home/rene/xpcc/src/xpcc/architecture/driver/accessor/flash_reader_avr_impl.hpp ****  *     * Neither the name of the Roboterclub Aachen e.V. nor the
  15:/home/rene/xpcc/src/xpcc/architecture/driver/accessor/flash_reader_avr_impl.hpp ****  *       names of its contributors may be used to endorse or promote products
  16:/home/rene/xpcc/src/xpcc/architecture/driver/accessor/flash_reader_avr_impl.hpp ****  *       derived from this software without specific prior written permission.
  17:/home/rene/xpcc/src/xpcc/architecture/driver/accessor/flash_reader_avr_impl.hpp ****  *
  18:/home/rene/xpcc/src/xpcc/architecture/driver/accessor/flash_reader_avr_impl.hpp ****  * THIS SOFTWARE IS PROVIDED BY ROBOTERCLUB AACHEN E.V. ''AS IS'' AND ANY
  19:/home/rene/xpcc/src/xpcc/architecture/driver/accessor/flash_reader_avr_impl.hpp ****  * EXPRESS OR IMPLIED WARRANTIES, INCLUDING, BUT NOT LIMITED TO, THE IMPLIED
  20:/home/rene/xpcc/src/xpcc/architecture/driver/accessor/flash_reader_avr_impl.hpp ****  * WARRANTIES OF MERCHANTABILITY AND FITNESS FOR A PARTICULAR PURPOSE ARE
  21:/home/rene/xpcc/src/xpcc/architecture/driver/accessor/flash_reader_avr_impl.hpp ****  * DISCLAIMED. IN NO EVENT SHALL ROBOTERCLUB AACHEN E.V. BE LIABLE FOR ANY
  22:/home/rene/xpcc/src/xpcc/architecture/driver/accessor/flash_reader_avr_impl.hpp ****  * DIRECT, INDIRECT, INCIDENTAL, SPECIAL, EXEMPLARY, OR CONSEQUENTIAL DAMAGES
  23:/home/rene/xpcc/src/xpcc/architecture/driver/accessor/flash_reader_avr_impl.hpp ****  * (INCLUDING, BUT NOT LIMITED TO, PROCUREMENT OF SUBSTITUTE GOODS OR SERVICES;
  24:/home/rene/xpcc/src/xpcc/architecture/driver/accessor/flash_reader_avr_impl.hpp ****  * LOSS OF USE, DATA, OR PROFITS; OR BUSINESS INTERRUPTION) HOWEVER CAUSED AND
  25:/home/rene/xpcc/src/xpcc/architecture/driver/accessor/flash_reader_avr_impl.hpp ****  * ON ANY THEORY OF LIABILITY, WHETHER IN CONTRACT, STRICT LIABILITY, OR TORT
  26:/home/rene/xpcc/src/xpcc/architecture/driver/accessor/flash_reader_avr_impl.hpp ****  * (INCLUDING NEGLIGENCE OR OTHERWISE) ARISING IN ANY WAY OUT OF THE USE OF
  27:/home/rene/xpcc/src/xpcc/architecture/driver/accessor/flash_reader_avr_impl.hpp ****  * THIS SOFTWARE, EVEN IF ADVISED OF THE POSSIBILITY OF SUCH DAMAGE.
  28:/home/rene/xpcc/src/xpcc/architecture/driver/accessor/flash_reader_avr_impl.hpp ****  */
  29:/home/rene/xpcc/src/xpcc/architecture/driver/accessor/flash_reader_avr_impl.hpp **** // ----------------------------------------------------------------------------
  30:/home/rene/xpcc/src/xpcc/architecture/driver/accessor/flash_reader_avr_impl.hpp **** 
  31:/home/rene/xpcc/src/xpcc/architecture/driver/accessor/flash_reader_avr_impl.hpp **** #ifndef	XPCC__FLASH_READER_HPP
  32:/home/rene/xpcc/src/xpcc/architecture/driver/accessor/flash_reader_avr_impl.hpp **** 	#error	"Don't include this file directly, use 'flash_reader.hpp' instead!"
  33:/home/rene/xpcc/src/xpcc/architecture/driver/accessor/flash_reader_avr_impl.hpp **** #endif
  34:/home/rene/xpcc/src/xpcc/architecture/driver/accessor/flash_reader_avr_impl.hpp **** 
  35:/home/rene/xpcc/src/xpcc/architecture/driver/accessor/flash_reader_avr_impl.hpp **** #include <cstddef>
  36:/home/rene/xpcc/src/xpcc/architecture/driver/accessor/flash_reader_avr_impl.hpp **** #include <avr/pgmspace.h>
  37:/home/rene/xpcc/src/xpcc/architecture/driver/accessor/flash_reader_avr_impl.hpp **** 
  38:/home/rene/xpcc/src/xpcc/architecture/driver/accessor/flash_reader_avr_impl.hpp **** #define	FLASH_STORAGE(var)				extern const var PROGMEM; const var
  39:/home/rene/xpcc/src/xpcc/architecture/driver/accessor/flash_reader_avr_impl.hpp **** #define	EXTERN_FLASH_STORAGE(var)		extern const var PROGMEM
  40:/home/rene/xpcc/src/xpcc/architecture/driver/accessor/flash_reader_avr_impl.hpp **** #define	FLASH_STORAGE_STRING(s)			extern const char s[] PROGMEM; const char s[]
  41:/home/rene/xpcc/src/xpcc/architecture/driver/accessor/flash_reader_avr_impl.hpp **** #define	EXTERN_FLASH_STORAGE_STRING(s)	extern const char s[] PROGMEM
  42:/home/rene/xpcc/src/xpcc/architecture/driver/accessor/flash_reader_avr_impl.hpp **** 
  43:/home/rene/xpcc/src/xpcc/architecture/driver/accessor/flash_reader_avr_impl.hpp **** namespace xpcc
  44:/home/rene/xpcc/src/xpcc/architecture/driver/accessor/flash_reader_avr_impl.hpp **** {
  45:/home/rene/xpcc/src/xpcc/architecture/driver/accessor/flash_reader_avr_impl.hpp **** 	template<typename T, std::size_t size>
  46:/home/rene/xpcc/src/xpcc/architecture/driver/accessor/flash_reader_avr_impl.hpp **** 	struct FlashReader
  47:/home/rene/xpcc/src/xpcc/architecture/driver/accessor/flash_reader_avr_impl.hpp **** 	{
  48:/home/rene/xpcc/src/xpcc/architecture/driver/accessor/flash_reader_avr_impl.hpp **** 		ALWAYS_INLINE
  49:/home/rene/xpcc/src/xpcc/architecture/driver/accessor/flash_reader_avr_impl.hpp **** 		static T
  50:/home/rene/xpcc/src/xpcc/architecture/driver/accessor/flash_reader_avr_impl.hpp **** 		read(const void* p)
  51:/home/rene/xpcc/src/xpcc/architecture/driver/accessor/flash_reader_avr_impl.hpp **** 		{
  52:/home/rene/xpcc/src/xpcc/architecture/driver/accessor/flash_reader_avr_impl.hpp **** 			T retval;
  53:/home/rene/xpcc/src/xpcc/architecture/driver/accessor/flash_reader_avr_impl.hpp **** 			memcpy_P(reinterpret_cast<void *>(&retval), p, size);
  54:/home/rene/xpcc/src/xpcc/architecture/driver/accessor/flash_reader_avr_impl.hpp **** 			return retval;
  55:/home/rene/xpcc/src/xpcc/architecture/driver/accessor/flash_reader_avr_impl.hpp **** 		}
  56:/home/rene/xpcc/src/xpcc/architecture/driver/accessor/flash_reader_avr_impl.hpp **** 	};
  57:/home/rene/xpcc/src/xpcc/architecture/driver/accessor/flash_reader_avr_impl.hpp **** 	
  58:/home/rene/xpcc/src/xpcc/architecture/driver/accessor/flash_reader_avr_impl.hpp **** 	template<typename T>
  59:/home/rene/xpcc/src/xpcc/architecture/driver/accessor/flash_reader_avr_impl.hpp **** 	struct FlashReader<T, 1>
  60:/home/rene/xpcc/src/xpcc/architecture/driver/accessor/flash_reader_avr_impl.hpp **** 	{
  61:/home/rene/xpcc/src/xpcc/architecture/driver/accessor/flash_reader_avr_impl.hpp **** 		ALWAYS_INLINE
  62:/home/rene/xpcc/src/xpcc/architecture/driver/accessor/flash_reader_avr_impl.hpp **** 		static T
  63:/home/rene/xpcc/src/xpcc/architecture/driver/accessor/flash_reader_avr_impl.hpp **** 		read(const void* p)
  64:/home/rene/xpcc/src/xpcc/architecture/driver/accessor/flash_reader_avr_impl.hpp **** 		{
  65:/home/rene/xpcc/src/xpcc/architecture/driver/accessor/flash_reader_avr_impl.hpp **** 			union {
  66:/home/rene/xpcc/src/xpcc/architecture/driver/accessor/flash_reader_avr_impl.hpp **** 				uint8_t in;
  67:/home/rene/xpcc/src/xpcc/architecture/driver/accessor/flash_reader_avr_impl.hpp **** 				T out;
  68:/home/rene/xpcc/src/xpcc/architecture/driver/accessor/flash_reader_avr_impl.hpp **** 			} convert;
  69:/home/rene/xpcc/src/xpcc/architecture/driver/accessor/flash_reader_avr_impl.hpp **** 			
  70:/home/rene/xpcc/src/xpcc/architecture/driver/accessor/flash_reader_avr_impl.hpp **** 			convert.in = pgm_read_byte(p);
 156               		.loc 4 70 0 discriminator 1
 157 0042 FB01      		movw r30,r22	 ; , ptr$address
 158               	/* #APP */
 159               	 ;  70 "/home/rene/xpcc/src/xpcc/architecture/driver/accessor/flash_reader_avr_impl.hpp" 1
 160 0044 6491      		lpm r22, Z	 ;  c
 161               		
 162               	 ;  0 "" 2
 163               	.LVL11:
 164               	/* #NOAPP */
 165               	.LBE58:
 166               	.LBE57:
 167               	.LBE56:
 168               	.LBE55:
 169               		.loc 1 38 0 discriminator 1
 170 0046 6111      		cpse r22,__zero_reg__	 ;  c,
 171 0048 00C0      		rjmp .L6	 ; 
 172               	.LBE59:
  39:/home/rene/xpcc/src/xpcc/architecture/driver/accessor/flash.cpp **** 		os << c;
  40:/home/rene/xpcc/src/xpcc/architecture/driver/accessor/flash.cpp **** 	}
  41:/home/rene/xpcc/src/xpcc/architecture/driver/accessor/flash.cpp **** 	return os;
  42:/home/rene/xpcc/src/xpcc/architecture/driver/accessor/flash.cpp **** }
 173               		.loc 1 42 0
 174 004a CE01      		movw r24,r28	 ; , os
 175               	/* epilogue start */
 176 004c DF91      		pop r29	 ; 
 177 004e CF91      		pop r28	 ; 
 178               	.LVL12:
 179 0050 1F91      		pop r17	 ; 
 180 0052 0F91      		pop r16	 ; 
 181               	.LVL13:
 182 0054 0895      		ret
 183               	.LFE60:
 235               	.Letext0:
 236               		.file 5 "/usr/lib/gcc/avr/4.7.2/../../../avr/include/stdint.h"
 237               		.file 6 "/home/rene/xpcc/src/xpcc/io/iodevice.hpp"
 238               		.file 7 "/usr/lib/gcc/avr/4.7.2/include/stddef.h"
 239               		.file 8 "/home/rene/xpcc/src/stdc++/cstddef"
 240               		.file 9 "<built-in>"
DEFINED SYMBOLS
                            *ABS*:0000000000000000 flash.cpp
     /tmp/ccIRI5u6.s:2      *ABS*:000000000000003e __SP_H__
     /tmp/ccIRI5u6.s:3      *ABS*:000000000000003d __SP_L__
     /tmp/ccIRI5u6.s:4      *ABS*:000000000000003f __SREG__
     /tmp/ccIRI5u6.s:5      *ABS*:0000000000000034 __CCP__
     /tmp/ccIRI5u6.s:6      *ABS*:0000000000000000 __tmp_reg__
     /tmp/ccIRI5u6.s:7      *ABS*:0000000000000001 __zero_reg__
     /tmp/ccIRI5u6.s:63     .text._ZlsRN4xpcc8IOStreamENS_8accessor5FlashIcEE:0000000000000000 _ZlsRN4xpcc8IOStreamENS_8accessor5FlashIcEE

UNDEFINED SYMBOLS
_ZN4xpcc8IOStream8writeBinEh
_ZN4xpcc8IOStream8writeHexEh
