   1               		.file	"can_lawicel_formatter.cpp"
   2               	__SP_H__ = 0x3e
   3               	__SP_L__ = 0x3d
   4               	__SREG__ = 0x3f
   5               	__CCP__ = 0x34
   6               	__tmp_reg__ = 0
   7               	__zero_reg__ = 1
   8               	 ;  GNU C++ (GCC) version 4.7.2 (avr)
   9               	 ; 	compiled by GNU C version 4.7.2, GMP version 5.0.5, MPFR version 3.1.0-p10, MPC version 0.9
  10               	 ;  warning: GMP header version 5.0.5 differs from library version 5.1.2.
  11               	 ;  warning: MPFR header version 3.1.0-p10 differs from library version 3.1.1-p2.
  12               	 ;  GGC heuristics: --param ggc-min-expand=100 --param ggc-min-heapsize=131072
  13               	 ;  options passed:  -I /home/rene/xpcc/src/stdc++ -I /home/rene/xpcc/src
  14               	 ;  -I /home/rene/xpcc/ext -I build/libxpcc -imultilib avrxmega2
  15               	 ;  -D BASENAME=can_lawicel_formatter.cpp -D F_CPU=16000000ul
  16               	 ;  /home/rene/xpcc/src/xpcc/driver/connectivity/can/can_lawicel_formatter/can_lawicel_formatter.cp
  17               	 ;  -mmcu=atxmega32a4
  18               	 ;  -auxbase-strip build/libxpcc/src/xpcc/driver/connectivity/can/can_lawicel_formatter/can_lawicel
  19               	 ;  -gdwarf-2 -Os -Woverloaded-virtual -Wall -Wextra -Wundef -std=gnu++11
  20               	 ;  -fno-threadsafe-statics -fuse-cxa-atexit -funsigned-char
  21               	 ;  -funsigned-bitfields -fshort-enums -ffunction-sections -fdata-sections
  22               	 ;  -fno-split-wide-types -fno-move-loop-invariants -fno-tree-loop-optimize
  23               	 ;  -finline-limit=10000 -fverbose-asm -fno-rtti -fno-enforce-eh-specs
  24               	 ;  -fno-exceptions
  25               	 ;  options enabled:  -fauto-inc-dec -fbranch-count-reg -fcaller-saves
  26               	 ;  -fcombine-stack-adjustments -fcommon -fcompare-elim -fcprop-registers
  27               	 ;  -fcrossjumping -fcse-follow-jumps -fdata-sections -fdebug-types-section
  28               	 ;  -fdefer-pop -fdevirtualize -fearly-inlining
  29               	 ;  -feliminate-unused-debug-types -fexpensive-optimizations
  30               	 ;  -fforward-propagate -ffunction-cse -ffunction-sections -fgcse -fgcse-lm
  31               	 ;  -fgnu-runtime -fguess-branch-probability -fident -fif-conversion
  32               	 ;  -fif-conversion2 -findirect-inlining -finline -finline-atomics
  33               	 ;  -finline-functions -finline-functions-called-once
  34               	 ;  -finline-small-functions -fipa-cp -fipa-profile -fipa-pure-const
  35               	 ;  -fipa-reference -fipa-sra -fira-share-save-slots
  36               	 ;  -fira-share-spill-slots -fivopts -fkeep-static-consts
  37               	 ;  -fleading-underscore -fmath-errno -fmerge-constants
  38               	 ;  -fmerge-debug-strings -fomit-frame-pointer -foptimize-register-move
  39               	 ;  -foptimize-sibling-calls -fpartial-inlining -fpeephole -fpeephole2
  40               	 ;  -fprefetch-loop-arrays -freg-struct-return -fregmove -freorder-blocks
  41               	 ;  -freorder-functions -frerun-cse-after-loop
  42               	 ;  -fsched-critical-path-heuristic -fsched-dep-count-heuristic
  43               	 ;  -fsched-group-heuristic -fsched-interblock -fsched-last-insn-heuristic
  44               	 ;  -fsched-rank-heuristic -fsched-spec -fsched-spec-insn-heuristic
  45               	 ;  -fsched-stalled-insns-dep -fshow-column -fshrink-wrap -fsigned-zeros
  46               	 ;  -fsplit-ivs-in-unroller -fstrict-aliasing -fstrict-overflow
  47               	 ;  -fstrict-volatile-bitfields -fthread-jumps -ftoplevel-reorder
  48               	 ;  -ftrapping-math -ftree-bit-ccp -ftree-builtin-call-dce -ftree-ccp
  49               	 ;  -ftree-ch -ftree-copy-prop -ftree-copyrename -ftree-dce
  50               	 ;  -ftree-dominator-opts -ftree-dse -ftree-forwprop -ftree-fre
  51               	 ;  -ftree-loop-if-convert -ftree-loop-im -ftree-loop-ivcanon
  52               	 ;  -ftree-parallelize-loops= -ftree-phiprop -ftree-pre -ftree-pta
  53               	 ;  -ftree-reassoc -ftree-scev-cprop -ftree-sink -ftree-slp-vectorize
  54               	 ;  -ftree-sra -ftree-switch-conversion -ftree-tail-merge -ftree-ter
  55               	 ;  -ftree-vect-loop-version -ftree-vrp -funit-at-a-time -fvar-tracking
  56               	 ;  -fvar-tracking-assignments -fverbose-asm -fzero-initialized-in-bss
  57               	
  58               		.text
  59               	.Ltext0:
  60               		.section	.text._ZN4xpcc19CanLawicelFormatter10charToByteEPKc,"ax",@progbits
  61               	.global	_ZN4xpcc19CanLawicelFormatter10charToByteEPKc
  63               	_ZN4xpcc19CanLawicelFormatter10charToByteEPKc:
  64               	.LFB15:
  65               		.file 1 "/home/rene/xpcc/src/xpcc/driver/connectivity/can/can_lawicel_formatter/can_lawicel_format
   1:/home/rene/xpcc/src/xpcc/driver/connectivity/can/can_lawicel_formatter/can_lawicel_formatter.cpp **** // coding: utf-8
   2:/home/rene/xpcc/src/xpcc/driver/connectivity/can/can_lawicel_formatter/can_lawicel_formatter.cpp **** // ----------------------------------------------------------------------------
   3:/home/rene/xpcc/src/xpcc/driver/connectivity/can/can_lawicel_formatter/can_lawicel_formatter.cpp **** /* Copyright (c) 2011, Roboterclub Aachen e.V.
   4:/home/rene/xpcc/src/xpcc/driver/connectivity/can/can_lawicel_formatter/can_lawicel_formatter.cpp ****  * All rights reserved.
   5:/home/rene/xpcc/src/xpcc/driver/connectivity/can/can_lawicel_formatter/can_lawicel_formatter.cpp ****  * 
   6:/home/rene/xpcc/src/xpcc/driver/connectivity/can/can_lawicel_formatter/can_lawicel_formatter.cpp ****  * Redistribution and use in source and binary forms, with or without
   7:/home/rene/xpcc/src/xpcc/driver/connectivity/can/can_lawicel_formatter/can_lawicel_formatter.cpp ****  * modification, are permitted provided that the following conditions are met:
   8:/home/rene/xpcc/src/xpcc/driver/connectivity/can/can_lawicel_formatter/can_lawicel_formatter.cpp ****  * 
   9:/home/rene/xpcc/src/xpcc/driver/connectivity/can/can_lawicel_formatter/can_lawicel_formatter.cpp ****  *     * Redistributions of source code must retain the above copyright
  10:/home/rene/xpcc/src/xpcc/driver/connectivity/can/can_lawicel_formatter/can_lawicel_formatter.cpp ****  *       notice, this list of conditions and the following disclaimer.
  11:/home/rene/xpcc/src/xpcc/driver/connectivity/can/can_lawicel_formatter/can_lawicel_formatter.cpp ****  *     * Redistributions in binary form must reproduce the above copyright
  12:/home/rene/xpcc/src/xpcc/driver/connectivity/can/can_lawicel_formatter/can_lawicel_formatter.cpp ****  *       notice, this list of conditions and the following disclaimer in the
  13:/home/rene/xpcc/src/xpcc/driver/connectivity/can/can_lawicel_formatter/can_lawicel_formatter.cpp ****  *       documentation and/or other materials provided with the distribution.
  14:/home/rene/xpcc/src/xpcc/driver/connectivity/can/can_lawicel_formatter/can_lawicel_formatter.cpp ****  *     * Neither the name of the Roboterclub Aachen e.V. nor the
  15:/home/rene/xpcc/src/xpcc/driver/connectivity/can/can_lawicel_formatter/can_lawicel_formatter.cpp ****  *       names of its contributors may be used to endorse or promote products
  16:/home/rene/xpcc/src/xpcc/driver/connectivity/can/can_lawicel_formatter/can_lawicel_formatter.cpp ****  *       derived from this software without specific prior written permission.
  17:/home/rene/xpcc/src/xpcc/driver/connectivity/can/can_lawicel_formatter/can_lawicel_formatter.cpp ****  * 
  18:/home/rene/xpcc/src/xpcc/driver/connectivity/can/can_lawicel_formatter/can_lawicel_formatter.cpp ****  * THIS SOFTWARE IS PROVIDED BY ROBOTERCLUB AACHEN E.V. ''AS IS'' AND ANY
  19:/home/rene/xpcc/src/xpcc/driver/connectivity/can/can_lawicel_formatter/can_lawicel_formatter.cpp ****  * EXPRESS OR IMPLIED WARRANTIES, INCLUDING, BUT NOT LIMITED TO, THE IMPLIED
  20:/home/rene/xpcc/src/xpcc/driver/connectivity/can/can_lawicel_formatter/can_lawicel_formatter.cpp ****  * WARRANTIES OF MERCHANTABILITY AND FITNESS FOR A PARTICULAR PURPOSE ARE
  21:/home/rene/xpcc/src/xpcc/driver/connectivity/can/can_lawicel_formatter/can_lawicel_formatter.cpp ****  * DISCLAIMED. IN NO EVENT SHALL ROBOTERCLUB AACHEN E.V. BE LIABLE FOR ANY
  22:/home/rene/xpcc/src/xpcc/driver/connectivity/can/can_lawicel_formatter/can_lawicel_formatter.cpp ****  * DIRECT, INDIRECT, INCIDENTAL, SPECIAL, EXEMPLARY, OR CONSEQUENTIAL DAMAGES
  23:/home/rene/xpcc/src/xpcc/driver/connectivity/can/can_lawicel_formatter/can_lawicel_formatter.cpp ****  * (INCLUDING, BUT NOT LIMITED TO, PROCUREMENT OF SUBSTITUTE GOODS OR SERVICES;
  24:/home/rene/xpcc/src/xpcc/driver/connectivity/can/can_lawicel_formatter/can_lawicel_formatter.cpp ****  * LOSS OF USE, DATA, OR PROFITS; OR BUSINESS INTERRUPTION) HOWEVER CAUSED AND
  25:/home/rene/xpcc/src/xpcc/driver/connectivity/can/can_lawicel_formatter/can_lawicel_formatter.cpp ****  * ON ANY THEORY OF LIABILITY, WHETHER IN CONTRACT, STRICT LIABILITY, OR TORT
  26:/home/rene/xpcc/src/xpcc/driver/connectivity/can/can_lawicel_formatter/can_lawicel_formatter.cpp ****  * (INCLUDING NEGLIGENCE OR OTHERWISE) ARISING IN ANY WAY OUT OF THE USE OF
  27:/home/rene/xpcc/src/xpcc/driver/connectivity/can/can_lawicel_formatter/can_lawicel_formatter.cpp ****  * THIS SOFTWARE, EVEN IF ADVISED OF THE POSSIBILITY OF SUCH DAMAGE.
  28:/home/rene/xpcc/src/xpcc/driver/connectivity/can/can_lawicel_formatter/can_lawicel_formatter.cpp ****  */
  29:/home/rene/xpcc/src/xpcc/driver/connectivity/can/can_lawicel_formatter/can_lawicel_formatter.cpp **** // ----------------------------------------------------------------------------
  30:/home/rene/xpcc/src/xpcc/driver/connectivity/can/can_lawicel_formatter/can_lawicel_formatter.cpp **** 
  31:/home/rene/xpcc/src/xpcc/driver/connectivity/can/can_lawicel_formatter/can_lawicel_formatter.cpp **** #include "can_lawicel_formatter.hpp"
  32:/home/rene/xpcc/src/xpcc/driver/connectivity/can/can_lawicel_formatter/can_lawicel_formatter.cpp **** 
  33:/home/rene/xpcc/src/xpcc/driver/connectivity/can/can_lawicel_formatter/can_lawicel_formatter.cpp **** #include <stdint.h>
  34:/home/rene/xpcc/src/xpcc/driver/connectivity/can/can_lawicel_formatter/can_lawicel_formatter.cpp **** #include <cstring>
  35:/home/rene/xpcc/src/xpcc/driver/connectivity/can/can_lawicel_formatter/can_lawicel_formatter.cpp **** 
  36:/home/rene/xpcc/src/xpcc/driver/connectivity/can/can_lawicel_formatter/can_lawicel_formatter.cpp **** 
  37:/home/rene/xpcc/src/xpcc/driver/connectivity/can/can_lawicel_formatter/can_lawicel_formatter.cpp **** bool
  38:/home/rene/xpcc/src/xpcc/driver/connectivity/can/can_lawicel_formatter/can_lawicel_formatter.cpp **** xpcc::CanLawicelFormatter::convertToCanMessage(const char* in,can::Message& out)
  39:/home/rene/xpcc/src/xpcc/driver/connectivity/can/can_lawicel_formatter/can_lawicel_formatter.cpp **** {
  40:/home/rene/xpcc/src/xpcc/driver/connectivity/can/can_lawicel_formatter/can_lawicel_formatter.cpp **** 	uint8_t dlc_pos;
  41:/home/rene/xpcc/src/xpcc/driver/connectivity/can/can_lawicel_formatter/can_lawicel_formatter.cpp **** 
  42:/home/rene/xpcc/src/xpcc/driver/connectivity/can/can_lawicel_formatter/can_lawicel_formatter.cpp **** 	if (in[0] == 'R' || in[0] == 'T') {
  43:/home/rene/xpcc/src/xpcc/driver/connectivity/can/can_lawicel_formatter/can_lawicel_formatter.cpp **** 		out.flags.extended = true;
  44:/home/rene/xpcc/src/xpcc/driver/connectivity/can/can_lawicel_formatter/can_lawicel_formatter.cpp **** 		dlc_pos = 9;
  45:/home/rene/xpcc/src/xpcc/driver/connectivity/can/can_lawicel_formatter/can_lawicel_formatter.cpp **** 	}
  46:/home/rene/xpcc/src/xpcc/driver/connectivity/can/can_lawicel_formatter/can_lawicel_formatter.cpp **** 	else {
  47:/home/rene/xpcc/src/xpcc/driver/connectivity/can/can_lawicel_formatter/can_lawicel_formatter.cpp **** 		out.flags.extended = false;
  48:/home/rene/xpcc/src/xpcc/driver/connectivity/can/can_lawicel_formatter/can_lawicel_formatter.cpp **** 		dlc_pos = 4;
  49:/home/rene/xpcc/src/xpcc/driver/connectivity/can/can_lawicel_formatter/can_lawicel_formatter.cpp **** 	}
  50:/home/rene/xpcc/src/xpcc/driver/connectivity/can/can_lawicel_formatter/can_lawicel_formatter.cpp **** 
  51:/home/rene/xpcc/src/xpcc/driver/connectivity/can/can_lawicel_formatter/can_lawicel_formatter.cpp **** 	if (std::strlen(in) < dlc_pos + 1U)
  52:/home/rene/xpcc/src/xpcc/driver/connectivity/can/can_lawicel_formatter/can_lawicel_formatter.cpp **** 		return false;
  53:/home/rene/xpcc/src/xpcc/driver/connectivity/can/can_lawicel_formatter/can_lawicel_formatter.cpp **** 
  54:/home/rene/xpcc/src/xpcc/driver/connectivity/can/can_lawicel_formatter/can_lawicel_formatter.cpp **** 	// get the number of data-bytes for this message
  55:/home/rene/xpcc/src/xpcc/driver/connectivity/can/can_lawicel_formatter/can_lawicel_formatter.cpp **** 	out.length = in[dlc_pos] - '0';
  56:/home/rene/xpcc/src/xpcc/driver/connectivity/can/can_lawicel_formatter/can_lawicel_formatter.cpp **** 	if (out.length > 8)
  57:/home/rene/xpcc/src/xpcc/driver/connectivity/can/can_lawicel_formatter/can_lawicel_formatter.cpp **** 		return false;		// too many data-bytes
  58:/home/rene/xpcc/src/xpcc/driver/connectivity/can/can_lawicel_formatter/can_lawicel_formatter.cpp **** 
  59:/home/rene/xpcc/src/xpcc/driver/connectivity/can/can_lawicel_formatter/can_lawicel_formatter.cpp **** 	if (in[0] == 'r' || in[0] == 'R') {
  60:/home/rene/xpcc/src/xpcc/driver/connectivity/can/can_lawicel_formatter/can_lawicel_formatter.cpp **** 		out.flags.rtr = true;
  61:/home/rene/xpcc/src/xpcc/driver/connectivity/can/can_lawicel_formatter/can_lawicel_formatter.cpp **** 		if (std::strlen(in) != (dlc_pos + 1U))
  62:/home/rene/xpcc/src/xpcc/driver/connectivity/can/can_lawicel_formatter/can_lawicel_formatter.cpp **** 			return false;
  63:/home/rene/xpcc/src/xpcc/driver/connectivity/can/can_lawicel_formatter/can_lawicel_formatter.cpp **** 	}
  64:/home/rene/xpcc/src/xpcc/driver/connectivity/can/can_lawicel_formatter/can_lawicel_formatter.cpp **** 	else {
  65:/home/rene/xpcc/src/xpcc/driver/connectivity/can/can_lawicel_formatter/can_lawicel_formatter.cpp **** 		out.flags.rtr = false;
  66:/home/rene/xpcc/src/xpcc/driver/connectivity/can/can_lawicel_formatter/can_lawicel_formatter.cpp **** 		if (std::strlen(in) != (out.length * 2 + dlc_pos + 1U))
  67:/home/rene/xpcc/src/xpcc/driver/connectivity/can/can_lawicel_formatter/can_lawicel_formatter.cpp **** 			return false;
  68:/home/rene/xpcc/src/xpcc/driver/connectivity/can/can_lawicel_formatter/can_lawicel_formatter.cpp **** 	}
  69:/home/rene/xpcc/src/xpcc/driver/connectivity/can/can_lawicel_formatter/can_lawicel_formatter.cpp **** 
  70:/home/rene/xpcc/src/xpcc/driver/connectivity/can/can_lawicel_formatter/can_lawicel_formatter.cpp **** 	// read the messge-identifier
  71:/home/rene/xpcc/src/xpcc/driver/connectivity/can/can_lawicel_formatter/can_lawicel_formatter.cpp **** 	if (out.flags.extended)
  72:/home/rene/xpcc/src/xpcc/driver/connectivity/can/can_lawicel_formatter/can_lawicel_formatter.cpp **** 	{
  73:/home/rene/xpcc/src/xpcc/driver/connectivity/can/can_lawicel_formatter/can_lawicel_formatter.cpp **** 		uint16_t id;
  74:/home/rene/xpcc/src/xpcc/driver/connectivity/can/can_lawicel_formatter/can_lawicel_formatter.cpp **** 		uint16_t id2;
  75:/home/rene/xpcc/src/xpcc/driver/connectivity/can/can_lawicel_formatter/can_lawicel_formatter.cpp **** 
  76:/home/rene/xpcc/src/xpcc/driver/connectivity/can/can_lawicel_formatter/can_lawicel_formatter.cpp **** 		id  = hexToByte(&in[1]) << 8;
  77:/home/rene/xpcc/src/xpcc/driver/connectivity/can/can_lawicel_formatter/can_lawicel_formatter.cpp **** 		id |= hexToByte(&in[3]);
  78:/home/rene/xpcc/src/xpcc/driver/connectivity/can/can_lawicel_formatter/can_lawicel_formatter.cpp **** 
  79:/home/rene/xpcc/src/xpcc/driver/connectivity/can/can_lawicel_formatter/can_lawicel_formatter.cpp **** 		id2  = hexToByte(&in[5]) << 8;
  80:/home/rene/xpcc/src/xpcc/driver/connectivity/can/can_lawicel_formatter/can_lawicel_formatter.cpp **** 		id2 |= hexToByte(&in[7]);
  81:/home/rene/xpcc/src/xpcc/driver/connectivity/can/can_lawicel_formatter/can_lawicel_formatter.cpp **** 
  82:/home/rene/xpcc/src/xpcc/driver/connectivity/can/can_lawicel_formatter/can_lawicel_formatter.cpp **** 		out.identifier = (uint32_t) id << 16 | id2;
  83:/home/rene/xpcc/src/xpcc/driver/connectivity/can/can_lawicel_formatter/can_lawicel_formatter.cpp **** 	}
  84:/home/rene/xpcc/src/xpcc/driver/connectivity/can/can_lawicel_formatter/can_lawicel_formatter.cpp **** 	else {
  85:/home/rene/xpcc/src/xpcc/driver/connectivity/can/can_lawicel_formatter/can_lawicel_formatter.cpp **** 		uint16_t id;
  86:/home/rene/xpcc/src/xpcc/driver/connectivity/can/can_lawicel_formatter/can_lawicel_formatter.cpp **** 
  87:/home/rene/xpcc/src/xpcc/driver/connectivity/can/can_lawicel_formatter/can_lawicel_formatter.cpp **** 		id  = charToByte(&in[1]) << 8;
  88:/home/rene/xpcc/src/xpcc/driver/connectivity/can/can_lawicel_formatter/can_lawicel_formatter.cpp **** 		id |= hexToByte(&in[2]);
  89:/home/rene/xpcc/src/xpcc/driver/connectivity/can/can_lawicel_formatter/can_lawicel_formatter.cpp **** 
  90:/home/rene/xpcc/src/xpcc/driver/connectivity/can/can_lawicel_formatter/can_lawicel_formatter.cpp **** 		out.identifier = id;
  91:/home/rene/xpcc/src/xpcc/driver/connectivity/can/can_lawicel_formatter/can_lawicel_formatter.cpp **** 	}
  92:/home/rene/xpcc/src/xpcc/driver/connectivity/can/can_lawicel_formatter/can_lawicel_formatter.cpp **** 
  93:/home/rene/xpcc/src/xpcc/driver/connectivity/can/can_lawicel_formatter/can_lawicel_formatter.cpp **** 	// read data if the message is no rtr-frame
  94:/home/rene/xpcc/src/xpcc/driver/connectivity/can/can_lawicel_formatter/can_lawicel_formatter.cpp **** 	if (!out.flags.rtr)
  95:/home/rene/xpcc/src/xpcc/driver/connectivity/can/can_lawicel_formatter/can_lawicel_formatter.cpp **** 	{
  96:/home/rene/xpcc/src/xpcc/driver/connectivity/can/can_lawicel_formatter/can_lawicel_formatter.cpp **** 		const char *buf = &in[dlc_pos + 1];
  97:/home/rene/xpcc/src/xpcc/driver/connectivity/can/can_lawicel_formatter/can_lawicel_formatter.cpp **** 		uint8_t i;
  98:/home/rene/xpcc/src/xpcc/driver/connectivity/can/can_lawicel_formatter/can_lawicel_formatter.cpp **** 
  99:/home/rene/xpcc/src/xpcc/driver/connectivity/can/can_lawicel_formatter/can_lawicel_formatter.cpp **** 		for (i=0; i < out.length; i++)
 100:/home/rene/xpcc/src/xpcc/driver/connectivity/can/can_lawicel_formatter/can_lawicel_formatter.cpp **** 		{
 101:/home/rene/xpcc/src/xpcc/driver/connectivity/can/can_lawicel_formatter/can_lawicel_formatter.cpp **** 			out.data[i] = hexToByte(buf);
 102:/home/rene/xpcc/src/xpcc/driver/connectivity/can/can_lawicel_formatter/can_lawicel_formatter.cpp **** 			buf += 2;
 103:/home/rene/xpcc/src/xpcc/driver/connectivity/can/can_lawicel_formatter/can_lawicel_formatter.cpp **** 		}
 104:/home/rene/xpcc/src/xpcc/driver/connectivity/can/can_lawicel_formatter/can_lawicel_formatter.cpp **** 	}
 105:/home/rene/xpcc/src/xpcc/driver/connectivity/can/can_lawicel_formatter/can_lawicel_formatter.cpp **** 	return true;
 106:/home/rene/xpcc/src/xpcc/driver/connectivity/can/can_lawicel_formatter/can_lawicel_formatter.cpp **** }
 107:/home/rene/xpcc/src/xpcc/driver/connectivity/can/can_lawicel_formatter/can_lawicel_formatter.cpp **** 
 108:/home/rene/xpcc/src/xpcc/driver/connectivity/can/can_lawicel_formatter/can_lawicel_formatter.cpp **** 
 109:/home/rene/xpcc/src/xpcc/driver/connectivity/can/can_lawicel_formatter/can_lawicel_formatter.cpp **** bool
 110:/home/rene/xpcc/src/xpcc/driver/connectivity/can/can_lawicel_formatter/can_lawicel_formatter.cpp **** xpcc::CanLawicelFormatter::convertToString(const can::Message& in, char* out)
 111:/home/rene/xpcc/src/xpcc/driver/connectivity/can/can_lawicel_formatter/can_lawicel_formatter.cpp **** {
 112:/home/rene/xpcc/src/xpcc/driver/connectivity/can/can_lawicel_formatter/can_lawicel_formatter.cpp **** 	if(in.flags.extended){
 113:/home/rene/xpcc/src/xpcc/driver/connectivity/can/can_lawicel_formatter/can_lawicel_formatter.cpp **** 		if(in.flags.rtr){
 114:/home/rene/xpcc/src/xpcc/driver/connectivity/can/can_lawicel_formatter/can_lawicel_formatter.cpp **** 			out[0]='R';
 115:/home/rene/xpcc/src/xpcc/driver/connectivity/can/can_lawicel_formatter/can_lawicel_formatter.cpp **** 		}
 116:/home/rene/xpcc/src/xpcc/driver/connectivity/can/can_lawicel_formatter/can_lawicel_formatter.cpp **** 		else{
 117:/home/rene/xpcc/src/xpcc/driver/connectivity/can/can_lawicel_formatter/can_lawicel_formatter.cpp **** 			out[0]='T';
 118:/home/rene/xpcc/src/xpcc/driver/connectivity/can/can_lawicel_formatter/can_lawicel_formatter.cpp **** 		}
 119:/home/rene/xpcc/src/xpcc/driver/connectivity/can/can_lawicel_formatter/can_lawicel_formatter.cpp **** 	}
 120:/home/rene/xpcc/src/xpcc/driver/connectivity/can/can_lawicel_formatter/can_lawicel_formatter.cpp **** 	else{
 121:/home/rene/xpcc/src/xpcc/driver/connectivity/can/can_lawicel_formatter/can_lawicel_formatter.cpp **** 		if(in.flags.rtr){
 122:/home/rene/xpcc/src/xpcc/driver/connectivity/can/can_lawicel_formatter/can_lawicel_formatter.cpp **** 			out[0]='r';
 123:/home/rene/xpcc/src/xpcc/driver/connectivity/can/can_lawicel_formatter/can_lawicel_formatter.cpp **** 		}
 124:/home/rene/xpcc/src/xpcc/driver/connectivity/can/can_lawicel_formatter/can_lawicel_formatter.cpp **** 		else{
 125:/home/rene/xpcc/src/xpcc/driver/connectivity/can/can_lawicel_formatter/can_lawicel_formatter.cpp **** 			out[0]='t';
 126:/home/rene/xpcc/src/xpcc/driver/connectivity/can/can_lawicel_formatter/can_lawicel_formatter.cpp **** 		}
 127:/home/rene/xpcc/src/xpcc/driver/connectivity/can/can_lawicel_formatter/can_lawicel_formatter.cpp **** 	}
 128:/home/rene/xpcc/src/xpcc/driver/connectivity/can/can_lawicel_formatter/can_lawicel_formatter.cpp **** 
 129:/home/rene/xpcc/src/xpcc/driver/connectivity/can/can_lawicel_formatter/can_lawicel_formatter.cpp **** 	const uint8_t* ptr=reinterpret_cast<const uint8_t*>(&in.identifier);
 130:/home/rene/xpcc/src/xpcc/driver/connectivity/can/can_lawicel_formatter/can_lawicel_formatter.cpp **** 	uint8_t dataBegin;
 131:/home/rene/xpcc/src/xpcc/driver/connectivity/can/can_lawicel_formatter/can_lawicel_formatter.cpp **** 	if(in.flags.extended)
 132:/home/rene/xpcc/src/xpcc/driver/connectivity/can/can_lawicel_formatter/can_lawicel_formatter.cpp **** 	{
 133:/home/rene/xpcc/src/xpcc/driver/connectivity/can/can_lawicel_formatter/can_lawicel_formatter.cpp **** 		for(int i=3; i>=0; i--){
 134:/home/rene/xpcc/src/xpcc/driver/connectivity/can/can_lawicel_formatter/can_lawicel_formatter.cpp **** 			out[2*i+1] = byteToHex((*ptr)>>4);
 135:/home/rene/xpcc/src/xpcc/driver/connectivity/can/can_lawicel_formatter/can_lawicel_formatter.cpp **** 			out[2*i+2] = byteToHex(*ptr);
 136:/home/rene/xpcc/src/xpcc/driver/connectivity/can/can_lawicel_formatter/can_lawicel_formatter.cpp **** 			++ptr;
 137:/home/rene/xpcc/src/xpcc/driver/connectivity/can/can_lawicel_formatter/can_lawicel_formatter.cpp **** 		}
 138:/home/rene/xpcc/src/xpcc/driver/connectivity/can/can_lawicel_formatter/can_lawicel_formatter.cpp **** 		out[9] = byteToHex(in.length);
 139:/home/rene/xpcc/src/xpcc/driver/connectivity/can/can_lawicel_formatter/can_lawicel_formatter.cpp **** 		out[10] = '\0';
 140:/home/rene/xpcc/src/xpcc/driver/connectivity/can/can_lawicel_formatter/can_lawicel_formatter.cpp **** 		dataBegin=10;
 141:/home/rene/xpcc/src/xpcc/driver/connectivity/can/can_lawicel_formatter/can_lawicel_formatter.cpp **** 	}
 142:/home/rene/xpcc/src/xpcc/driver/connectivity/can/can_lawicel_formatter/can_lawicel_formatter.cpp **** 	else
 143:/home/rene/xpcc/src/xpcc/driver/connectivity/can/can_lawicel_formatter/can_lawicel_formatter.cpp **** 	{
 144:/home/rene/xpcc/src/xpcc/driver/connectivity/can/can_lawicel_formatter/can_lawicel_formatter.cpp **** 		out[1] = byteToHex(*(ptr+1));
 145:/home/rene/xpcc/src/xpcc/driver/connectivity/can/can_lawicel_formatter/can_lawicel_formatter.cpp **** 		out[2] = byteToHex((*(ptr))>>4);
 146:/home/rene/xpcc/src/xpcc/driver/connectivity/can/can_lawicel_formatter/can_lawicel_formatter.cpp **** 		out[3] = byteToHex((*(ptr)));
 147:/home/rene/xpcc/src/xpcc/driver/connectivity/can/can_lawicel_formatter/can_lawicel_formatter.cpp **** 		out[4] = byteToHex(in.length);
 148:/home/rene/xpcc/src/xpcc/driver/connectivity/can/can_lawicel_formatter/can_lawicel_formatter.cpp **** 		out[5] = '\0';	// terminate if no data is appended.
 149:/home/rene/xpcc/src/xpcc/driver/connectivity/can/can_lawicel_formatter/can_lawicel_formatter.cpp **** 		dataBegin=5;
 150:/home/rene/xpcc/src/xpcc/driver/connectivity/can/can_lawicel_formatter/can_lawicel_formatter.cpp **** 
 151:/home/rene/xpcc/src/xpcc/driver/connectivity/can/can_lawicel_formatter/can_lawicel_formatter.cpp **** 	}
 152:/home/rene/xpcc/src/xpcc/driver/connectivity/can/can_lawicel_formatter/can_lawicel_formatter.cpp **** 
 153:/home/rene/xpcc/src/xpcc/driver/connectivity/can/can_lawicel_formatter/can_lawicel_formatter.cpp **** 	if (!in.flags.rtr)
 154:/home/rene/xpcc/src/xpcc/driver/connectivity/can/can_lawicel_formatter/can_lawicel_formatter.cpp **** 	{
 155:/home/rene/xpcc/src/xpcc/driver/connectivity/can/can_lawicel_formatter/can_lawicel_formatter.cpp **** 		uint_fast8_t i = 0;
 156:/home/rene/xpcc/src/xpcc/driver/connectivity/can/can_lawicel_formatter/can_lawicel_formatter.cpp **** 		for( ; i < in.length ; i++)
 157:/home/rene/xpcc/src/xpcc/driver/connectivity/can/can_lawicel_formatter/can_lawicel_formatter.cpp **** 		{
 158:/home/rene/xpcc/src/xpcc/driver/connectivity/can/can_lawicel_formatter/can_lawicel_formatter.cpp **** 			out[dataBegin+2*i] = byteToHex(in.data[i]>>4);
 159:/home/rene/xpcc/src/xpcc/driver/connectivity/can/can_lawicel_formatter/can_lawicel_formatter.cpp **** 			out[dataBegin+2*i+1] = byteToHex(in.data[i]);
 160:/home/rene/xpcc/src/xpcc/driver/connectivity/can/can_lawicel_formatter/can_lawicel_formatter.cpp **** 		}
 161:/home/rene/xpcc/src/xpcc/driver/connectivity/can/can_lawicel_formatter/can_lawicel_formatter.cpp **** 		out[dataBegin+2*i]='\0';
 162:/home/rene/xpcc/src/xpcc/driver/connectivity/can/can_lawicel_formatter/can_lawicel_formatter.cpp **** 	}
 163:/home/rene/xpcc/src/xpcc/driver/connectivity/can/can_lawicel_formatter/can_lawicel_formatter.cpp **** 
 164:/home/rene/xpcc/src/xpcc/driver/connectivity/can/can_lawicel_formatter/can_lawicel_formatter.cpp **** 	return true;
 165:/home/rene/xpcc/src/xpcc/driver/connectivity/can/can_lawicel_formatter/can_lawicel_formatter.cpp **** }
 166:/home/rene/xpcc/src/xpcc/driver/connectivity/can/can_lawicel_formatter/can_lawicel_formatter.cpp **** 
 167:/home/rene/xpcc/src/xpcc/driver/connectivity/can/can_lawicel_formatter/can_lawicel_formatter.cpp **** 
 168:/home/rene/xpcc/src/xpcc/driver/connectivity/can/can_lawicel_formatter/can_lawicel_formatter.cpp **** uint8_t
 169:/home/rene/xpcc/src/xpcc/driver/connectivity/can/can_lawicel_formatter/can_lawicel_formatter.cpp **** xpcc::CanLawicelFormatter::charToByte(const char *s)
 170:/home/rene/xpcc/src/xpcc/driver/connectivity/can/can_lawicel_formatter/can_lawicel_formatter.cpp **** {
  66               		.loc 1 170 0
  67               	.LVL0:
  68               	/* prologue: function */
  69               	/* frame size = 0 */
  70               	/* stack size = 0 */
  71               	.L__stack_usage = 0
  72               	.LBB2:
 171:/home/rene/xpcc/src/xpcc/driver/connectivity/can/can_lawicel_formatter/can_lawicel_formatter.cpp **** 	uint8_t t = *s;
  73               		.loc 1 171 0
  74 0000 FC01      		movw r30,r24	 ; , s
  75 0002 8081      		ld r24,Z	 ;  t, *s_2(D)
  76               	.LVL1:
 172:/home/rene/xpcc/src/xpcc/driver/connectivity/can/can_lawicel_formatter/can_lawicel_formatter.cpp **** 	if (t >= 'a')
  77               		.loc 1 172 0
  78 0004 8136      		cpi r24,lo8(97)	 ;  t,
  79 0006 00F0      		brlo .L2	 ; ,
 173:/home/rene/xpcc/src/xpcc/driver/connectivity/can/can_lawicel_formatter/can_lawicel_formatter.cpp **** 		t = t - 'a' + 10;
  80               		.loc 1 173 0
  81 0008 8755      		subi r24,lo8(-(-87))	 ;  t,
  82               	.LVL2:
  83 000a 0895      		ret
  84               	.L2:
 174:/home/rene/xpcc/src/xpcc/driver/connectivity/can/can_lawicel_formatter/can_lawicel_formatter.cpp **** 	else if (t >= 'A')
  85               		.loc 1 174 0
  86 000c 8134      		cpi r24,lo8(65)	 ;  t,
  87 000e 00F0      		brlo .L4	 ; ,
 175:/home/rene/xpcc/src/xpcc/driver/connectivity/can/can_lawicel_formatter/can_lawicel_formatter.cpp **** 		t = t - 'A' + 10;
  88               		.loc 1 175 0
  89 0010 8753      		subi r24,lo8(-(-55))	 ;  t,
  90               	.LVL3:
  91 0012 0895      		ret
  92               	.L4:
 176:/home/rene/xpcc/src/xpcc/driver/connectivity/can/can_lawicel_formatter/can_lawicel_formatter.cpp **** 	else
 177:/home/rene/xpcc/src/xpcc/driver/connectivity/can/can_lawicel_formatter/can_lawicel_formatter.cpp **** 		t = t - '0';
  93               		.loc 1 177 0
  94 0014 8053      		subi r24,lo8(-(-48))	 ;  t,
  95               	.LVL4:
  96               	.LBE2:
 178:/home/rene/xpcc/src/xpcc/driver/connectivity/can/can_lawicel_formatter/can_lawicel_formatter.cpp **** 	return t;
 179:/home/rene/xpcc/src/xpcc/driver/connectivity/can/can_lawicel_formatter/can_lawicel_formatter.cpp **** }
  97               		.loc 1 179 0
  98 0016 0895      		ret
  99               	.LFE15:
 101               		.section	.text._ZN4xpcc19CanLawicelFormatter9hexToByteEPKc,"axG",@progbits,_ZN4xpcc19CanLawicelFor
 102               		.weak	_ZN4xpcc19CanLawicelFormatter9hexToByteEPKc
 104               	_ZN4xpcc19CanLawicelFormatter9hexToByteEPKc:
 105               	.LFB12:
 106               		.file 2 "/home/rene/xpcc/src/xpcc/driver/connectivity/can/can_lawicel_formatter/can_lawicel_format
   1:/home/rene/xpcc/src/xpcc/driver/connectivity/can/can_lawicel_formatter/can_lawicel_formatter.hpp **** // coding: utf-8
   2:/home/rene/xpcc/src/xpcc/driver/connectivity/can/can_lawicel_formatter/can_lawicel_formatter.hpp **** // ----------------------------------------------------------------------------
   3:/home/rene/xpcc/src/xpcc/driver/connectivity/can/can_lawicel_formatter/can_lawicel_formatter.hpp **** /* Copyright (c) 2011, Roboterclub Aachen e.V.
   4:/home/rene/xpcc/src/xpcc/driver/connectivity/can/can_lawicel_formatter/can_lawicel_formatter.hpp ****  * All rights reserved.
   5:/home/rene/xpcc/src/xpcc/driver/connectivity/can/can_lawicel_formatter/can_lawicel_formatter.hpp ****  * 
   6:/home/rene/xpcc/src/xpcc/driver/connectivity/can/can_lawicel_formatter/can_lawicel_formatter.hpp ****  * Redistribution and use in source and binary forms, with or without
   7:/home/rene/xpcc/src/xpcc/driver/connectivity/can/can_lawicel_formatter/can_lawicel_formatter.hpp ****  * modification, are permitted provided that the following conditions are met:
   8:/home/rene/xpcc/src/xpcc/driver/connectivity/can/can_lawicel_formatter/can_lawicel_formatter.hpp ****  * 
   9:/home/rene/xpcc/src/xpcc/driver/connectivity/can/can_lawicel_formatter/can_lawicel_formatter.hpp ****  *     * Redistributions of source code must retain the above copyright
  10:/home/rene/xpcc/src/xpcc/driver/connectivity/can/can_lawicel_formatter/can_lawicel_formatter.hpp ****  *       notice, this list of conditions and the following disclaimer.
  11:/home/rene/xpcc/src/xpcc/driver/connectivity/can/can_lawicel_formatter/can_lawicel_formatter.hpp ****  *     * Redistributions in binary form must reproduce the above copyright
  12:/home/rene/xpcc/src/xpcc/driver/connectivity/can/can_lawicel_formatter/can_lawicel_formatter.hpp ****  *       notice, this list of conditions and the following disclaimer in the
  13:/home/rene/xpcc/src/xpcc/driver/connectivity/can/can_lawicel_formatter/can_lawicel_formatter.hpp ****  *       documentation and/or other materials provided with the distribution.
  14:/home/rene/xpcc/src/xpcc/driver/connectivity/can/can_lawicel_formatter/can_lawicel_formatter.hpp ****  *     * Neither the name of the Roboterclub Aachen e.V. nor the
  15:/home/rene/xpcc/src/xpcc/driver/connectivity/can/can_lawicel_formatter/can_lawicel_formatter.hpp ****  *       names of its contributors may be used to endorse or promote products
  16:/home/rene/xpcc/src/xpcc/driver/connectivity/can/can_lawicel_formatter/can_lawicel_formatter.hpp ****  *       derived from this software without specific prior written permission.
  17:/home/rene/xpcc/src/xpcc/driver/connectivity/can/can_lawicel_formatter/can_lawicel_formatter.hpp ****  * 
  18:/home/rene/xpcc/src/xpcc/driver/connectivity/can/can_lawicel_formatter/can_lawicel_formatter.hpp ****  * THIS SOFTWARE IS PROVIDED BY ROBOTERCLUB AACHEN E.V. ''AS IS'' AND ANY
  19:/home/rene/xpcc/src/xpcc/driver/connectivity/can/can_lawicel_formatter/can_lawicel_formatter.hpp ****  * EXPRESS OR IMPLIED WARRANTIES, INCLUDING, BUT NOT LIMITED TO, THE IMPLIED
  20:/home/rene/xpcc/src/xpcc/driver/connectivity/can/can_lawicel_formatter/can_lawicel_formatter.hpp ****  * WARRANTIES OF MERCHANTABILITY AND FITNESS FOR A PARTICULAR PURPOSE ARE
  21:/home/rene/xpcc/src/xpcc/driver/connectivity/can/can_lawicel_formatter/can_lawicel_formatter.hpp ****  * DISCLAIMED. IN NO EVENT SHALL ROBOTERCLUB AACHEN E.V. BE LIABLE FOR ANY
  22:/home/rene/xpcc/src/xpcc/driver/connectivity/can/can_lawicel_formatter/can_lawicel_formatter.hpp ****  * DIRECT, INDIRECT, INCIDENTAL, SPECIAL, EXEMPLARY, OR CONSEQUENTIAL DAMAGES
  23:/home/rene/xpcc/src/xpcc/driver/connectivity/can/can_lawicel_formatter/can_lawicel_formatter.hpp ****  * (INCLUDING, BUT NOT LIMITED TO, PROCUREMENT OF SUBSTITUTE GOODS OR SERVICES;
  24:/home/rene/xpcc/src/xpcc/driver/connectivity/can/can_lawicel_formatter/can_lawicel_formatter.hpp ****  * LOSS OF USE, DATA, OR PROFITS; OR BUSINESS INTERRUPTION) HOWEVER CAUSED AND
  25:/home/rene/xpcc/src/xpcc/driver/connectivity/can/can_lawicel_formatter/can_lawicel_formatter.hpp ****  * ON ANY THEORY OF LIABILITY, WHETHER IN CONTRACT, STRICT LIABILITY, OR TORT
  26:/home/rene/xpcc/src/xpcc/driver/connectivity/can/can_lawicel_formatter/can_lawicel_formatter.hpp ****  * (INCLUDING NEGLIGENCE OR OTHERWISE) ARISING IN ANY WAY OUT OF THE USE OF
  27:/home/rene/xpcc/src/xpcc/driver/connectivity/can/can_lawicel_formatter/can_lawicel_formatter.hpp ****  * THIS SOFTWARE, EVEN IF ADVISED OF THE POSSIBILITY OF SUCH DAMAGE.
  28:/home/rene/xpcc/src/xpcc/driver/connectivity/can/can_lawicel_formatter/can_lawicel_formatter.hpp ****  */
  29:/home/rene/xpcc/src/xpcc/driver/connectivity/can/can_lawicel_formatter/can_lawicel_formatter.hpp **** // ----------------------------------------------------------------------------
  30:/home/rene/xpcc/src/xpcc/driver/connectivity/can/can_lawicel_formatter/can_lawicel_formatter.hpp **** 
  31:/home/rene/xpcc/src/xpcc/driver/connectivity/can/can_lawicel_formatter/can_lawicel_formatter.hpp **** #ifndef XPCC__CAN_LAWICEL_FORMATTER_HPP
  32:/home/rene/xpcc/src/xpcc/driver/connectivity/can/can_lawicel_formatter/can_lawicel_formatter.hpp **** #define XPCC__CAN_LAWICEL_FORMATTER_HPP
  33:/home/rene/xpcc/src/xpcc/driver/connectivity/can/can_lawicel_formatter/can_lawicel_formatter.hpp **** 
  34:/home/rene/xpcc/src/xpcc/driver/connectivity/can/can_lawicel_formatter/can_lawicel_formatter.hpp **** #include <xpcc/driver/connectivity/can/message.hpp>
  35:/home/rene/xpcc/src/xpcc/driver/connectivity/can/can_lawicel_formatter/can_lawicel_formatter.hpp **** 
  36:/home/rene/xpcc/src/xpcc/driver/connectivity/can/can_lawicel_formatter/can_lawicel_formatter.hpp **** namespace xpcc
  37:/home/rene/xpcc/src/xpcc/driver/connectivity/can/can_lawicel_formatter/can_lawicel_formatter.hpp **** {
  38:/home/rene/xpcc/src/xpcc/driver/connectivity/can/can_lawicel_formatter/can_lawicel_formatter.hpp **** 	/**
  39:/home/rene/xpcc/src/xpcc/driver/connectivity/can/can_lawicel_formatter/can_lawicel_formatter.hpp **** 	 * \brief	Converts XPCC CAN messages (xpcc::can::Message) to and from the Lawicel string format (c
  40:/home/rene/xpcc/src/xpcc/driver/connectivity/can/can_lawicel_formatter/can_lawicel_formatter.hpp **** 	 *
  41:/home/rene/xpcc/src/xpcc/driver/connectivity/can/can_lawicel_formatter/can_lawicel_formatter.hpp **** 	 * Lawicel AB (\see http://www.lawicel.com/) offers medium sized CAN to USB
  42:/home/rene/xpcc/src/xpcc/driver/connectivity/can/can_lawicel_formatter/can_lawicel_formatter.hpp **** 	 * and CAN to RS232 converters. Their data format is widely used, including
  43:/home/rene/xpcc/src/xpcc/driver/connectivity/can/can_lawicel_formatter/can_lawicel_formatter.hpp **** 	 * RCA's BotControl Java GUI and Fabian's USB2CAN dongle.
  44:/home/rene/xpcc/src/xpcc/driver/connectivity/can/can_lawicel_formatter/can_lawicel_formatter.hpp **** 	 *
  45:/home/rene/xpcc/src/xpcc/driver/connectivity/can/can_lawicel_formatter/can_lawicel_formatter.hpp **** 	 * This converter only understands messages of type 'r', 't', 'R' and 'T' which
  46:/home/rene/xpcc/src/xpcc/driver/connectivity/can/can_lawicel_formatter/can_lawicel_formatter.hpp **** 	 * transmits CAN frames. It does not understand commands to change the baud rate et cetera.
  47:/home/rene/xpcc/src/xpcc/driver/connectivity/can/can_lawicel_formatter/can_lawicel_formatter.hpp **** 	 *
  48:/home/rene/xpcc/src/xpcc/driver/connectivity/can/can_lawicel_formatter/can_lawicel_formatter.hpp **** 	 */
  49:/home/rene/xpcc/src/xpcc/driver/connectivity/can/can_lawicel_formatter/can_lawicel_formatter.hpp **** 	class CanLawicelFormatter
  50:/home/rene/xpcc/src/xpcc/driver/connectivity/can/can_lawicel_formatter/can_lawicel_formatter.hpp **** 	{
  51:/home/rene/xpcc/src/xpcc/driver/connectivity/can/can_lawicel_formatter/can_lawicel_formatter.hpp **** 	public:
  52:/home/rene/xpcc/src/xpcc/driver/connectivity/can/can_lawicel_formatter/can_lawicel_formatter.hpp **** 		static bool
  53:/home/rene/xpcc/src/xpcc/driver/connectivity/can/can_lawicel_formatter/can_lawicel_formatter.hpp **** 		convertToCanMessage(const char* in, can::Message& out);
  54:/home/rene/xpcc/src/xpcc/driver/connectivity/can/can_lawicel_formatter/can_lawicel_formatter.hpp **** 
  55:/home/rene/xpcc/src/xpcc/driver/connectivity/can/can_lawicel_formatter/can_lawicel_formatter.hpp **** 		static bool
  56:/home/rene/xpcc/src/xpcc/driver/connectivity/can/can_lawicel_formatter/can_lawicel_formatter.hpp **** 		convertToString(const can::Message& in, char* out);
  57:/home/rene/xpcc/src/xpcc/driver/connectivity/can/can_lawicel_formatter/can_lawicel_formatter.hpp **** 		
  58:/home/rene/xpcc/src/xpcc/driver/connectivity/can/can_lawicel_formatter/can_lawicel_formatter.hpp **** 	private:
  59:/home/rene/xpcc/src/xpcc/driver/connectivity/can/can_lawicel_formatter/can_lawicel_formatter.hpp **** 		static inline uint8_t
  60:/home/rene/xpcc/src/xpcc/driver/connectivity/can/can_lawicel_formatter/can_lawicel_formatter.hpp **** 		hexToByte(const char *s)
 107               		.loc 2 60 0
 108               	.LVL5:
 109 0000 1F93      		push r17	 ; 
 110               	.LCFI0:
 111 0002 CF93      		push r28	 ; 
 112               	.LCFI1:
 113 0004 DF93      		push r29	 ; 
 114               	.LCFI2:
 115               	/* prologue: function */
 116               	/* frame size = 0 */
 117               	/* stack size = 3 */
 118               	.L__stack_usage = 3
 119 0006 EC01      		movw r28,r24	 ;  s, s
  61:/home/rene/xpcc/src/xpcc/driver/connectivity/can/can_lawicel_formatter/can_lawicel_formatter.hpp **** 		{
  62:/home/rene/xpcc/src/xpcc/driver/connectivity/can/can_lawicel_formatter/can_lawicel_formatter.hpp **** 			return (charToByte(s) << 4) | charToByte(s + 1);
 120               		.loc 2 62 0
 121 0008 0E94 0000 		call _ZN4xpcc19CanLawicelFormatter10charToByteEPKc	 ; 
 122               	.LVL6:
 123 000c 182F      		mov r17,r24	 ;  D.2321,
 124 000e CE01      		movw r24,r28	 ; , s
 125 0010 0196      		adiw r24,1	 ; ,
 126 0012 0E94 0000 		call _ZN4xpcc19CanLawicelFormatter10charToByteEPKc	 ; 
 127               	.LVL7:
 128 0016 90E1      		ldi r25,lo8(16)	 ; ,
 129 0018 199F      		mul r17,r25	 ;  D.2321,
 130 001a 9001      		movw r18,r0	 ;  tmp56
 131 001c 1124      		clr __zero_reg__
  63:/home/rene/xpcc/src/xpcc/driver/connectivity/can/can_lawicel_formatter/can_lawicel_formatter.hpp **** 		}
 132               		.loc 2 63 0
 133 001e 822B      		or r24,r18	 ; , tmp56
 134               	/* epilogue start */
 135 0020 DF91      		pop r29	 ; 
 136 0022 CF91      		pop r28	 ; 
 137               	.LVL8:
 138 0024 1F91      		pop r17	 ; 
 139 0026 0895      		ret
 140               	.LFE12:
 142               		.section	.text._ZN4xpcc19CanLawicelFormatter19convertToCanMessageEPKcRNS_3can7MessageE,"ax",@progb
 143               	.global	_ZN4xpcc19CanLawicelFormatter19convertToCanMessageEPKcRNS_3can7MessageE
 145               	_ZN4xpcc19CanLawicelFormatter19convertToCanMessageEPKcRNS_3can7MessageE:
 146               	.LFB13:
  39:/home/rene/xpcc/src/xpcc/driver/connectivity/can/can_lawicel_formatter/can_lawicel_formatter.cpp **** {
 147               		.loc 1 39 0
 148               	.LVL9:
 149 0000 8F92      		push r8	 ; 
 150               	.LCFI3:
 151 0002 9F92      		push r9	 ; 
 152               	.LCFI4:
 153 0004 BF92      		push r11	 ; 
 154               	.LCFI5:
 155 0006 CF92      		push r12	 ; 
 156               	.LCFI6:
 157 0008 DF92      		push r13	 ; 
 158               	.LCFI7:
 159 000a EF92      		push r14	 ; 
 160               	.LCFI8:
 161 000c FF92      		push r15	 ; 
 162               	.LCFI9:
 163 000e 0F93      		push r16	 ; 
 164               	.LCFI10:
 165 0010 1F93      		push r17	 ; 
 166               	.LCFI11:
 167 0012 CF93      		push r28	 ; 
 168               	.LCFI12:
 169 0014 DF93      		push r29	 ; 
 170               	.LCFI13:
 171               	/* prologue: function */
 172               	/* frame size = 0 */
 173               	/* stack size = 11 */
 174               	.L__stack_usage = 11
 175 0016 EC01      		movw r28,r24	 ;  in, in
 176 0018 8B01      		movw r16,r22	 ;  out, out
 177               	.LBB3:
  42:/home/rene/xpcc/src/xpcc/driver/connectivity/can/can_lawicel_formatter/can_lawicel_formatter.cpp **** 	if (in[0] == 'R' || in[0] == 'T') {
 178               		.loc 1 42 0
 179 001a 9881      		ld r25,Y	 ;  D.2249, *in_5(D)
 180 001c FB01      		movw r30,r22	 ; , out
 181 001e 8485      		ldd r24,Z+12	 ;  tmp150,
 182               	.LVL10:
 183 0020 9235      		cpi r25,lo8(82)	 ;  D.2249,
 184 0022 01F0      		breq .L7	 ; ,
  42:/home/rene/xpcc/src/xpcc/driver/connectivity/can/can_lawicel_formatter/can_lawicel_formatter.cpp **** 	if (in[0] == 'R' || in[0] == 'T') {
 185               		.loc 1 42 0 is_stmt 0 discriminator 1
 186 0024 9435      		cpi r25,lo8(84)	 ;  D.2249,
 187 0026 01F4      		brne .L8	 ; ,
 188               	.L7:
  43:/home/rene/xpcc/src/xpcc/driver/connectivity/can/can_lawicel_formatter/can_lawicel_formatter.cpp **** 		out.flags.extended = true;
 189               		.loc 1 43 0 is_stmt 1
 190 0028 8260      		ori r24,lo8(1<<1)	 ;  tmp101,
 191 002a F801      		movw r30,r16	 ; , out
 192 002c 8487      		std Z+12,r24	 ; , tmp101
 193               	.LVL11:
  44:/home/rene/xpcc/src/xpcc/driver/connectivity/can/can_lawicel_formatter/can_lawicel_formatter.cpp **** 		dlc_pos = 9;
 194               		.loc 1 44 0
 195 002e 89E0      		ldi r24,lo8(9)	 ;  dlc_pos,
 196 0030 00C0      		rjmp .L9	 ; 
 197               	.LVL12:
 198               	.L8:
  47:/home/rene/xpcc/src/xpcc/driver/connectivity/can/can_lawicel_formatter/can_lawicel_formatter.cpp **** 		out.flags.extended = false;
 199               		.loc 1 47 0
 200 0032 8D7F      		andi r24,lo8(~(1<<1))	 ;  tmp102,
 201 0034 FB01      		movw r30,r22	 ; , out
 202 0036 8487      		std Z+12,r24	 ; , tmp102
 203               	.LVL13:
  48:/home/rene/xpcc/src/xpcc/driver/connectivity/can/can_lawicel_formatter/can_lawicel_formatter.cpp **** 		dlc_pos = 4;
 204               		.loc 1 48 0
 205 0038 84E0      		ldi r24,lo8(4)	 ;  dlc_pos,
 206               	.LVL14:
 207               	.L9:
  51:/home/rene/xpcc/src/xpcc/driver/connectivity/can/can_lawicel_formatter/can_lawicel_formatter.cpp **** 	if (std::strlen(in) < dlc_pos + 1U)
 208               		.loc 1 51 0
 209 003a FE01      		movw r30,r28	 ;  D.2251, in
 210               		0:
 211 003c 0190      		ld __tmp_reg__,Z+	 ;  D.2251
 212 003e 0020      		tst __tmp_reg__
 213 0040 01F4      		brne 0b
 214 0042 3197      		sbiw r30,1	 ;  D.2251,
 215 0044 EC1B      		sub r30,r28	 ;  D.2251, in
 216 0046 FD0B      		sbc r31,r29	 ;  D.2251, in
 217 0048 90E0      		ldi r25,0	 ;  D.2252
 218 004a 7C01      		movw r14,r24	 ;  D.2253, D.2252
 219 004c 2FEF      		ldi r18,-1	 ; ,
 220 004e E21A      		sub r14,r18	 ;  D.2253,
 221 0050 F20A      		sbc r15,r18	 ;  D.2253,
 222 0052 EE15      		cp r30,r14	 ;  D.2251, D.2253
 223 0054 FF05      		cpc r31,r15	 ;  D.2251, D.2253
 224 0056 00F4      		brsh .L10	 ; ,
 225               	.LVL15:
 226               	.L12:
 227               	.LBB4:
 228               	.LBB5:
  52:/home/rene/xpcc/src/xpcc/driver/connectivity/can/can_lawicel_formatter/can_lawicel_formatter.cpp **** 		return false;
 229               		.loc 1 52 0
 230 0058 80E0      		ldi r24,0	 ;  D.2256
 231 005a 00C0      		rjmp .L11	 ; 
 232               	.LVL16:
 233               	.L10:
 234               	.LBE5:
 235               	.LBE4:
  55:/home/rene/xpcc/src/xpcc/driver/connectivity/can/can_lawicel_formatter/can_lawicel_formatter.cpp **** 	out.length = in[dlc_pos] - '0';
 236               		.loc 1 55 0
 237 005c FE01      		movw r30,r28	 ;  tmp106, in
 238 005e E80F      		add r30,r24	 ;  tmp106, D.2252
 239 0060 F91F      		adc r31,r25	 ;  tmp106, D.2252
 240 0062 B080      		ld r11,Z	 ;  D.2260, *D.2258_16
 241 0064 30ED      		ldi r19,lo8(-48)	 ; ,
 242 0066 B30E      		add r11,r19	 ;  D.2260,
 243 0068 F801      		movw r30,r16	 ; , out
 244 006a B586      		std Z+13,r11	 ;  out_8(D)->length, D.2260
  56:/home/rene/xpcc/src/xpcc/driver/connectivity/can/can_lawicel_formatter/can_lawicel_formatter.cpp **** 	if (out.length > 8)
 245               		.loc 1 56 0
 246 006c F8E0      		ldi r31,lo8(8)	 ; ,
 247 006e FB15      		cp r31,r11	 ; , D.2260
 248 0070 00F0      		brlo .L12	 ; ,
  59:/home/rene/xpcc/src/xpcc/driver/connectivity/can/can_lawicel_formatter/can_lawicel_formatter.cpp **** 	if (in[0] == 'r' || in[0] == 'R') {
 249               		.loc 1 59 0
 250 0072 3881      		ld r19,Y	 ;  D.2249, *in_5(D)
 251 0074 F801      		movw r30,r16	 ; , out
 252 0076 2485      		ldd r18,Z+12	 ;  tmp151,
 253 0078 3237      		cpi r19,lo8(114)	 ;  D.2249,
 254 007a 01F0      		breq .L13	 ; ,
  59:/home/rene/xpcc/src/xpcc/driver/connectivity/can/can_lawicel_formatter/can_lawicel_formatter.cpp **** 	if (in[0] == 'r' || in[0] == 'R') {
 255               		.loc 1 59 0 is_stmt 0 discriminator 1
 256 007c 3235      		cpi r19,lo8(82)	 ;  D.2249,
 257 007e 01F4      		brne .L14	 ; ,
 258               	.L13:
  60:/home/rene/xpcc/src/xpcc/driver/connectivity/can/can_lawicel_formatter/can_lawicel_formatter.cpp **** 		out.flags.rtr = true;
 259               		.loc 1 60 0 is_stmt 1
 260 0080 2160      		ori r18,lo8(1<<0)	 ;  tmp108,
 261 0082 F801      		movw r30,r16	 ; , out
 262 0084 2487      		std Z+12,r18	 ; , tmp108
  61:/home/rene/xpcc/src/xpcc/driver/connectivity/can/can_lawicel_formatter/can_lawicel_formatter.cpp **** 		if (std::strlen(in) != (dlc_pos + 1U))
 263               		.loc 1 61 0
 264 0086 FE01      		movw r30,r28	 ;  D.2268, in
 265               		0:
 266 0088 0190      		ld __tmp_reg__,Z+	 ;  D.2268
 267 008a 0020      		tst __tmp_reg__
 268 008c 01F4      		brne 0b
 269 008e 3197      		sbiw r30,1	 ;  D.2268,
 270 0090 EC1B      		sub r30,r28	 ;  D.2268, in
 271 0092 FD0B      		sbc r31,r29	 ;  D.2268, in
 272 0094 EE15      		cp r30,r14	 ;  D.2268, D.2253
 273 0096 FF05      		cpc r31,r15	 ;  D.2268, D.2253
 274 0098 01F4      		brne .L12	 ; ,
 275               	.LVL17:
 276               	.L17:
 277               	.LBB7:
  71:/home/rene/xpcc/src/xpcc/driver/connectivity/can/can_lawicel_formatter/can_lawicel_formatter.cpp **** 	if (out.flags.extended)
 278               		.loc 1 71 0
 279 009a F801      		movw r30,r16	 ; , out
 280 009c 2485      		ldd r18,Z+12	 ;  tmp113,
 281 009e CE01      		movw r24,r28	 ;  tmp152, in
 282 00a0 0196      		adiw r24,1	 ;  tmp152,
 283 00a2 21FD      		sbrc r18,1	 ;  tmp113,
 284 00a4 00C0      		rjmp .L15	 ; 
 285 00a6 00C0      		rjmp .L29	 ; 
 286               	.LVL18:
 287               	.L14:
 288               	.LBE7:
  65:/home/rene/xpcc/src/xpcc/driver/connectivity/can/can_lawicel_formatter/can_lawicel_formatter.cpp **** 		out.flags.rtr = false;
 289               		.loc 1 65 0
 290 00a8 2E7F      		andi r18,lo8(~(1<<0))	 ;  tmp115,
 291 00aa F801      		movw r30,r16	 ; , out
 292 00ac 2487      		std Z+12,r18	 ; , tmp115
  66:/home/rene/xpcc/src/xpcc/driver/connectivity/can/can_lawicel_formatter/can_lawicel_formatter.cpp **** 		if (std::strlen(in) != (out.length * 2 + dlc_pos + 1U))
 293               		.loc 1 66 0
 294 00ae FE01      		movw r30,r28	 ;  D.2271, in
 295               		0:
 296 00b0 0190      		ld __tmp_reg__,Z+	 ;  D.2271
 297 00b2 0020      		tst __tmp_reg__
 298 00b4 01F4      		brne 0b
 299 00b6 3197      		sbiw r30,1	 ;  D.2271,
 300 00b8 EC1B      		sub r30,r28	 ;  D.2271, in
 301 00ba FD0B      		sbc r31,r29	 ;  D.2271, in
 302 00bc 8B0D      		add r24,r11	 ;  tmp123, D.2260
 303 00be 911D      		adc r25,__zero_reg__	 ;  tmp123
 304               	.LVL19:
 305 00c0 8B0D      		add r24,r11	 ;  tmp123, D.2260
 306 00c2 911D      		adc r25,__zero_reg__	 ;  tmp123
 307 00c4 0196      		adiw r24,1	 ;  tmp123,
 308 00c6 E817      		cp r30,r24	 ;  D.2271, tmp123
 309 00c8 F907      		cpc r31,r25	 ;  D.2271, tmp123
 310 00ca 01F4      		brne .L12	 ; ,
 311 00cc 00C0      		rjmp .L17	 ; 
 312               	.L15:
 313               	.LBB10:
 314               	.LBB8:
  76:/home/rene/xpcc/src/xpcc/driver/connectivity/can/can_lawicel_formatter/can_lawicel_formatter.cpp **** 		id  = hexToByte(&in[1]) << 8;
 315               		.loc 1 76 0
 316 00ce 0E94 0000 		call _ZN4xpcc19CanLawicelFormatter9hexToByteEPKc	 ; 
 317               	.LVL20:
 318 00d2 482F      		mov r20,r24	 ;  D.2284, D.2284
 319 00d4 50E0      		ldi r21,0	 ;  D.2284
 320 00d6 942E      		mov r9,r20	 ;  id, D.2284
 321 00d8 8824      		clr r8	 ;  id
 322               	.LVL21:
  77:/home/rene/xpcc/src/xpcc/driver/connectivity/can/can_lawicel_formatter/can_lawicel_formatter.cpp **** 		id |= hexToByte(&in[3]);
 323               		.loc 1 77 0
 324 00da CE01      		movw r24,r28	 ; , in
 325 00dc 0396      		adiw r24,3	 ; ,
 326 00de 0E94 0000 		call _ZN4xpcc19CanLawicelFormatter9hexToByteEPKc	 ; 
 327               	.LVL22:
 328 00e2 882A      		or r8,r24	 ;  id,
 329               	.LVL23:
  79:/home/rene/xpcc/src/xpcc/driver/connectivity/can/can_lawicel_formatter/can_lawicel_formatter.cpp **** 		id2  = hexToByte(&in[5]) << 8;
 330               		.loc 1 79 0
 331 00e4 CE01      		movw r24,r28	 ; , in
 332 00e6 0596      		adiw r24,5	 ; ,
 333 00e8 0E94 0000 		call _ZN4xpcc19CanLawicelFormatter9hexToByteEPKc	 ; 
 334               	.LVL24:
 335 00ec C82E      		mov r12,r24	 ;  D.2290, D.2290
 336 00ee D12C      		mov r13,__zero_reg__	 ;  D.2290
 337 00f0 DC2C      		mov r13,r12	 ;  id2, D.2290
 338 00f2 CC24      		clr r12	 ;  id2
 339               	.LVL25:
  80:/home/rene/xpcc/src/xpcc/driver/connectivity/can/can_lawicel_formatter/can_lawicel_formatter.cpp **** 		id2 |= hexToByte(&in[7]);
 340               		.loc 1 80 0
 341 00f4 CE01      		movw r24,r28	 ; , in
 342 00f6 0796      		adiw r24,7	 ; ,
 343 00f8 0E94 0000 		call _ZN4xpcc19CanLawicelFormatter9hexToByteEPKc	 ; 
 344               	.LVL26:
  82:/home/rene/xpcc/src/xpcc/driver/connectivity/can/can_lawicel_formatter/can_lawicel_formatter.cpp **** 		out.identifier = (uint32_t) id << 16 | id2;
 345               		.loc 1 82 0
 346 00fc A401      		movw r20,r8	 ;  id, id
 347 00fe 60E0      		ldi r22,0	 ;  id
 348 0100 70E0      		ldi r23,0	 ;  id
 349 0102 BA01      		movw r22,r20	 ;  tmp136, id
 350 0104 5527      		clr r21	 ;  tmp136
 351 0106 4427      		clr r20	 ;  tmp136
  80:/home/rene/xpcc/src/xpcc/driver/connectivity/can/can_lawicel_formatter/can_lawicel_formatter.cpp **** 		id2 |= hexToByte(&in[7]);
 352               		.loc 1 80 0
 353 0108 9601      		movw r18,r12	 ; , id2
 354 010a 282B      		or r18,r24	 ; ,
 355 010c C901      		movw r24,r18	 ;  tmp134,
 356               	.LVL27:
  82:/home/rene/xpcc/src/xpcc/driver/connectivity/can/can_lawicel_formatter/can_lawicel_formatter.cpp **** 		out.identifier = (uint32_t) id << 16 | id2;
 357               		.loc 1 82 0
 358 010e A0E0      		ldi r26,0	 ; 
 359 0110 B0E0      		ldi r27,0	 ; 
 360 0112 482B      		or r20,r24	 ;  tmp136, tmp135
 361 0114 592B      		or r21,r25	 ;  tmp136, tmp135
 362 0116 6A2B      		or r22,r26	 ;  tmp136, tmp135
 363 0118 7B2B      		or r23,r27	 ;  tmp136, tmp135
 364 011a F801      		movw r30,r16	 ; , out
 365 011c 4083      		st Z,r20	 ;  out_8(D)->identifier, tmp136
 366 011e 5183      		std Z+1,r21	 ;  out_8(D)->identifier, tmp136
 367 0120 6283      		std Z+2,r22	 ;  out_8(D)->identifier, tmp136
 368 0122 7383      		std Z+3,r23	 ;  out_8(D)->identifier, tmp136
 369 0124 00C0      		rjmp .L18	 ; 
 370               	.LVL28:
 371               	.L29:
 372               	.LBE8:
 373               	.LBB9:
  87:/home/rene/xpcc/src/xpcc/driver/connectivity/can/can_lawicel_formatter/can_lawicel_formatter.cpp **** 		id  = charToByte(&in[1]) << 8;
 374               		.loc 1 87 0
 375 0126 0E94 0000 		call _ZN4xpcc19CanLawicelFormatter10charToByteEPKc	 ; 
 376               	.LVL29:
 377 012a C82E      		mov r12,r24	 ;  D.2300, D.2300
 378 012c D12C      		mov r13,__zero_reg__	 ;  D.2300
 379 012e DC2C      		mov r13,r12	 ;  id, D.2300
 380 0130 CC24      		clr r12	 ;  id
 381               	.LVL30:
  88:/home/rene/xpcc/src/xpcc/driver/connectivity/can/can_lawicel_formatter/can_lawicel_formatter.cpp **** 		id |= hexToByte(&in[2]);
 382               		.loc 1 88 0
 383 0132 CE01      		movw r24,r28	 ; , in
 384 0134 0296      		adiw r24,2	 ; ,
 385 0136 0E94 0000 		call _ZN4xpcc19CanLawicelFormatter9hexToByteEPKc	 ; 
 386               	.LVL31:
 387 013a 9601      		movw r18,r12	 ; , id
 388 013c 282B      		or r18,r24	 ; ,
 389 013e C901      		movw r24,r18	 ;  tmp141,
 390               	.LVL32:
  90:/home/rene/xpcc/src/xpcc/driver/connectivity/can/can_lawicel_formatter/can_lawicel_formatter.cpp **** 		out.identifier = id;
 391               		.loc 1 90 0
 392 0140 A0E0      		ldi r26,0	 ; 
 393 0142 B0E0      		ldi r27,0	 ; 
 394 0144 F801      		movw r30,r16	 ; , out
 395 0146 8083      		st Z,r24	 ;  out_8(D)->identifier, tmp142
 396 0148 9183      		std Z+1,r25	 ;  out_8(D)->identifier, tmp142
 397 014a A283      		std Z+2,r26	 ;  out_8(D)->identifier, tmp142
 398 014c B383      		std Z+3,r27	 ;  out_8(D)->identifier, tmp142
 399               	.L18:
 400               	.LBE9:
 401               	.LBE10:
 402               	.LBB11:
  94:/home/rene/xpcc/src/xpcc/driver/connectivity/can/can_lawicel_formatter/can_lawicel_formatter.cpp **** 	if (!out.flags.rtr)
 403               		.loc 1 94 0
 404 014e F801      		movw r30,r16	 ; , out
 405 0150 8485      		ldd r24,Z+12	 ;  tmp144,
 406 0152 80FF      		sbrs r24,0	 ;  tmp144,
 407 0154 00C0      		rjmp .L19	 ; 
 408               	.LVL33:
 409               	.L22:
 410               	.LBB6:
 105:/home/rene/xpcc/src/xpcc/driver/connectivity/can/can_lawicel_formatter/can_lawicel_formatter.cpp **** 	return true;
 411               		.loc 1 105 0
 412 0156 81E0      		ldi r24,lo8(1)	 ;  D.2256,
 413 0158 00C0      		rjmp .L11	 ; 
 414               	.LVL34:
 415               	.L19:
  96:/home/rene/xpcc/src/xpcc/driver/connectivity/can/can_lawicel_formatter/can_lawicel_formatter.cpp **** 		const char *buf = &in[dlc_pos + 1];
 416               		.loc 1 96 0
 417 015a CE0D      		add r28,r14	 ;  buf, D.2253
 418 015c DF1D      		adc r29,r15	 ;  buf, D.2253
 419               	.LVL35:
  99:/home/rene/xpcc/src/xpcc/driver/connectivity/can/can_lawicel_formatter/can_lawicel_formatter.cpp **** 		for (i=0; i < out.length; i++)
 420               		.loc 1 99 0
 421 015e F12C      		mov r15,__zero_reg__	 ;  i
 422 0160 00C0      		rjmp .L20	 ; 
 423               	.LVL36:
 424               	.L21:
 101:/home/rene/xpcc/src/xpcc/driver/connectivity/can/can_lawicel_formatter/can_lawicel_formatter.cpp **** 			out.data[i] = hexToByte(buf);
 425               		.loc 1 101 0 discriminator 2
 426 0162 CE01      		movw r24,r28	 ; , buf
 427 0164 0E94 0000 		call _ZN4xpcc19CanLawicelFormatter9hexToByteEPKc	 ; 
 428               	.LVL37:
 429 0168 F801      		movw r30,r16	 ;  tmp147, out
 430 016a EF0D      		add r30,r15	 ;  tmp147, i
 431 016c F11D      		adc r31,__zero_reg__	 ;  tmp147
 432 016e 8483      		std Z+4,r24	 ;  out_8(D)->data,
 102:/home/rene/xpcc/src/xpcc/driver/connectivity/can/can_lawicel_formatter/can_lawicel_formatter.cpp **** 			buf += 2;
 433               		.loc 1 102 0 discriminator 2
 434 0170 2296      		adiw r28,2	 ;  buf,
 435               	.LVL38:
  99:/home/rene/xpcc/src/xpcc/driver/connectivity/can/can_lawicel_formatter/can_lawicel_formatter.cpp **** 		for (i=0; i < out.length; i++)
 436               		.loc 1 99 0 discriminator 2
 437 0172 F394      		inc r15	 ;  i
 438               	.LVL39:
 439               	.L20:
  99:/home/rene/xpcc/src/xpcc/driver/connectivity/can/can_lawicel_formatter/can_lawicel_formatter.cpp **** 		for (i=0; i < out.length; i++)
 440               		.loc 1 99 0 is_stmt 0 discriminator 1
 441 0174 FB14      		cp r15,r11	 ;  i, D.2260
 442 0176 00F0      		brlo .L21	 ; ,
 443 0178 00C0      		rjmp .L22	 ; 
 444               	.LVL40:
 445               	.L11:
 446               	/* epilogue start */
 447               	.LBE6:
 448               	.LBE11:
 449               	.LBE3:
 106:/home/rene/xpcc/src/xpcc/driver/connectivity/can/can_lawicel_formatter/can_lawicel_formatter.cpp **** }
 450               		.loc 1 106 0 is_stmt 1
 451 017a DF91      		pop r29	 ; 
 452 017c CF91      		pop r28	 ; 
 453 017e 1F91      		pop r17	 ; 
 454 0180 0F91      		pop r16	 ; 
 455               	.LVL41:
 456 0182 FF90      		pop r15	 ; 
 457 0184 EF90      		pop r14	 ; 
 458 0186 DF90      		pop r13	 ; 
 459 0188 CF90      		pop r12	 ; 
 460 018a BF90      		pop r11	 ; 
 461 018c 9F90      		pop r9	 ; 
 462 018e 8F90      		pop r8	 ; 
 463 0190 0895      		ret
 464               	.LFE13:
 466               		.section	.text._ZN4xpcc19CanLawicelFormatter9byteToHexEh,"ax",@progbits
 467               	.global	_ZN4xpcc19CanLawicelFormatter9byteToHexEh
 469               	_ZN4xpcc19CanLawicelFormatter9byteToHexEh:
 470               	.LFB16:
 180:/home/rene/xpcc/src/xpcc/driver/connectivity/can/can_lawicel_formatter/can_lawicel_formatter.cpp **** 
 181:/home/rene/xpcc/src/xpcc/driver/connectivity/can/can_lawicel_formatter/can_lawicel_formatter.cpp **** char
 182:/home/rene/xpcc/src/xpcc/driver/connectivity/can/can_lawicel_formatter/can_lawicel_formatter.cpp **** xpcc::CanLawicelFormatter::byteToHex(uint8_t num)
 183:/home/rene/xpcc/src/xpcc/driver/connectivity/can/can_lawicel_formatter/can_lawicel_formatter.cpp **** {
 471               		.loc 1 183 0
 472               	.LVL42:
 473               	/* prologue: function */
 474               	/* frame size = 0 */
 475               	/* stack size = 0 */
 476               	.L__stack_usage = 0
 184:/home/rene/xpcc/src/xpcc/driver/connectivity/can/can_lawicel_formatter/can_lawicel_formatter.cpp **** 	num &= 0x0f;
 477               		.loc 1 184 0
 478 0000 8F70      		andi r24,lo8(15)	 ;  num,
 479               	.LVL43:
 185:/home/rene/xpcc/src/xpcc/driver/connectivity/can/can_lawicel_formatter/can_lawicel_formatter.cpp **** 	if(num<10)
 480               		.loc 1 185 0
 481 0002 8A30      		cpi r24,lo8(10)	 ;  num,
 482 0004 00F4      		brsh .L31	 ; ,
 186:/home/rene/xpcc/src/xpcc/driver/connectivity/can/can_lawicel_formatter/can_lawicel_formatter.cpp **** 		return '0' + num;
 483               		.loc 1 186 0
 484 0006 805D      		subi r24,lo8(-(48))	 ;  D.2163,
 485               	.LVL44:
 486 0008 0895      		ret
 487               	.LVL45:
 488               	.L31:
 187:/home/rene/xpcc/src/xpcc/driver/connectivity/can/can_lawicel_formatter/can_lawicel_formatter.cpp **** 	else
 188:/home/rene/xpcc/src/xpcc/driver/connectivity/can/can_lawicel_formatter/can_lawicel_formatter.cpp **** 		return  'A' + (num-10);
 489               		.loc 1 188 0
 490 000a 895C      		subi r24,lo8(-(55))	 ;  D.2163,
 491               	.LVL46:
 189:/home/rene/xpcc/src/xpcc/driver/connectivity/can/can_lawicel_formatter/can_lawicel_formatter.cpp **** }
 492               		.loc 1 189 0
 493 000c 0895      		ret
 494               	.LFE16:
 496               		.section	.text._ZN4xpcc19CanLawicelFormatter15convertToStringERKNS_3can7MessageEPc,"ax",@progbits
 497               	.global	_ZN4xpcc19CanLawicelFormatter15convertToStringERKNS_3can7MessageEPc
 499               	_ZN4xpcc19CanLawicelFormatter15convertToStringERKNS_3can7MessageEPc:
 500               	.LFB14:
 111:/home/rene/xpcc/src/xpcc/driver/connectivity/can/can_lawicel_formatter/can_lawicel_formatter.cpp **** {
 501               		.loc 1 111 0
 502               	.LVL47:
 503 0000 6F92      		push r6	 ; 
 504               	.LCFI14:
 505 0002 7F92      		push r7	 ; 
 506               	.LCFI15:
 507 0004 9F92      		push r9	 ; 
 508               	.LCFI16:
 509 0006 AF92      		push r10	 ; 
 510               	.LCFI17:
 511 0008 BF92      		push r11	 ; 
 512               	.LCFI18:
 513 000a CF92      		push r12	 ; 
 514               	.LCFI19:
 515 000c DF92      		push r13	 ; 
 516               	.LCFI20:
 517 000e EF92      		push r14	 ; 
 518               	.LCFI21:
 519 0010 FF92      		push r15	 ; 
 520               	.LCFI22:
 521 0012 0F93      		push r16	 ; 
 522               	.LCFI23:
 523 0014 1F93      		push r17	 ; 
 524               	.LCFI24:
 525 0016 CF93      		push r28	 ; 
 526               	.LCFI25:
 527 0018 DF93      		push r29	 ; 
 528               	.LCFI26:
 529               		 ; SP -= 1	 ; 
 530 001a 1F92      		push __zero_reg__
 531               	.LCFI27:
 532 001c CDB7      		in r28,__SP_L__	 ; 
 533 001e DEB7      		in r29,__SP_H__	 ; 
 534               	.LCFI28:
 535               	/* prologue: function */
 536               	/* frame size = 1 */
 537               	/* stack size = 14 */
 538               	.L__stack_usage = 14
 539 0020 8C01      		movw r16,r24	 ;  in, in
 540 0022 3B01      		movw r6,r22	 ;  out, out
 541               	.LBB12:
 112:/home/rene/xpcc/src/xpcc/driver/connectivity/can/can_lawicel_formatter/can_lawicel_formatter.cpp **** 	if(in.flags.extended){
 542               		.loc 1 112 0
 543 0024 FC01      		movw r30,r24	 ; , in
 544 0026 9485      		ldd r25,Z+12	 ;  tmp125,
 545 0028 892F      		mov r24,r25	 ;  tmp171, tmp125
 546 002a 8170      		andi r24,1	 ;  tmp171
 547               	.LVL48:
 548 002c 91FF      		sbrs r25,1	 ;  tmp125,
 549 002e 00C0      		rjmp .L34	 ; 
 113:/home/rene/xpcc/src/xpcc/driver/connectivity/can/can_lawicel_formatter/can_lawicel_formatter.cpp **** 		if(in.flags.rtr){
 550               		.loc 1 113 0
 551 0030 8823      		tst r24	 ;  tmp171
 552 0032 01F0      		breq .L35	 ; ,
 114:/home/rene/xpcc/src/xpcc/driver/connectivity/can/can_lawicel_formatter/can_lawicel_formatter.cpp **** 			out[0]='R';
 553               		.loc 1 114 0
 554 0034 82E5      		ldi r24,lo8(82)	 ;  tmp130,
 555 0036 00C0      		rjmp .L44	 ; 
 556               	.L35:
 117:/home/rene/xpcc/src/xpcc/driver/connectivity/can/can_lawicel_formatter/can_lawicel_formatter.cpp **** 			out[0]='T';
 557               		.loc 1 117 0
 558 0038 84E5      		ldi r24,lo8(84)	 ;  tmp131,
 559 003a 00C0      		rjmp .L44	 ; 
 560               	.L34:
 121:/home/rene/xpcc/src/xpcc/driver/connectivity/can/can_lawicel_formatter/can_lawicel_formatter.cpp **** 		if(in.flags.rtr){
 561               		.loc 1 121 0
 562 003c 8823      		tst r24	 ;  tmp171
 563 003e 01F0      		breq .L37	 ; ,
 122:/home/rene/xpcc/src/xpcc/driver/connectivity/can/can_lawicel_formatter/can_lawicel_formatter.cpp **** 			out[0]='r';
 564               		.loc 1 122 0
 565 0040 82E7      		ldi r24,lo8(114)	 ;  tmp135,
 566 0042 00C0      		rjmp .L44	 ; 
 567               	.L37:
 125:/home/rene/xpcc/src/xpcc/driver/connectivity/can/can_lawicel_formatter/can_lawicel_formatter.cpp **** 			out[0]='t';
 568               		.loc 1 125 0
 569 0044 84E7      		ldi r24,lo8(116)	 ;  tmp136,
 570               	.L44:
 571 0046 F301      		movw r30,r6	 ; , out
 572 0048 8083      		st Z,r24	 ;  *out_8(D), tmp136
 573               	.LVL49:
 574               	.LBB13:
 131:/home/rene/xpcc/src/xpcc/driver/connectivity/can/can_lawicel_formatter/can_lawicel_formatter.cpp **** 	if(in.flags.extended)
 575               		.loc 1 131 0
 576 004a F801      		movw r30,r16	 ; , in
 577 004c 8485      		ldd r24,Z+12	 ;  tmp138,
 578 004e 81FF      		sbrs r24,1	 ;  tmp138,
 579 0050 00C0      		rjmp .L38	 ; 
 580               	.LBE13:
 129:/home/rene/xpcc/src/xpcc/driver/connectivity/can/can_lawicel_formatter/can_lawicel_formatter.cpp **** 	const uint8_t* ptr=reinterpret_cast<const uint8_t*>(&in.identifier);
 581               		.loc 1 129 0
 582 0052 5801      		movw r10,r16	 ;  ptr, in
 583 0054 E3E0      		ldi r30,lo8(3)	 ; ,
 584 0056 EE2E      		mov r14,r30	 ;  i,
 585 0058 F12C      		mov r15,__zero_reg__	 ;  i
 586               	.LVL50:
 587               	.L39:
 588               	.LBB16:
 589               	.LBB14:
 590               	.LBB15:
 134:/home/rene/xpcc/src/xpcc/driver/connectivity/can/can_lawicel_formatter/can_lawicel_formatter.cpp **** 			out[2*i+1] = byteToHex((*ptr)>>4);
 591               		.loc 1 134 0 discriminator 2
 592 005a 6701      		movw r12,r14	 ;  D.2194, i
 593 005c CC0C      		lsl r12	 ;  D.2194
 594 005e DD1C      		rol r13	 ;  D.2194
 595 0060 FFEF      		ldi r31,-1	 ; ,
 596 0062 CF1A      		sub r12,r31	 ;  D.2194,
 597 0064 DF0A      		sbc r13,r31	 ;  D.2194,
 598 0066 C60C      		add r12,r6	 ;  D.2194, out
 599 0068 D71C      		adc r13,r7	 ;  D.2194, out
 600 006a F501      		movw r30,r10	 ; , ptr
 601 006c 8081      		ld r24,Z	 ;  *ptr_115, *ptr_115
 602 006e 8295      		swap r24	 ; 
 603 0070 8F70      		andi r24,lo8(15)	 ; ,
 604 0072 0E94 0000 		call _ZN4xpcc19CanLawicelFormatter9byteToHexEh	 ; 
 605               	.LVL51:
 606 0076 F601      		movw r30,r12	 ; , D.2194
 607 0078 8083      		st Z,r24	 ;  *D.2194_17,
 135:/home/rene/xpcc/src/xpcc/driver/connectivity/can/can_lawicel_formatter/can_lawicel_formatter.cpp **** 			out[2*i+2] = byteToHex(*ptr);
 608               		.loc 1 135 0 discriminator 2
 609 007a 6701      		movw r12,r14	 ;  D.2203, i
 610 007c FFEF      		ldi r31,-1	 ; ,
 611 007e CF1A      		sub r12,r31	 ;  D.2203,
 612 0080 DF0A      		sbc r13,r31	 ;  D.2203,
 613 0082 CC0C      		lsl r12	 ;  D.2203
 614 0084 DD1C      		rol r13	 ;  D.2203
 615 0086 C60C      		add r12,r6	 ;  D.2203, out
 616 0088 D71C      		adc r13,r7	 ;  D.2203, out
 617 008a F501      		movw r30,r10	 ; , ptr
 618 008c 8191      		ld r24,Z+	 ; , *ptr_115
 619 008e 5F01      		movw r10,r30	 ;  ptr,
 620 0090 0E94 0000 		call _ZN4xpcc19CanLawicelFormatter9byteToHexEh	 ; 
 621               	.LVL52:
 622 0094 F601      		movw r30,r12	 ; , D.2203
 623 0096 8083      		st Z,r24	 ;  *D.2203_26,
 624               	.LVL53:
 133:/home/rene/xpcc/src/xpcc/driver/connectivity/can/can_lawicel_formatter/can_lawicel_formatter.cpp **** 		for(int i=3; i>=0; i--){
 625               		.loc 1 133 0 discriminator 2
 626               	.LVL54:
 627 0098 F1E0      		ldi r31,1	 ; 
 628 009a EF1A      		sub r14,r31	 ;  i,
 629 009c F108      		sbc r15,__zero_reg__	 ;  i
 630 009e 00F4      		brcc .L39	 ; ,
 631               	.LBE15:
 138:/home/rene/xpcc/src/xpcc/driver/connectivity/can/can_lawicel_formatter/can_lawicel_formatter.cpp **** 		out[9] = byteToHex(in.length);
 632               		.loc 1 138 0
 633 00a0 F801      		movw r30,r16	 ; , in
 634 00a2 8585      		ldd r24,Z+13	 ; , in_5(D)->length
 635 00a4 0E94 0000 		call _ZN4xpcc19CanLawicelFormatter9byteToHexEh	 ; 
 636               	.LVL55:
 637 00a8 F301      		movw r30,r6	 ; , out
 638 00aa 8187      		std Z+9,r24	 ;  MEM[(char *)out_8(D) + 9B],
 139:/home/rene/xpcc/src/xpcc/driver/connectivity/can/can_lawicel_formatter/can_lawicel_formatter.cpp **** 		out[10] = '\0';
 639               		.loc 1 139 0
 640 00ac 1286      		std Z+10,__zero_reg__	 ;  MEM[(char *)out_8(D) + 10B],
 641               	.LVL56:
 140:/home/rene/xpcc/src/xpcc/driver/connectivity/can/can_lawicel_formatter/can_lawicel_formatter.cpp **** 		dataBegin=10;
 642               		.loc 1 140 0
 643 00ae 4AE0      		ldi r20,lo8(10)	 ;  dataBegin,
 644 00b0 00C0      		rjmp .L40	 ; 
 645               	.LVL57:
 646               	.L38:
 647               	.LBE14:
 144:/home/rene/xpcc/src/xpcc/driver/connectivity/can/can_lawicel_formatter/can_lawicel_formatter.cpp **** 		out[1] = byteToHex(*(ptr+1));
 648               		.loc 1 144 0
 649 00b2 F801      		movw r30,r16	 ; , in
 650 00b4 8181      		ldd r24,Z+1	 ; , MEM[(const uint8_t *)in_5(D) + 1B]
 651 00b6 0E94 0000 		call _ZN4xpcc19CanLawicelFormatter9byteToHexEh	 ; 
 652               	.LVL58:
 653 00ba F301      		movw r30,r6	 ; , out
 654 00bc 8183      		std Z+1,r24	 ;  MEM[(char *)out_8(D) + 1B],
 145:/home/rene/xpcc/src/xpcc/driver/connectivity/can/can_lawicel_formatter/can_lawicel_formatter.cpp **** 		out[2] = byteToHex((*(ptr))>>4);
 655               		.loc 1 145 0
 656 00be F801      		movw r30,r16	 ; , in
 657 00c0 8081      		ld r24,Z	 ;  MEM[(const uint8_t *)in_5(D)], MEM[(const uint8_t *)in_5(D)]
 658 00c2 8295      		swap r24	 ; 
 659 00c4 8F70      		andi r24,lo8(15)	 ; ,
 660 00c6 0E94 0000 		call _ZN4xpcc19CanLawicelFormatter9byteToHexEh	 ; 
 661               	.LVL59:
 662 00ca F301      		movw r30,r6	 ; , out
 663 00cc 8283      		std Z+2,r24	 ;  MEM[(char *)out_8(D) + 2B],
 146:/home/rene/xpcc/src/xpcc/driver/connectivity/can/can_lawicel_formatter/can_lawicel_formatter.cpp **** 		out[3] = byteToHex((*(ptr)));
 664               		.loc 1 146 0
 665 00ce F801      		movw r30,r16	 ; , in
 666 00d0 8081      		ld r24,Z	 ; , MEM[(const uint8_t *)in_5(D)]
 667 00d2 0E94 0000 		call _ZN4xpcc19CanLawicelFormatter9byteToHexEh	 ; 
 668               	.LVL60:
 669 00d6 F301      		movw r30,r6	 ; , out
 670 00d8 8383      		std Z+3,r24	 ;  MEM[(char *)out_8(D) + 3B],
 147:/home/rene/xpcc/src/xpcc/driver/connectivity/can/can_lawicel_formatter/can_lawicel_formatter.cpp **** 		out[4] = byteToHex(in.length);
 671               		.loc 1 147 0
 672 00da F801      		movw r30,r16	 ; , in
 673 00dc 8585      		ldd r24,Z+13	 ; , in_5(D)->length
 674 00de 0E94 0000 		call _ZN4xpcc19CanLawicelFormatter9byteToHexEh	 ; 
 675               	.LVL61:
 676 00e2 F301      		movw r30,r6	 ; , out
 677 00e4 8483      		std Z+4,r24	 ;  MEM[(char *)out_8(D) + 4B],
 148:/home/rene/xpcc/src/xpcc/driver/connectivity/can/can_lawicel_formatter/can_lawicel_formatter.cpp **** 		out[5] = '\0';	// terminate if no data is appended.
 678               		.loc 1 148 0
 679 00e6 1582      		std Z+5,__zero_reg__	 ;  MEM[(char *)out_8(D) + 5B],
 680               	.LVL62:
 149:/home/rene/xpcc/src/xpcc/driver/connectivity/can/can_lawicel_formatter/can_lawicel_formatter.cpp **** 		dataBegin=5;
 681               		.loc 1 149 0
 682 00e8 45E0      		ldi r20,lo8(5)	 ;  dataBegin,
 683               	.LVL63:
 684               	.L40:
 685               	.LBE16:
 686               	.LBB17:
 153:/home/rene/xpcc/src/xpcc/driver/connectivity/can/can_lawicel_formatter/can_lawicel_formatter.cpp **** 	if (!in.flags.rtr)
 687               		.loc 1 153 0
 688 00ea F801      		movw r30,r16	 ; , in
 689 00ec 8485      		ldd r24,Z+12	 ;  tmp151,
 690 00ee 80FD      		sbrc r24,0	 ;  tmp151,
 691 00f0 00C0      		rjmp .L41	 ; 
 692 00f2 912C      		mov r9,__zero_reg__	 ;  i
 693 00f4 00C0      		rjmp .L42	 ; 
 694               	.LVL64:
 695               	.L43:
 696               	.LBB18:
 158:/home/rene/xpcc/src/xpcc/driver/connectivity/can/can_lawicel_formatter/can_lawicel_formatter.cpp **** 			out[dataBegin+2*i] = byteToHex(in.data[i]>>4);
 697               		.loc 1 158 0 discriminator 2
 698 00f6 7C01      		movw r14,r24	 ;  D.2233, i
 699 00f8 EE0C      		lsl r14	 ;  D.2233
 700 00fa FF1C      		rol r15	 ;  D.2233
 701 00fc E20E      		add r14,r18	 ;  D.2233, dataBegin
 702 00fe F31E      		adc r15,r19	 ;  D.2233, dataBegin
 703 0100 5301      		movw r10,r6	 ;  D.2234, out
 704 0102 AE0C      		add r10,r14	 ;  D.2234, D.2233
 705 0104 BF1C      		adc r11,r15	 ;  D.2234, D.2233
 706 0106 6801      		movw r12,r16	 ;  tmp156, in
 707 0108 C80E      		add r12,r24	 ;  tmp156, i
 708 010a D91E      		adc r13,r25	 ;  tmp156, i
 709 010c F601      		movw r30,r12	 ; , tmp156
 710 010e 8481      		ldd r24,Z+4	 ;  tmp159, in_5(D)->data
 711 0110 8295      		swap r24	 ; 
 712 0112 8F70      		andi r24,lo8(15)	 ; ,
 713 0114 4983      		std Y+1,r20	 ; ,
 714 0116 0E94 0000 		call _ZN4xpcc19CanLawicelFormatter9byteToHexEh	 ; 
 715               	.LVL65:
 716 011a F501      		movw r30,r10	 ; , D.2234
 717 011c 8083      		st Z,r24	 ;  *D.2234_64,
 159:/home/rene/xpcc/src/xpcc/driver/connectivity/can/can_lawicel_formatter/can_lawicel_formatter.cpp **** 			out[dataBegin+2*i+1] = byteToHex(in.data[i]);
 718               		.loc 1 159 0 discriminator 2
 719 011e FFEF      		ldi r31,-1	 ; ,
 720 0120 EF1A      		sub r14,r31	 ;  D.2241,
 721 0122 FF0A      		sbc r15,r31	 ;  D.2241,
 722 0124 E60C      		add r14,r6	 ;  D.2241, out
 723 0126 F71C      		adc r15,r7	 ;  D.2241, out
 724 0128 F601      		movw r30,r12	 ; , tmp156
 725 012a 8481      		ldd r24,Z+4	 ; , in_5(D)->data
 726 012c 0E94 0000 		call _ZN4xpcc19CanLawicelFormatter9byteToHexEh	 ; 
 727               	.LVL66:
 728 0130 F701      		movw r30,r14	 ; , D.2241
 729 0132 8083      		st Z,r24	 ;  *D.2241_77,
 156:/home/rene/xpcc/src/xpcc/driver/connectivity/can/can_lawicel_formatter/can_lawicel_formatter.cpp **** 		for( ; i < in.length ; i++)
 730               		.loc 1 156 0 discriminator 2
 731 0134 9394      		inc r9	 ;  i
 732               	.LVL67:
 733 0136 4981      		ldd r20,Y+1	 ; ,
 734               	.LVL68:
 735               	.L42:
 156:/home/rene/xpcc/src/xpcc/driver/connectivity/can/can_lawicel_formatter/can_lawicel_formatter.cpp **** 		for( ; i < in.length ; i++)
 736               		.loc 1 156 0 is_stmt 0 discriminator 1
 737 0138 F801      		movw r30,r16	 ; , in
 738 013a 5585      		ldd r21,Z+13	 ;  in_5(D)->length, in_5(D)->length
 739 013c 892D      		mov r24,r9	 ;  i, i
 740 013e 90E0      		ldi r25,0	 ;  i
 741 0140 242F      		mov r18,r20	 ;  dataBegin, dataBegin
 742 0142 30E0      		ldi r19,0	 ;  dataBegin
 743 0144 9516      		cp r9,r21	 ;  i, in_5(D)->length
 744 0146 00F0      		brlo .L43	 ; ,
 161:/home/rene/xpcc/src/xpcc/driver/connectivity/can/can_lawicel_formatter/can_lawicel_formatter.cpp **** 		out[dataBegin+2*i]='\0';
 745               		.loc 1 161 0 is_stmt 1
 746 0148 880F      		lsl r24	 ;  tmp167
 747 014a 991F      		rol r25	 ;  tmp167
 748 014c 260D      		add r18,r6	 ;  tmp169, out
 749 014e 371D      		adc r19,r7	 ;  tmp169, out
 750 0150 280F      		add r18,r24	 ;  tmp169, tmp167
 751 0152 391F      		adc r19,r25	 ;  tmp169, tmp167
 752 0154 F901      		movw r30,r18	 ; , tmp169
 753 0156 1082      		st Z,__zero_reg__	 ;  *D.2234_87,
 754               	.LVL69:
 755               	.L41:
 756               	.LBE18:
 757               	.LBE17:
 758               	.LBE12:
 165:/home/rene/xpcc/src/xpcc/driver/connectivity/can/can_lawicel_formatter/can_lawicel_formatter.cpp **** }
 759               		.loc 1 165 0
 760 0158 81E0      		ldi r24,lo8(1)	 ; ,
 761               	/* epilogue start */
 762               		 ; SP += 1	 ; 
 763 015a 0F90      		pop __tmp_reg__
 764 015c DF91      		pop r29	 ; 
 765 015e CF91      		pop r28	 ; 
 766 0160 1F91      		pop r17	 ; 
 767 0162 0F91      		pop r16	 ; 
 768               	.LVL70:
 769 0164 FF90      		pop r15	 ; 
 770 0166 EF90      		pop r14	 ; 
 771 0168 DF90      		pop r13	 ; 
 772 016a CF90      		pop r12	 ; 
 773 016c BF90      		pop r11	 ; 
 774 016e AF90      		pop r10	 ; 
 775 0170 9F90      		pop r9	 ; 
 776 0172 7F90      		pop r7	 ; 
 777 0174 6F90      		pop r6	 ; 
 778               	.LVL71:
 779 0176 0895      		ret
 780               	.LFE14:
 1010               	.Letext0:
 1011               		.file 3 "/usr/lib/gcc/avr/4.7.2/../../../avr/include/stdint.h"
 1012               		.file 4 "/home/rene/xpcc/src/xpcc/driver/connectivity/can/message.hpp"
 1013               		.file 5 "/usr/lib/gcc/avr/4.7.2/include/stddef.h"
 1014               		.file 6 "<built-in>"
 1015               		.file 7 "/home/rene/xpcc/src/stdc++/cstddef"
 1016               		.file 8 "/home/rene/xpcc/src/stdc++/cstring"
 1017               		.file 9 "/usr/lib/gcc/avr/4.7.2/../../../avr/include/string.h"
DEFINED SYMBOLS
                            *ABS*:0000000000000000 can_lawicel_formatter.cpp
     /tmp/ccJjDNEe.s:2      *ABS*:000000000000003e __SP_H__
     /tmp/ccJjDNEe.s:3      *ABS*:000000000000003d __SP_L__
     /tmp/ccJjDNEe.s:4      *ABS*:000000000000003f __SREG__
     /tmp/ccJjDNEe.s:5      *ABS*:0000000000000034 __CCP__
     /tmp/ccJjDNEe.s:6      *ABS*:0000000000000000 __tmp_reg__
     /tmp/ccJjDNEe.s:7      *ABS*:0000000000000001 __zero_reg__
     /tmp/ccJjDNEe.s:63     .text._ZN4xpcc19CanLawicelFormatter10charToByteEPKc:0000000000000000 _ZN4xpcc19CanLawicelFormatter10charToByteEPKc
     /tmp/ccJjDNEe.s:104    .text._ZN4xpcc19CanLawicelFormatter9hexToByteEPKc:0000000000000000 _ZN4xpcc19CanLawicelFormatter9hexToByteEPKc
     /tmp/ccJjDNEe.s:145    .text._ZN4xpcc19CanLawicelFormatter19convertToCanMessageEPKcRNS_3can7MessageE:0000000000000000 _ZN4xpcc19CanLawicelFormatter19convertToCanMessageEPKcRNS_3can7MessageE
     /tmp/ccJjDNEe.s:469    .text._ZN4xpcc19CanLawicelFormatter9byteToHexEh:0000000000000000 _ZN4xpcc19CanLawicelFormatter9byteToHexEh
     /tmp/ccJjDNEe.s:499    .text._ZN4xpcc19CanLawicelFormatter15convertToStringERKNS_3can7MessageEPc:0000000000000000 _ZN4xpcc19CanLawicelFormatter15convertToStringERKNS_3can7MessageEPc

NO UNDEFINED SYMBOLS
