   1               		.file	"controller.cpp"
   2               	__SP_H__ = 0x3e
   3               	__SP_L__ = 0x3d
   4               	__SREG__ = 0x3f
   5               	__CCP__ = 0x34
   6               	__tmp_reg__ = 0
   7               	__zero_reg__ = 1
   8               	 ;  GNU C++ (GCC) version 4.7.2 (avr)
   9               	 ; 	compiled by GNU C version 4.7.2, GMP version 5.0.5, MPFR version 3.1.0-p10, MPC version 0.9
  10               	 ;  warning: GMP header version 5.0.5 differs from library version 5.1.2.
  11               	 ;  warning: MPFR header version 3.1.0-p10 differs from library version 3.1.1-p2.
  12               	 ;  GGC heuristics: --param ggc-min-expand=100 --param ggc-min-heapsize=131072
  13               	 ;  options passed:  -I /home/rene/xpcc/src/stdc++ -I /home/rene/xpcc/src
  14               	 ;  -I /home/rene/xpcc/ext -I build/libxpcc -imultilib avrxmega2
  15               	 ;  -D BASENAME=controller.cpp -D F_CPU=16000000ul
  16               	 ;  /home/rene/xpcc/src/unittest/controller.cpp -mmcu=atxmega32a4
  17               	 ;  -auxbase-strip build/libxpcc/src/unittest/controller.o -gdwarf-2 -Os
  18               	 ;  -Woverloaded-virtual -Wall -Wextra -Wundef -std=gnu++11
  19               	 ;  -fno-threadsafe-statics -fuse-cxa-atexit -funsigned-char
  20               	 ;  -funsigned-bitfields -fshort-enums -ffunction-sections -fdata-sections
  21               	 ;  -fno-split-wide-types -fno-move-loop-invariants -fno-tree-loop-optimize
  22               	 ;  -finline-limit=10000 -fverbose-asm -fno-rtti -fno-enforce-eh-specs
  23               	 ;  -fno-exceptions
  24               	 ;  options enabled:  -fauto-inc-dec -fbranch-count-reg -fcaller-saves
  25               	 ;  -fcombine-stack-adjustments -fcommon -fcompare-elim -fcprop-registers
  26               	 ;  -fcrossjumping -fcse-follow-jumps -fdata-sections -fdebug-types-section
  27               	 ;  -fdefer-pop -fdevirtualize -fearly-inlining
  28               	 ;  -feliminate-unused-debug-types -fexpensive-optimizations
  29               	 ;  -fforward-propagate -ffunction-cse -ffunction-sections -fgcse -fgcse-lm
  30               	 ;  -fgnu-runtime -fguess-branch-probability -fident -fif-conversion
  31               	 ;  -fif-conversion2 -findirect-inlining -finline -finline-atomics
  32               	 ;  -finline-functions -finline-functions-called-once
  33               	 ;  -finline-small-functions -fipa-cp -fipa-profile -fipa-pure-const
  34               	 ;  -fipa-reference -fipa-sra -fira-share-save-slots
  35               	 ;  -fira-share-spill-slots -fivopts -fkeep-static-consts
  36               	 ;  -fleading-underscore -fmath-errno -fmerge-constants
  37               	 ;  -fmerge-debug-strings -fomit-frame-pointer -foptimize-register-move
  38               	 ;  -foptimize-sibling-calls -fpartial-inlining -fpeephole -fpeephole2
  39               	 ;  -fprefetch-loop-arrays -freg-struct-return -fregmove -freorder-blocks
  40               	 ;  -freorder-functions -frerun-cse-after-loop
  41               	 ;  -fsched-critical-path-heuristic -fsched-dep-count-heuristic
  42               	 ;  -fsched-group-heuristic -fsched-interblock -fsched-last-insn-heuristic
  43               	 ;  -fsched-rank-heuristic -fsched-spec -fsched-spec-insn-heuristic
  44               	 ;  -fsched-stalled-insns-dep -fshow-column -fshrink-wrap -fsigned-zeros
  45               	 ;  -fsplit-ivs-in-unroller -fstrict-aliasing -fstrict-overflow
  46               	 ;  -fstrict-volatile-bitfields -fthread-jumps -ftoplevel-reorder
  47               	 ;  -ftrapping-math -ftree-bit-ccp -ftree-builtin-call-dce -ftree-ccp
  48               	 ;  -ftree-ch -ftree-copy-prop -ftree-copyrename -ftree-dce
  49               	 ;  -ftree-dominator-opts -ftree-dse -ftree-forwprop -ftree-fre
  50               	 ;  -ftree-loop-if-convert -ftree-loop-im -ftree-loop-ivcanon
  51               	 ;  -ftree-parallelize-loops= -ftree-phiprop -ftree-pre -ftree-pta
  52               	 ;  -ftree-reassoc -ftree-scev-cprop -ftree-sink -ftree-slp-vectorize
  53               	 ;  -ftree-sra -ftree-switch-conversion -ftree-tail-merge -ftree-ter
  54               	 ;  -ftree-vect-loop-version -ftree-vrp -funit-at-a-time -fvar-tracking
  55               	 ;  -fvar-tracking-assignments -fverbose-asm -fzero-initialized-in-bss
  56               	
  57               		.text
  58               	.Ltext0:
  59               		.section	.text._ZN8unittest10ControllerC2Ev,"ax",@progbits
  60               	.global	_ZN8unittest10ControllerC2Ev
  62               	_ZN8unittest10ControllerC2Ev:
  63               	.LFB62:
  64               		.file 1 "/home/rene/xpcc/src/unittest/controller.cpp"
   1:/home/rene/xpcc/src/unittest/controller.cpp **** // coding: utf-8
   2:/home/rene/xpcc/src/unittest/controller.cpp **** // ----------------------------------------------------------------------------
   3:/home/rene/xpcc/src/unittest/controller.cpp **** /* Copyright (c) 2009, Roboterclub Aachen e.V.
   4:/home/rene/xpcc/src/unittest/controller.cpp ****  * All rights reserved.
   5:/home/rene/xpcc/src/unittest/controller.cpp ****  *
   6:/home/rene/xpcc/src/unittest/controller.cpp ****  * Redistribution and use in source and binary forms, with or without
   7:/home/rene/xpcc/src/unittest/controller.cpp ****  * modification, are permitted provided that the following conditions are met:
   8:/home/rene/xpcc/src/unittest/controller.cpp ****  *
   9:/home/rene/xpcc/src/unittest/controller.cpp ****  *     * Redistributions of source code must retain the above copyright
  10:/home/rene/xpcc/src/unittest/controller.cpp ****  *       notice, this list of conditions and the following disclaimer.
  11:/home/rene/xpcc/src/unittest/controller.cpp ****  *     * Redistributions in binary form must reproduce the above copyright
  12:/home/rene/xpcc/src/unittest/controller.cpp ****  *       notice, this list of conditions and the following disclaimer in the
  13:/home/rene/xpcc/src/unittest/controller.cpp ****  *       documentation and/or other materials provided with the distribution.
  14:/home/rene/xpcc/src/unittest/controller.cpp ****  *     * Neither the name of the Roboterclub Aachen e.V. nor the
  15:/home/rene/xpcc/src/unittest/controller.cpp ****  *       names of its contributors may be used to endorse or promote products
  16:/home/rene/xpcc/src/unittest/controller.cpp ****  *       derived from this software without specific prior written permission.
  17:/home/rene/xpcc/src/unittest/controller.cpp ****  *
  18:/home/rene/xpcc/src/unittest/controller.cpp ****  * THIS SOFTWARE IS PROVIDED BY ROBOTERCLUB AACHEN E.V. ''AS IS'' AND ANY
  19:/home/rene/xpcc/src/unittest/controller.cpp ****  * EXPRESS OR IMPLIED WARRANTIES, INCLUDING, BUT NOT LIMITED TO, THE IMPLIED
  20:/home/rene/xpcc/src/unittest/controller.cpp ****  * WARRANTIES OF MERCHANTABILITY AND FITNESS FOR A PARTICULAR PURPOSE ARE
  21:/home/rene/xpcc/src/unittest/controller.cpp ****  * DISCLAIMED. IN NO EVENT SHALL ROBOTERCLUB AACHEN E.V. BE LIABLE FOR ANY
  22:/home/rene/xpcc/src/unittest/controller.cpp ****  * DIRECT, INDIRECT, INCIDENTAL, SPECIAL, EXEMPLARY, OR CONSEQUENTIAL DAMAGES
  23:/home/rene/xpcc/src/unittest/controller.cpp ****  * (INCLUDING, BUT NOT LIMITED TO, PROCUREMENT OF SUBSTITUTE GOODS OR SERVICES;
  24:/home/rene/xpcc/src/unittest/controller.cpp ****  * LOSS OF USE, DATA, OR PROFITS; OR BUSINESS INTERRUPTION) HOWEVER CAUSED AND
  25:/home/rene/xpcc/src/unittest/controller.cpp ****  * ON ANY THEORY OF LIABILITY, WHETHER IN CONTRACT, STRICT LIABILITY, OR TORT
  26:/home/rene/xpcc/src/unittest/controller.cpp ****  * (INCLUDING NEGLIGENCE OR OTHERWISE) ARISING IN ANY WAY OUT OF THE USE OF
  27:/home/rene/xpcc/src/unittest/controller.cpp ****  * THIS SOFTWARE, EVEN IF ADVISED OF THE POSSIBILITY OF SUCH DAMAGE.
  28:/home/rene/xpcc/src/unittest/controller.cpp ****  */
  29:/home/rene/xpcc/src/unittest/controller.cpp **** // ----------------------------------------------------------------------------
  30:/home/rene/xpcc/src/unittest/controller.cpp **** 
  31:/home/rene/xpcc/src/unittest/controller.cpp **** #include "controller.hpp"
  32:/home/rene/xpcc/src/unittest/controller.cpp **** 
  33:/home/rene/xpcc/src/unittest/controller.cpp **** unittest::Controller::Controller() :
  65               		.loc 1 33 0
  66               	.LVL0:
  67               	/* prologue: function */
  68               	/* frame size = 0 */
  69               	/* stack size = 0 */
  70               	.L__stack_usage = 0
  71               	.LBB5:
  34:/home/rene/xpcc/src/unittest/controller.cpp **** 	reporter(0)	// FIXME need a dummy implementation
  72               		.loc 1 34 0
  73 0000 FC01      		movw r30,r24	 ; , this
  74 0002 1082      		st Z,__zero_reg__	 ;  this_1(D)->reporter,
  75 0004 1182      		std Z+1,__zero_reg__	 ;  this_1(D)->reporter,
  76 0006 0895      		ret
  77               	.LBE5:
  78               	.LFE62:
  80               	.global	_ZN8unittest10ControllerC1Ev
  81               		.set	_ZN8unittest10ControllerC1Ev,_ZN8unittest10ControllerC2Ev
  82               		.section	.text._ZN8unittest10Controller11setReporterERNS_8ReporterE,"ax",@progbits
  83               	.global	_ZN8unittest10Controller11setReporterERNS_8ReporterE
  85               	_ZN8unittest10Controller11setReporterERNS_8ReporterE:
  86               	.LFB64:
  35:/home/rene/xpcc/src/unittest/controller.cpp **** {
  36:/home/rene/xpcc/src/unittest/controller.cpp **** }
  37:/home/rene/xpcc/src/unittest/controller.cpp **** 
  38:/home/rene/xpcc/src/unittest/controller.cpp **** void
  39:/home/rene/xpcc/src/unittest/controller.cpp **** unittest::Controller::setReporter(Reporter& reporter)
  40:/home/rene/xpcc/src/unittest/controller.cpp **** {
  87               		.loc 1 40 0
  88               	.LVL1:
  89               	/* prologue: function */
  90               	/* frame size = 0 */
  91               	/* stack size = 0 */
  92               	.L__stack_usage = 0
  41:/home/rene/xpcc/src/unittest/controller.cpp **** 	this->reporter = &reporter;
  93               		.loc 1 41 0
  94 0000 FC01      		movw r30,r24	 ; , this
  95 0002 6083      		st Z,r22	 ;  this_1(D)->reporter, reporter
  96 0004 7183      		std Z+1,r23	 ;  this_1(D)->reporter, reporter
  97 0006 0895      		ret
  98               	.LFE64:
 100               		.section	.text._ZNK8unittest10Controller11getReporterEv,"ax",@progbits
 101               	.global	_ZNK8unittest10Controller11getReporterEv
 103               	_ZNK8unittest10Controller11getReporterEv:
 104               	.LFB65:
  42:/home/rene/xpcc/src/unittest/controller.cpp **** }
  43:/home/rene/xpcc/src/unittest/controller.cpp **** 
  44:/home/rene/xpcc/src/unittest/controller.cpp **** unittest::Reporter&
  45:/home/rene/xpcc/src/unittest/controller.cpp **** unittest::Controller::getReporter() const
  46:/home/rene/xpcc/src/unittest/controller.cpp **** {
 105               		.loc 1 46 0
 106               	.LVL2:
 107               	/* prologue: function */
 108               	/* frame size = 0 */
 109               	/* stack size = 0 */
 110               	.L__stack_usage = 0
  47:/home/rene/xpcc/src/unittest/controller.cpp **** 	return *reporter;
  48:/home/rene/xpcc/src/unittest/controller.cpp **** }
 111               		.loc 1 48 0
 112 0000 FC01      		movw r30,r24	 ; , this
 113 0002 8081      		ld r24,Z	 ; , this_1(D)->reporter
 114 0004 9181      		ldd r25,Z+1	 ; , this_1(D)->reporter
 115               	.LVL3:
 116 0006 0895      		ret
 117               	.LFE65:
 119               		.section	.text._ZNK8unittest10Controller13nextTestSuiteEN4xpcc8accessor5FlashIcEE,"ax",@progbits
 120               	.global	_ZNK8unittest10Controller13nextTestSuiteEN4xpcc8accessor5FlashIcEE
 122               	_ZNK8unittest10Controller13nextTestSuiteEN4xpcc8accessor5FlashIcEE:
 123               	.LFB66:
  49:/home/rene/xpcc/src/unittest/controller.cpp **** 
  50:/home/rene/xpcc/src/unittest/controller.cpp **** void
  51:/home/rene/xpcc/src/unittest/controller.cpp **** unittest::Controller::nextTestSuite(xpcc::accessor::Flash<char> name) const
  52:/home/rene/xpcc/src/unittest/controller.cpp **** {
 124               		.loc 1 52 0
 125               	.LVL4:
 126               	/* prologue: function */
 127               	/* frame size = 0 */
 128               	/* stack size = 0 */
 129               	.L__stack_usage = 0
  53:/home/rene/xpcc/src/unittest/controller.cpp **** 	reporter->nextTestSuite(name);
 130               		.loc 1 53 0
 131 0000 FC01      		movw r30,r24	 ; , this
 132 0002 8081      		ld r24,Z	 ; , this_1(D)->reporter
 133 0004 9181      		ldd r25,Z+1	 ; , this_1(D)->reporter
 134               	.LVL5:
 135 0006 0C94 0000 		jmp _ZN8unittest8Reporter13nextTestSuiteEN4xpcc8accessor5FlashIcEE	 ; 
 136               	.LVL6:
 137               	.LFE66:
 189               	.Letext0:
 190               		.file 2 "/usr/lib/gcc/avr/4.7.2/../../../avr/include/stdint.h"
 191               		.file 3 "/home/rene/xpcc/src/xpcc/io/iostream.hpp"
 192               		.file 4 "/home/rene/xpcc/src/xpcc/io/iodevice.hpp"
 193               		.file 5 "/home/rene/xpcc/src/xpcc/architecture/driver/accessor/flash.hpp"
 194               		.file 6 "/usr/lib/gcc/avr/4.7.2/include/stddef.h"
 195               		.file 7 "/home/rene/xpcc/src/stdc++/cstddef"
 196               		.file 8 "/home/rene/xpcc/src/unittest/reporter.hpp"
 197               		.file 9 "/home/rene/xpcc/src/unittest/controller.hpp"
 198               		.file 10 "<built-in>"
DEFINED SYMBOLS
                            *ABS*:0000000000000000 controller.cpp
     /tmp/ccBwIfde.s:2      *ABS*:000000000000003e __SP_H__
     /tmp/ccBwIfde.s:3      *ABS*:000000000000003d __SP_L__
     /tmp/ccBwIfde.s:4      *ABS*:000000000000003f __SREG__
     /tmp/ccBwIfde.s:5      *ABS*:0000000000000034 __CCP__
     /tmp/ccBwIfde.s:6      *ABS*:0000000000000000 __tmp_reg__
     /tmp/ccBwIfde.s:7      *ABS*:0000000000000001 __zero_reg__
     /tmp/ccBwIfde.s:62     .text._ZN8unittest10ControllerC2Ev:0000000000000000 _ZN8unittest10ControllerC2Ev
     /tmp/ccBwIfde.s:62     .text._ZN8unittest10ControllerC2Ev:0000000000000000 _ZN8unittest10ControllerC1Ev
     /tmp/ccBwIfde.s:85     .text._ZN8unittest10Controller11setReporterERNS_8ReporterE:0000000000000000 _ZN8unittest10Controller11setReporterERNS_8ReporterE
     /tmp/ccBwIfde.s:103    .text._ZNK8unittest10Controller11getReporterEv:0000000000000000 _ZNK8unittest10Controller11getReporterEv
     /tmp/ccBwIfde.s:122    .text._ZNK8unittest10Controller13nextTestSuiteEN4xpcc8accessor5FlashIcEE:0000000000000000 _ZNK8unittest10Controller13nextTestSuiteEN4xpcc8accessor5FlashIcEE

UNDEFINED SYMBOLS
_ZN8unittest8Reporter13nextTestSuiteEN4xpcc8accessor5FlashIcEE
