   1               		.file	"dogx128.cpp"
   2               	__SP_H__ = 0x3e
   3               	__SP_L__ = 0x3d
   4               	__SREG__ = 0x3f
   5               	__CCP__ = 0x34
   6               	__tmp_reg__ = 0
   7               	__zero_reg__ = 1
   8               	 ;  GNU C++ (GCC) version 4.7.2 (avr)
   9               	 ; 	compiled by GNU C version 4.7.2, GMP version 5.0.5, MPFR version 3.1.0-p10, MPC version 0.9
  10               	 ;  warning: GMP header version 5.0.5 differs from library version 5.1.2.
  11               	 ;  warning: MPFR header version 3.1.0-p10 differs from library version 3.1.1-p2.
  12               	 ;  GGC heuristics: --param ggc-min-expand=100 --param ggc-min-heapsize=131072
  13               	 ;  options passed:  -I /home/rene/xpcc/src/stdc++ -I /home/rene/xpcc/src
  14               	 ;  -I /home/rene/xpcc/ext -I build/libxpcc -imultilib avrxmega2
  15               	 ;  -D BASENAME=dogx128.cpp -D F_CPU=16000000ul
  16               	 ;  /home/rene/xpcc/src/xpcc/driver/ui/display/dogx128.cpp
  17               	 ;  -mmcu=atxmega32a4
  18               	 ;  -auxbase-strip build/libxpcc/src/xpcc/driver/ui/display/dogx128.o
  19               	 ;  -gdwarf-2 -Os -Woverloaded-virtual -Wall -Wextra -Wundef -std=gnu++11
  20               	 ;  -fno-threadsafe-statics -fuse-cxa-atexit -funsigned-char
  21               	 ;  -funsigned-bitfields -fshort-enums -ffunction-sections -fdata-sections
  22               	 ;  -fno-split-wide-types -fno-move-loop-invariants -fno-tree-loop-optimize
  23               	 ;  -finline-limit=10000 -fverbose-asm -fno-rtti -fno-enforce-eh-specs
  24               	 ;  -fno-exceptions
  25               	 ;  options enabled:  -fauto-inc-dec -fbranch-count-reg -fcaller-saves
  26               	 ;  -fcombine-stack-adjustments -fcommon -fcompare-elim -fcprop-registers
  27               	 ;  -fcrossjumping -fcse-follow-jumps -fdata-sections -fdebug-types-section
  28               	 ;  -fdefer-pop -fdevirtualize -fearly-inlining
  29               	 ;  -feliminate-unused-debug-types -fexpensive-optimizations
  30               	 ;  -fforward-propagate -ffunction-cse -ffunction-sections -fgcse -fgcse-lm
  31               	 ;  -fgnu-runtime -fguess-branch-probability -fident -fif-conversion
  32               	 ;  -fif-conversion2 -findirect-inlining -finline -finline-atomics
  33               	 ;  -finline-functions -finline-functions-called-once
  34               	 ;  -finline-small-functions -fipa-cp -fipa-profile -fipa-pure-const
  35               	 ;  -fipa-reference -fipa-sra -fira-share-save-slots
  36               	 ;  -fira-share-spill-slots -fivopts -fkeep-static-consts
  37               	 ;  -fleading-underscore -fmath-errno -fmerge-constants
  38               	 ;  -fmerge-debug-strings -fomit-frame-pointer -foptimize-register-move
  39               	 ;  -foptimize-sibling-calls -fpartial-inlining -fpeephole -fpeephole2
  40               	 ;  -fprefetch-loop-arrays -freg-struct-return -fregmove -freorder-blocks
  41               	 ;  -freorder-functions -frerun-cse-after-loop
  42               	 ;  -fsched-critical-path-heuristic -fsched-dep-count-heuristic
  43               	 ;  -fsched-group-heuristic -fsched-interblock -fsched-last-insn-heuristic
  44               	 ;  -fsched-rank-heuristic -fsched-spec -fsched-spec-insn-heuristic
  45               	 ;  -fsched-stalled-insns-dep -fshow-column -fshrink-wrap -fsigned-zeros
  46               	 ;  -fsplit-ivs-in-unroller -fstrict-aliasing -fstrict-overflow
  47               	 ;  -fstrict-volatile-bitfields -fthread-jumps -ftoplevel-reorder
  48               	 ;  -ftrapping-math -ftree-bit-ccp -ftree-builtin-call-dce -ftree-ccp
  49               	 ;  -ftree-ch -ftree-copy-prop -ftree-copyrename -ftree-dce
  50               	 ;  -ftree-dominator-opts -ftree-dse -ftree-forwprop -ftree-fre
  51               	 ;  -ftree-loop-if-convert -ftree-loop-im -ftree-loop-ivcanon
  52               	 ;  -ftree-parallelize-loops= -ftree-phiprop -ftree-pre -ftree-pta
  53               	 ;  -ftree-reassoc -ftree-scev-cprop -ftree-sink -ftree-slp-vectorize
  54               	 ;  -ftree-sra -ftree-switch-conversion -ftree-tail-merge -ftree-ter
  55               	 ;  -ftree-vect-loop-version -ftree-vrp -funit-at-a-time -fvar-tracking
  56               	 ;  -fvar-tracking-assignments -fverbose-asm -fzero-initialized-in-bss
  57               	
  58               		.text
  59               	.Ltext0:
  60               	.global	_ZN4xpcc6st756521configuration_dogx128E
  61               		.section	.progmem.data._ZN4xpcc6st756521configuration_dogx128E,"a",@progbits
  64               	_ZN4xpcc6st756521configuration_dogx128E:
  65 0000 40        		.byte	64
  66 0001 A6        		.byte	-90
  67 0002 A2        		.byte	-94
  68 0003 2F        		.byte	47
  69 0004 F8        		.byte	-8
  70 0005 00        		.byte	0
  71 0006 27        		.byte	39
  72 0007 81        		.byte	-127
  73 0008 16        		.byte	22
  74 0009 AC        		.byte	-84
  75 000a 00        		.byte	0
  76 000b AF        		.byte	-81
  77               		.text
  78               	.Letext0:
  79               		.file 1 "/home/rene/xpcc/src/xpcc/architecture/driver/atomic.hpp"
  80               		.file 2 "/home/rene/xpcc/src/xpcc/architecture/driver/gpio.hpp"
  81               		.file 3 "/usr/lib/gcc/avr/4.7.2/include/stddef.h"
  82               		.file 4 "/home/rene/xpcc/src/stdc++/cstddef"
  83               		.file 5 "/home/rene/xpcc/src/xpcc/io/iodevice.hpp"
  84               		.file 6 "/home/rene/xpcc/src/xpcc/utils/template_metaprogramming.hpp"
  85               		.file 7 "/home/rene/xpcc/src/xpcc/driver/ui/display/dogx128.cpp"
  86               		.file 8 "<built-in>"
DEFINED SYMBOLS
                            *ABS*:0000000000000000 dogx128.cpp
     /tmp/ccKNjnt4.s:2      *ABS*:000000000000003e __SP_H__
     /tmp/ccKNjnt4.s:3      *ABS*:000000000000003d __SP_L__
     /tmp/ccKNjnt4.s:4      *ABS*:000000000000003f __SREG__
     /tmp/ccKNjnt4.s:5      *ABS*:0000000000000034 __CCP__
     /tmp/ccKNjnt4.s:6      *ABS*:0000000000000000 __tmp_reg__
     /tmp/ccKNjnt4.s:7      *ABS*:0000000000000001 __zero_reg__
     /tmp/ccKNjnt4.s:64     .progmem.data._ZN4xpcc6st756521configuration_dogx128E:0000000000000000 _ZN4xpcc6st756521configuration_dogx128E

NO UNDEFINED SYMBOLS
