   1               		.file	"graphic_display_fill.cpp"
   2               	__SP_H__ = 0x3e
   3               	__SP_L__ = 0x3d
   4               	__SREG__ = 0x3f
   5               	__CCP__ = 0x34
   6               	__tmp_reg__ = 0
   7               	__zero_reg__ = 1
   8               	 ;  GNU C++ (GCC) version 4.7.2 (avr)
   9               	 ; 	compiled by GNU C version 4.7.2, GMP version 5.0.5, MPFR version 3.1.0-p10, MPC version 0.9
  10               	 ;  warning: GMP header version 5.0.5 differs from library version 5.1.2.
  11               	 ;  warning: MPFR header version 3.1.0-p10 differs from library version 3.1.1-p2.
  12               	 ;  GGC heuristics: --param ggc-min-expand=100 --param ggc-min-heapsize=131072
  13               	 ;  options passed:  -I /home/rene/xpcc/src/stdc++ -I /home/rene/xpcc/src
  14               	 ;  -I /home/rene/xpcc/ext -I build/libxpcc -imultilib avrxmega2
  15               	 ;  -D BASENAME=graphic_display_fill.cpp -D F_CPU=16000000ul
  16               	 ;  /home/rene/xpcc/src/xpcc/driver/ui/display/graphic_display_fill.cpp
  17               	 ;  -mmcu=atxmega32a4
  18               	 ;  -auxbase-strip build/libxpcc/src/xpcc/driver/ui/display/graphic_display_fill.o
  19               	 ;  -gdwarf-2 -Os -Woverloaded-virtual -Wall -Wextra -Wundef -std=gnu++11
  20               	 ;  -fno-threadsafe-statics -fuse-cxa-atexit -funsigned-char
  21               	 ;  -funsigned-bitfields -fshort-enums -ffunction-sections -fdata-sections
  22               	 ;  -fno-split-wide-types -fno-move-loop-invariants -fno-tree-loop-optimize
  23               	 ;  -finline-limit=10000 -fverbose-asm -fno-rtti -fno-enforce-eh-specs
  24               	 ;  -fno-exceptions
  25               	 ;  options enabled:  -fauto-inc-dec -fbranch-count-reg -fcaller-saves
  26               	 ;  -fcombine-stack-adjustments -fcommon -fcompare-elim -fcprop-registers
  27               	 ;  -fcrossjumping -fcse-follow-jumps -fdata-sections -fdebug-types-section
  28               	 ;  -fdefer-pop -fdevirtualize -fearly-inlining
  29               	 ;  -feliminate-unused-debug-types -fexpensive-optimizations
  30               	 ;  -fforward-propagate -ffunction-cse -ffunction-sections -fgcse -fgcse-lm
  31               	 ;  -fgnu-runtime -fguess-branch-probability -fident -fif-conversion
  32               	 ;  -fif-conversion2 -findirect-inlining -finline -finline-atomics
  33               	 ;  -finline-functions -finline-functions-called-once
  34               	 ;  -finline-small-functions -fipa-cp -fipa-profile -fipa-pure-const
  35               	 ;  -fipa-reference -fipa-sra -fira-share-save-slots
  36               	 ;  -fira-share-spill-slots -fivopts -fkeep-static-consts
  37               	 ;  -fleading-underscore -fmath-errno -fmerge-constants
  38               	 ;  -fmerge-debug-strings -fomit-frame-pointer -foptimize-register-move
  39               	 ;  -foptimize-sibling-calls -fpartial-inlining -fpeephole -fpeephole2
  40               	 ;  -fprefetch-loop-arrays -freg-struct-return -fregmove -freorder-blocks
  41               	 ;  -freorder-functions -frerun-cse-after-loop
  42               	 ;  -fsched-critical-path-heuristic -fsched-dep-count-heuristic
  43               	 ;  -fsched-group-heuristic -fsched-interblock -fsched-last-insn-heuristic
  44               	 ;  -fsched-rank-heuristic -fsched-spec -fsched-spec-insn-heuristic
  45               	 ;  -fsched-stalled-insns-dep -fshow-column -fshrink-wrap -fsigned-zeros
  46               	 ;  -fsplit-ivs-in-unroller -fstrict-aliasing -fstrict-overflow
  47               	 ;  -fstrict-volatile-bitfields -fthread-jumps -ftoplevel-reorder
  48               	 ;  -ftrapping-math -ftree-bit-ccp -ftree-builtin-call-dce -ftree-ccp
  49               	 ;  -ftree-ch -ftree-copy-prop -ftree-copyrename -ftree-dce
  50               	 ;  -ftree-dominator-opts -ftree-dse -ftree-forwprop -ftree-fre
  51               	 ;  -ftree-loop-if-convert -ftree-loop-im -ftree-loop-ivcanon
  52               	 ;  -ftree-parallelize-loops= -ftree-phiprop -ftree-pre -ftree-pta
  53               	 ;  -ftree-reassoc -ftree-scev-cprop -ftree-sink -ftree-slp-vectorize
  54               	 ;  -ftree-sra -ftree-switch-conversion -ftree-tail-merge -ftree-ter
  55               	 ;  -ftree-vect-loop-version -ftree-vrp -funit-at-a-time -fvar-tracking
  56               	 ;  -fvar-tracking-assignments -fverbose-asm -fzero-initialized-in-bss
  57               	
  58               		.text
  59               	.Ltext0:
  60               		.section	.text._ZN4xpcc14GraphicDisplay13fillRectangleENS_6VectorIiLh2EEEjj,"ax",@progbits
  61               	.global	_ZN4xpcc14GraphicDisplay13fillRectangleENS_6VectorIiLh2EEEjj
  63               	_ZN4xpcc14GraphicDisplay13fillRectangleENS_6VectorIiLh2EEEjj:
  64               	.LFB1053:
  65               		.file 1 "/home/rene/xpcc/src/xpcc/driver/ui/display/graphic_display_fill.cpp"
   1:/home/rene/xpcc/src/xpcc/driver/ui/display/graphic_display_fill.cpp **** // coding: utf-8
   2:/home/rene/xpcc/src/xpcc/driver/ui/display/graphic_display_fill.cpp **** // ----------------------------------------------------------------------------
   3:/home/rene/xpcc/src/xpcc/driver/ui/display/graphic_display_fill.cpp **** /* Copyright (c) 2009, Roboterclub Aachen e.V.
   4:/home/rene/xpcc/src/xpcc/driver/ui/display/graphic_display_fill.cpp ****  * All rights reserved.
   5:/home/rene/xpcc/src/xpcc/driver/ui/display/graphic_display_fill.cpp ****  *
   6:/home/rene/xpcc/src/xpcc/driver/ui/display/graphic_display_fill.cpp ****  * Redistribution and use in source and binary forms, with or without
   7:/home/rene/xpcc/src/xpcc/driver/ui/display/graphic_display_fill.cpp ****  * modification, are permitted provided that the following conditions are met:
   8:/home/rene/xpcc/src/xpcc/driver/ui/display/graphic_display_fill.cpp ****  * 
   9:/home/rene/xpcc/src/xpcc/driver/ui/display/graphic_display_fill.cpp ****  *	 * Redistributions of source code must retain the above copyright
  10:/home/rene/xpcc/src/xpcc/driver/ui/display/graphic_display_fill.cpp ****  *	   notice, this list of conditions and the following disclaimer.
  11:/home/rene/xpcc/src/xpcc/driver/ui/display/graphic_display_fill.cpp ****  *	 * Redistributions in binary form must reproduce the above copyright
  12:/home/rene/xpcc/src/xpcc/driver/ui/display/graphic_display_fill.cpp ****  *	   notice, this list of conditions and the following disclaimer in the
  13:/home/rene/xpcc/src/xpcc/driver/ui/display/graphic_display_fill.cpp ****  *	   documentation and/or other materials provided with the distribution.
  14:/home/rene/xpcc/src/xpcc/driver/ui/display/graphic_display_fill.cpp ****  *	 * Neither the name of the Roboterclub Aachen e.V. nor the
  15:/home/rene/xpcc/src/xpcc/driver/ui/display/graphic_display_fill.cpp ****  *	   names of its contributors may be used to endorse or promote products
  16:/home/rene/xpcc/src/xpcc/driver/ui/display/graphic_display_fill.cpp ****  *	   derived from this software without specific prior written permission.
  17:/home/rene/xpcc/src/xpcc/driver/ui/display/graphic_display_fill.cpp ****  *
  18:/home/rene/xpcc/src/xpcc/driver/ui/display/graphic_display_fill.cpp ****  * THIS SOFTWARE IS PROVIDED BY ROBOTERCLUB AACHEN E.V. ''AS IS'' AND ANY
  19:/home/rene/xpcc/src/xpcc/driver/ui/display/graphic_display_fill.cpp ****  * EXPRESS OR IMPLIED WARRANTIES, INCLUDING, BUT NOT LIMITED TO, THE IMPLIED
  20:/home/rene/xpcc/src/xpcc/driver/ui/display/graphic_display_fill.cpp ****  * WARRANTIES OF MERCHANTABILITY AND FITNESS FOR A PARTICULAR PURPOSE ARE
  21:/home/rene/xpcc/src/xpcc/driver/ui/display/graphic_display_fill.cpp ****  * DISCLAIMED. IN NO EVENT SHALL ROBOTERCLUB AACHEN E.V. BE LIABLE FOR ANY
  22:/home/rene/xpcc/src/xpcc/driver/ui/display/graphic_display_fill.cpp ****  * DIRECT, INDIRECT, INCIDENTAL, SPECIAL, EXEMPLARY, OR CONSEQUENTIAL DAMAGES
  23:/home/rene/xpcc/src/xpcc/driver/ui/display/graphic_display_fill.cpp ****  * (INCLUDING, BUT NOT LIMITED TO, PROCUREMENT OF SUBSTITUTE GOODS OR SERVICES;
  24:/home/rene/xpcc/src/xpcc/driver/ui/display/graphic_display_fill.cpp ****  * LOSS OF USE, DATA, OR PROFITS; OR BUSINESS INTERRUPTION) HOWEVER CAUSED AND
  25:/home/rene/xpcc/src/xpcc/driver/ui/display/graphic_display_fill.cpp ****  * ON ANY THEORY OF LIABILITY, WHETHER IN CONTRACT, STRICT LIABILITY, OR TORT
  26:/home/rene/xpcc/src/xpcc/driver/ui/display/graphic_display_fill.cpp ****  * (INCLUDING NEGLIGENCE OR OTHERWISE) ARISING IN ANY WAY OUT OF THE USE OF
  27:/home/rene/xpcc/src/xpcc/driver/ui/display/graphic_display_fill.cpp ****  * THIS SOFTWARE, EVEN IF ADVISED OF THE POSSIBILITY OF SUCH DAMAGE.
  28:/home/rene/xpcc/src/xpcc/driver/ui/display/graphic_display_fill.cpp ****  */
  29:/home/rene/xpcc/src/xpcc/driver/ui/display/graphic_display_fill.cpp **** // ----------------------------------------------------------------------------
  30:/home/rene/xpcc/src/xpcc/driver/ui/display/graphic_display_fill.cpp **** 
  31:/home/rene/xpcc/src/xpcc/driver/ui/display/graphic_display_fill.cpp **** #include "graphic_display.hpp"
  32:/home/rene/xpcc/src/xpcc/driver/ui/display/graphic_display_fill.cpp **** 
  33:/home/rene/xpcc/src/xpcc/driver/ui/display/graphic_display_fill.cpp **** // ----------------------------------------------------------------------------
  34:/home/rene/xpcc/src/xpcc/driver/ui/display/graphic_display_fill.cpp **** void
  35:/home/rene/xpcc/src/xpcc/driver/ui/display/graphic_display_fill.cpp **** xpcc::GraphicDisplay::fillRectangle(glcd::Point upperLeft,
  36:/home/rene/xpcc/src/xpcc/driver/ui/display/graphic_display_fill.cpp **** 		uint16_t width, uint16_t height)
  37:/home/rene/xpcc/src/xpcc/driver/ui/display/graphic_display_fill.cpp **** {
  66               		.loc 1 37 0
  67               	.LVL0:
  68 0000 8F92      		push r8	 ; 
  69               	.LCFI0:
  70 0002 9F92      		push r9	 ; 
  71               	.LCFI1:
  72 0004 AF92      		push r10	 ; 
  73               	.LCFI2:
  74 0006 BF92      		push r11	 ; 
  75               	.LCFI3:
  76 0008 CF92      		push r12	 ; 
  77               	.LCFI4:
  78 000a DF92      		push r13	 ; 
  79               	.LCFI5:
  80 000c EF92      		push r14	 ; 
  81               	.LCFI6:
  82 000e FF92      		push r15	 ; 
  83               	.LCFI7:
  84 0010 0F93      		push r16	 ; 
  85               	.LCFI8:
  86 0012 1F93      		push r17	 ; 
  87               	.LCFI9:
  88 0014 CF93      		push r28	 ; 
  89               	.LCFI10:
  90 0016 DF93      		push r29	 ; 
  91               	.LCFI11:
  92               	/* prologue: function */
  93               	/* frame size = 0 */
  94               	/* stack size = 12 */
  95               	.L__stack_usage = 12
  96 0018 EC01      		movw r28,r24	 ;  this, this
  97 001a 6B01      		movw r12,r22	 ;  upperLeft, upperLeft
  98 001c 5A01      		movw r10,r20	 ;  width, width
  99 001e 4901      		movw r8,r18	 ;  height, height
 100               	.LVL1:
 101               	.LBB73:
  38:/home/rene/xpcc/src/xpcc/driver/ui/display/graphic_display_fill.cpp **** 	for (uint16_t i = upperLeft.getX();
 102               		.loc 1 38 0
 103 0020 FB01      		movw r30,r22	 ; , upperLeft
 104 0022 0081      		ld r16,Z	 ;  i, MEM[(const int &)upperLeft_6(D)]
 105 0024 1181      		ldd r17,Z+1	 ;  i, MEM[(const int &)upperLeft_6(D)]
 106               	.LVL2:
 107 0026 00C0      		rjmp .L2	 ; 
 108               	.LVL3:
 109               	.L11:
 110               	.LBB74:
  39:/home/rene/xpcc/src/xpcc/driver/ui/display/graphic_display_fill.cpp **** 			(i < upperLeft.getX() + width) && (i < getWidth());
  40:/home/rene/xpcc/src/xpcc/driver/ui/display/graphic_display_fill.cpp **** 			++i)
  41:/home/rene/xpcc/src/xpcc/driver/ui/display/graphic_display_fill.cpp **** 	{
  42:/home/rene/xpcc/src/xpcc/driver/ui/display/graphic_display_fill.cpp **** 		for (uint16_t k = upperLeft.getY();
  43:/home/rene/xpcc/src/xpcc/driver/ui/display/graphic_display_fill.cpp **** 				(k < upperLeft.getY() + height) && (k < getHeight());
  44:/home/rene/xpcc/src/xpcc/driver/ui/display/graphic_display_fill.cpp **** 				++k)
  45:/home/rene/xpcc/src/xpcc/driver/ui/display/graphic_display_fill.cpp **** 		{
  46:/home/rene/xpcc/src/xpcc/driver/ui/display/graphic_display_fill.cpp **** 			(this->*draw)(i, k);
 111               		.loc 1 46 0 discriminator 2
 112 0028 DE01      		movw r26,r28	 ;  tmp90, this
 113 002a A80F      		add r26,r24	 ;  tmp90, tmp108
 114 002c B91F      		adc r27,r25	 ;  tmp90, tmp108
 115 002e 0D90      		ld __tmp_reg__,X+	 ;  MEM[(int (*__vtbl_ptr_type) () * *)D.14388_44]
 116 0030 BC91      		ld r27,X	 ;  tmp93, MEM[(int (*__vtbl_ptr_type) () * *)D.14388_44]
 117 0032 A02D      		mov r26,__tmp_reg__	 ;  tmp93
 118 0034 AE0F      		add r26,r30	 ;  tmp93, this_15(D)->draw.__pfn
 119 0036 BF1F      		adc r27,r31	 ;  tmp93, this_15(D)->draw.__pfn
 120 0038 ED91      		ld r30,X+	 ;  iftmp.4
 121 003a FC91      		ld r31,X	 ;  iftmp.4
 122               	.L3:
 123               		.loc 1 46 0 is_stmt 0 discriminator 3
 124 003c A701      		movw r20,r14	 ; , k
 125 003e B801      		movw r22,r16	 ; , i
 126 0040 8C0F      		add r24,r28	 ; , this
 127 0042 9D1F      		adc r25,r29	 ; , this
 128 0044 0995      		icall
 129               	.LVL4:
  42:/home/rene/xpcc/src/xpcc/driver/ui/display/graphic_display_fill.cpp **** 		for (uint16_t k = upperLeft.getY();
 130               		.loc 1 42 0 is_stmt 1 discriminator 3
 131 0046 FFEF      		ldi r31,-1	 ; ,
 132 0048 EF1A      		sub r14,r31	 ;  k,
 133 004a FF0A      		sbc r15,r31	 ;  k,
 134               	.LVL5:
 135               	.L10:
  42:/home/rene/xpcc/src/xpcc/driver/ui/display/graphic_display_fill.cpp **** 		for (uint16_t k = upperLeft.getY();
 136               		.loc 1 42 0 is_stmt 0 discriminator 1
 137 004c F601      		movw r30,r12	 ; , upperLeft
 138 004e 8281      		ldd r24,Z+2	 ;  tmp98, MEM[(const int &)upperLeft_6(D) + 2]
 139 0050 9381      		ldd r25,Z+3	 ;  tmp98, MEM[(const int &)upperLeft_6(D) + 2]
 140 0052 880D      		add r24,r8	 ;  tmp98, height
 141 0054 991D      		adc r25,r9	 ;  tmp98, height
 142 0056 E816      		cp r14,r24	 ;  k, tmp98
 143 0058 F906      		cpc r15,r25	 ;  k, tmp98
 144 005a 00F4      		brsh .L4	 ; ,
  43:/home/rene/xpcc/src/xpcc/driver/ui/display/graphic_display_fill.cpp **** 				(k < upperLeft.getY() + height) && (k < getHeight());
 145               		.loc 1 43 0 is_stmt 1 discriminator 2
 146 005c E881      		ld r30,Y	 ;  this_15(D)->_vptr.GraphicDisplay, this_15(D)->_vptr.GraphicDisplay
 147 005e F981      		ldd r31,Y+1	 ;  this_15(D)->_vptr.GraphicDisplay, this_15(D)->_vptr.GraphicDisplay
 148 0060 0680      		ldd __tmp_reg__,Z+6	 ;  MEM[(int (*__vtbl_ptr_type) () *)D.14355_31 + 6B]
 149 0062 F781      		ldd r31,Z+7	 ;  MEM[(int (*__vtbl_ptr_type) () *)D.14355_31 + 6B], MEM[(int (*__vtbl_ptr_type) () 
 150 0064 E02D      		mov r30,__tmp_reg__	 ;  MEM[(int (*__vtbl_ptr_type) () *)D.14355_31 + 6B]
 151 0066 CE01      		movw r24,r28	 ; , this
 152 0068 0995      		icall
 153               	.LVL6:
  42:/home/rene/xpcc/src/xpcc/driver/ui/display/graphic_display_fill.cpp **** 		for (uint16_t k = upperLeft.getY();
 154               		.loc 1 42 0 discriminator 2
 155 006a E816      		cp r14,r24	 ;  k,
 156 006c F906      		cpc r15,r25	 ;  k,
 157 006e 00F0      		brlo .L5	 ; ,
 158 0070 00C0      		rjmp .L4	 ; 
 159               	.LVL7:
 160               	.L2:
 161               	.LBE74:
  38:/home/rene/xpcc/src/xpcc/driver/ui/display/graphic_display_fill.cpp **** 	for (uint16_t i = upperLeft.getX();
 162               		.loc 1 38 0 discriminator 1
 163 0072 F601      		movw r30,r12	 ; , upperLeft
 164 0074 8081      		ld r24,Z	 ;  tmp102, MEM[(const int &)upperLeft_6(D)]
 165 0076 9181      		ldd r25,Z+1	 ;  tmp102, MEM[(const int &)upperLeft_6(D)]
 166 0078 8A0D      		add r24,r10	 ;  tmp102, width
 167 007a 9B1D      		adc r25,r11	 ;  tmp102, width
 168 007c 0817      		cp r16,r24	 ;  i, tmp102
 169 007e 1907      		cpc r17,r25	 ;  i, tmp102
 170 0080 00F4      		brsh .L1	 ; ,
  39:/home/rene/xpcc/src/xpcc/driver/ui/display/graphic_display_fill.cpp **** 			(i < upperLeft.getX() + width) && (i < getWidth());
 171               		.loc 1 39 0 discriminator 2
 172 0082 E881      		ld r30,Y	 ;  this_15(D)->_vptr.GraphicDisplay, this_15(D)->_vptr.GraphicDisplay
 173 0084 F981      		ldd r31,Y+1	 ;  this_15(D)->_vptr.GraphicDisplay, this_15(D)->_vptr.GraphicDisplay
 174 0086 0480      		ldd __tmp_reg__,Z+4	 ;  MEM[(int (*__vtbl_ptr_type) () *)D.14355_16 + 4B]
 175 0088 F581      		ldd r31,Z+5	 ;  MEM[(int (*__vtbl_ptr_type) () *)D.14355_16 + 4B], MEM[(int (*__vtbl_ptr_type) () 
 176 008a E02D      		mov r30,__tmp_reg__	 ;  MEM[(int (*__vtbl_ptr_type) () *)D.14355_16 + 4B]
 177 008c CE01      		movw r24,r28	 ; , this
 178 008e 0995      		icall
 179               	.LVL8:
  38:/home/rene/xpcc/src/xpcc/driver/ui/display/graphic_display_fill.cpp **** 	for (uint16_t i = upperLeft.getX();
 180               		.loc 1 38 0 discriminator 2
 181 0090 0817      		cp r16,r24	 ;  i,
 182 0092 1907      		cpc r17,r25	 ;  i,
 183 0094 00F0      		brlo .L7	 ; ,
 184 0096 00C0      		rjmp .L1	 ; 
 185               	.LVL9:
 186               	.L5:
 187               	.LBB75:
 188               		.loc 1 46 0
 189 0098 2C85      		ldd r18,Y+12	 ;  D.14381, this_15(D)->draw.__delta
 190 009a 3D85      		ldd r19,Y+13	 ;  D.14381, this_15(D)->draw.__delta
 191 009c EA85      		ldd r30,Y+10	 ;  this_15(D)->draw.__pfn, this_15(D)->draw.__pfn
 192 009e FB85      		ldd r31,Y+11	 ;  this_15(D)->draw.__pfn, this_15(D)->draw.__pfn
 193 00a0 C901      		movw r24,r18	 ;  tmp108, D.14381
 194 00a2 9595      		asr r25	 ;  tmp108
 195 00a4 8795      		ror r24	 ;  tmp108
 196 00a6 20FF      		sbrs r18,0	 ;  D.14381,
 197 00a8 00C0      		rjmp .L3	 ; 
 198 00aa 00C0      		rjmp .L11	 ; 
 199               	.L4:
 200               	.LBE75:
  38:/home/rene/xpcc/src/xpcc/driver/ui/display/graphic_display_fill.cpp **** 	for (uint16_t i = upperLeft.getX();
 201               		.loc 1 38 0
 202 00ac 0F5F      		subi r16,-1	 ;  i,
 203 00ae 1F4F      		sbci r17,-1	 ;  i,
 204               	.LVL10:
 205 00b0 00C0      		rjmp .L2	 ; 
 206               	.LVL11:
 207               	.L7:
 208               	.LBB76:
  42:/home/rene/xpcc/src/xpcc/driver/ui/display/graphic_display_fill.cpp **** 		for (uint16_t k = upperLeft.getY();
 209               		.loc 1 42 0
 210 00b2 F601      		movw r30,r12	 ; , upperLeft
 211 00b4 E280      		ldd r14,Z+2	 ;  k, MEM[(const int &)upperLeft_6(D) + 2]
 212 00b6 F380      		ldd r15,Z+3	 ;  k, MEM[(const int &)upperLeft_6(D) + 2]
 213               	.LVL12:
 214 00b8 00C0      		rjmp .L10	 ; 
 215               	.LVL13:
 216               	.L1:
 217               	/* epilogue start */
 218               	.LBE76:
 219               	.LBE73:
  47:/home/rene/xpcc/src/xpcc/driver/ui/display/graphic_display_fill.cpp **** 		}
  48:/home/rene/xpcc/src/xpcc/driver/ui/display/graphic_display_fill.cpp **** 	}
  49:/home/rene/xpcc/src/xpcc/driver/ui/display/graphic_display_fill.cpp **** }
 220               		.loc 1 49 0
 221 00ba DF91      		pop r29	 ; 
 222 00bc CF91      		pop r28	 ; 
 223               	.LVL14:
 224 00be 1F91      		pop r17	 ; 
 225 00c0 0F91      		pop r16	 ; 
 226               	.LVL15:
 227 00c2 FF90      		pop r15	 ; 
 228 00c4 EF90      		pop r14	 ; 
 229 00c6 DF90      		pop r13	 ; 
 230 00c8 CF90      		pop r12	 ; 
 231               	.LVL16:
 232 00ca BF90      		pop r11	 ; 
 233 00cc AF90      		pop r10	 ; 
 234               	.LVL17:
 235 00ce 9F90      		pop r9	 ; 
 236 00d0 8F90      		pop r8	 ; 
 237               	.LVL18:
 238 00d2 0895      		ret
 239               	.LFE1053:
 241               		.section	.text._ZN4xpcc14GraphicDisplay10fillCircleENS_6VectorIiLh2EEEj,"ax",@progbits
 242               	.global	_ZN4xpcc14GraphicDisplay10fillCircleENS_6VectorIiLh2EEEj
 244               	_ZN4xpcc14GraphicDisplay10fillCircleENS_6VectorIiLh2EEEj:
 245               	.LFB1054:
  50:/home/rene/xpcc/src/xpcc/driver/ui/display/graphic_display_fill.cpp **** 
  51:/home/rene/xpcc/src/xpcc/driver/ui/display/graphic_display_fill.cpp **** void
  52:/home/rene/xpcc/src/xpcc/driver/ui/display/graphic_display_fill.cpp **** xpcc::GraphicDisplay::fillCircle(glcd::Point center, uint16_t radius)
  53:/home/rene/xpcc/src/xpcc/driver/ui/display/graphic_display_fill.cpp **** {
 246               		.loc 1 53 0
 247               	.LVL19:
 248 0000 2F92      		push r2	 ; 
 249               	.LCFI12:
 250 0002 3F92      		push r3	 ; 
 251               	.LCFI13:
 252 0004 4F92      		push r4	 ; 
 253               	.LCFI14:
 254 0006 5F92      		push r5	 ; 
 255               	.LCFI15:
 256 0008 6F92      		push r6	 ; 
 257               	.LCFI16:
 258 000a 7F92      		push r7	 ; 
 259               	.LCFI17:
 260 000c 8F92      		push r8	 ; 
 261               	.LCFI18:
 262 000e 9F92      		push r9	 ; 
 263               	.LCFI19:
 264 0010 AF92      		push r10	 ; 
 265               	.LCFI20:
 266 0012 BF92      		push r11	 ; 
 267               	.LCFI21:
 268 0014 CF92      		push r12	 ; 
 269               	.LCFI22:
 270 0016 DF92      		push r13	 ; 
 271               	.LCFI23:
 272 0018 EF92      		push r14	 ; 
 273               	.LCFI24:
 274 001a FF92      		push r15	 ; 
 275               	.LCFI25:
 276 001c 0F93      		push r16	 ; 
 277               	.LCFI26:
 278 001e 1F93      		push r17	 ; 
 279               	.LCFI27:
 280 0020 CF93      		push r28	 ; 
 281               	.LCFI28:
 282 0022 DF93      		push r29	 ; 
 283               	.LCFI29:
 284 0024 CDB7      		in r28,__SP_L__	 ; 
 285 0026 DEB7      		in r29,__SP_H__	 ; 
 286               	.LCFI30:
 287 0028 2697      		sbiw r28,6	 ; ,
 288               	.LCFI31:
 289 002a CDBF      		out __SP_L__,r28	 ; ,
 290 002c DEBF      		out __SP_H__,r29	 ; ,
 291               	/* prologue: function */
 292               	/* frame size = 6 */
 293               	/* stack size = 24 */
 294               	.L__stack_usage = 24
 295 002e 8C01      		movw r16,r24	 ;  this, this
 296 0030 7B01      		movw r14,r22	 ;  center, center
 297 0032 6A01      		movw r12,r20	 ;  radius, radius
 298               	.LBB77:
  54:/home/rene/xpcc/src/xpcc/driver/ui/display/graphic_display_fill.cpp **** 	int16_t f = 1 - radius;
 299               		.loc 1 54 0
 300 0034 8824      		clr r8	 ;  f
 301 0036 8394      		inc r8	 ;  f
 302 0038 912C      		mov r9,__zero_reg__	 ;  f
 303               	.LVL20:
 304 003a 841A      		sub r8,r20	 ;  f, radius
 305 003c 950A      		sbc r9,r21	 ;  f, radius
 306               	.LVL21:
  55:/home/rene/xpcc/src/xpcc/driver/ui/display/graphic_display_fill.cpp **** 	int16_t ddF_x = 0;
  56:/home/rene/xpcc/src/xpcc/driver/ui/display/graphic_display_fill.cpp **** 	int16_t ddF_y = -2 * radius;
 307               		.loc 1 56 0
 308 003e 6624      		clr r6	 ;  ddF_y
 309 0040 7724      		clr r7	 ;  ddF_y
 310 0042 641A      		sub r6,r20	 ;  ddF_y, radius
 311 0044 750A      		sbc r7,r21	 ;  ddF_y, radius
 312 0046 660C      		lsl r6	 ;  ddF_y
 313 0048 771C      		rol r7	 ;  ddF_y
 314               	.LVL22:
  57:/home/rene/xpcc/src/xpcc/driver/ui/display/graphic_display_fill.cpp **** 	uint16_t x = 0;
  58:/home/rene/xpcc/src/xpcc/driver/ui/display/graphic_display_fill.cpp **** 	uint16_t y = radius;
  59:/home/rene/xpcc/src/xpcc/driver/ui/display/graphic_display_fill.cpp **** 	
  60:/home/rene/xpcc/src/xpcc/driver/ui/display/graphic_display_fill.cpp **** 	this->drawVerticalLine(glcd::Point(center.getX(), center.getY() - radius), 2 * radius);
 315               		.loc 1 60 0
 316 004a DC01      		movw r26,r24	 ; , this
 317 004c ED91      		ld r30,X+	 ;  this_17(D)->_vptr.GraphicDisplay
 318 004e FC91      		ld r31,X	 ;  this_17(D)->_vptr.GraphicDisplay
 319 0050 0088      		ldd __tmp_reg__,Z+16	 ;  MEM[(int (*__vtbl_ptr_type) () *)D.14275_18 + 16B]
 320 0052 F189      		ldd r31,Z+17	 ;  D.14277, MEM[(int (*__vtbl_ptr_type) () *)D.14275_18 + 16B]
 321 0054 E02D      		mov r30,__tmp_reg__	 ;  D.14277
 322               	.LVL23:
 323 0056 D701      		movw r26,r14	 ; , center
 324 0058 1296      		adiw r26,2	 ;  MEM[(const int &)center_22(D) + 2]
 325 005a 8D91      		ld r24,X+	 ;  D.14196
 326 005c 9C91      		ld r25,X	 ;  D.14196
 327 005e 1397      		sbiw r26,2+1	 ;  MEM[(const int &)center_22(D) + 2]
 328               	.LVL24:
 329 0060 841B      		sub r24,r20	 ;  D.14196, radius
 330 0062 950B      		sbc r25,r21	 ;  D.14196, radius
 331               	.LVL25:
 332               	.LBB78:
 333               	.LBB79:
 334               		.file 2 "/home/rene/xpcc/src/xpcc/math/geometry/vector2_impl.hpp"
   1:/home/rene/xpcc/src/xpcc/math/geometry/vector2_impl.hpp **** // coding: utf-8
   2:/home/rene/xpcc/src/xpcc/math/geometry/vector2_impl.hpp **** // ----------------------------------------------------------------------------
   3:/home/rene/xpcc/src/xpcc/math/geometry/vector2_impl.hpp **** /* Copyright (c) 2011, Roboterclub Aachen e.V.
   4:/home/rene/xpcc/src/xpcc/math/geometry/vector2_impl.hpp ****  * All rights reserved.
   5:/home/rene/xpcc/src/xpcc/math/geometry/vector2_impl.hpp ****  *
   6:/home/rene/xpcc/src/xpcc/math/geometry/vector2_impl.hpp ****  * Redistribution and use in source and binary forms, with or without
   7:/home/rene/xpcc/src/xpcc/math/geometry/vector2_impl.hpp ****  * modification, are permitted provided that the following conditions are met:
   8:/home/rene/xpcc/src/xpcc/math/geometry/vector2_impl.hpp ****  *
   9:/home/rene/xpcc/src/xpcc/math/geometry/vector2_impl.hpp ****  *     * Redistributions of source code must retain the above copyright
  10:/home/rene/xpcc/src/xpcc/math/geometry/vector2_impl.hpp ****  *       notice, this list of conditions and the following disclaimer.
  11:/home/rene/xpcc/src/xpcc/math/geometry/vector2_impl.hpp ****  *     * Redistributions in binary form must reproduce the above copyright
  12:/home/rene/xpcc/src/xpcc/math/geometry/vector2_impl.hpp ****  *       notice, this list of conditions and the following disclaimer in the
  13:/home/rene/xpcc/src/xpcc/math/geometry/vector2_impl.hpp ****  *       documentation and/or other materials provided with the distribution.
  14:/home/rene/xpcc/src/xpcc/math/geometry/vector2_impl.hpp ****  *     * Neither the name of the Roboterclub Aachen e.V. nor the
  15:/home/rene/xpcc/src/xpcc/math/geometry/vector2_impl.hpp ****  *       names of its contributors may be used to endorse or promote products
  16:/home/rene/xpcc/src/xpcc/math/geometry/vector2_impl.hpp ****  *       derived from this software without specific prior written permission.
  17:/home/rene/xpcc/src/xpcc/math/geometry/vector2_impl.hpp ****  *
  18:/home/rene/xpcc/src/xpcc/math/geometry/vector2_impl.hpp ****  * THIS SOFTWARE IS PROVIDED BY ROBOTERCLUB AACHEN E.V. ''AS IS'' AND ANY
  19:/home/rene/xpcc/src/xpcc/math/geometry/vector2_impl.hpp ****  * EXPRESS OR IMPLIED WARRANTIES, INCLUDING, BUT NOT LIMITED TO, THE IMPLIED
  20:/home/rene/xpcc/src/xpcc/math/geometry/vector2_impl.hpp ****  * WARRANTIES OF MERCHANTABILITY AND FITNESS FOR A PARTICULAR PURPOSE ARE
  21:/home/rene/xpcc/src/xpcc/math/geometry/vector2_impl.hpp ****  * DISCLAIMED. IN NO EVENT SHALL ROBOTERCLUB AACHEN E.V. BE LIABLE FOR ANY
  22:/home/rene/xpcc/src/xpcc/math/geometry/vector2_impl.hpp ****  * DIRECT, INDIRECT, INCIDENTAL, SPECIAL, EXEMPLARY, OR CONSEQUENTIAL DAMAGES
  23:/home/rene/xpcc/src/xpcc/math/geometry/vector2_impl.hpp ****  * (INCLUDING, BUT NOT LIMITED TO, PROCUREMENT OF SUBSTITUTE GOODS OR SERVICES;
  24:/home/rene/xpcc/src/xpcc/math/geometry/vector2_impl.hpp ****  * LOSS OF USE, DATA, OR PROFITS; OR BUSINESS INTERRUPTION) HOWEVER CAUSED AND
  25:/home/rene/xpcc/src/xpcc/math/geometry/vector2_impl.hpp ****  * ON ANY THEORY OF LIABILITY, WHETHER IN CONTRACT, STRICT LIABILITY, OR TORT
  26:/home/rene/xpcc/src/xpcc/math/geometry/vector2_impl.hpp ****  * (INCLUDING NEGLIGENCE OR OTHERWISE) ARISING IN ANY WAY OUT OF THE USE OF
  27:/home/rene/xpcc/src/xpcc/math/geometry/vector2_impl.hpp ****  * THIS SOFTWARE, EVEN IF ADVISED OF THE POSSIBILITY OF SUCH DAMAGE.
  28:/home/rene/xpcc/src/xpcc/math/geometry/vector2_impl.hpp ****  */
  29:/home/rene/xpcc/src/xpcc/math/geometry/vector2_impl.hpp **** // ----------------------------------------------------------------------------
  30:/home/rene/xpcc/src/xpcc/math/geometry/vector2_impl.hpp **** 
  31:/home/rene/xpcc/src/xpcc/math/geometry/vector2_impl.hpp **** #ifndef XPCC__VECTOR2_HPP
  32:/home/rene/xpcc/src/xpcc/math/geometry/vector2_impl.hpp **** 	#error	"Don't include this file directly, use 'vector2.hpp' instead!"
  33:/home/rene/xpcc/src/xpcc/math/geometry/vector2_impl.hpp **** #endif
  34:/home/rene/xpcc/src/xpcc/math/geometry/vector2_impl.hpp **** 
  35:/home/rene/xpcc/src/xpcc/math/geometry/vector2_impl.hpp **** #include <cmath>
  36:/home/rene/xpcc/src/xpcc/math/geometry/vector2_impl.hpp **** 
  37:/home/rene/xpcc/src/xpcc/math/geometry/vector2_impl.hpp **** // ----------------------------------------------------------------------------
  38:/home/rene/xpcc/src/xpcc/math/geometry/vector2_impl.hpp **** template<typename T>
  39:/home/rene/xpcc/src/xpcc/math/geometry/vector2_impl.hpp **** xpcc::Vector<T, 2>::Vector() :
  40:/home/rene/xpcc/src/xpcc/math/geometry/vector2_impl.hpp **** 	x(),
  41:/home/rene/xpcc/src/xpcc/math/geometry/vector2_impl.hpp **** 	y()
  42:/home/rene/xpcc/src/xpcc/math/geometry/vector2_impl.hpp **** {
  43:/home/rene/xpcc/src/xpcc/math/geometry/vector2_impl.hpp **** }
  44:/home/rene/xpcc/src/xpcc/math/geometry/vector2_impl.hpp **** 
  45:/home/rene/xpcc/src/xpcc/math/geometry/vector2_impl.hpp **** // ----------------------------------------------------------------------------
  46:/home/rene/xpcc/src/xpcc/math/geometry/vector2_impl.hpp **** template<typename T>
  47:/home/rene/xpcc/src/xpcc/math/geometry/vector2_impl.hpp **** xpcc::Vector<T, 2>::Vector(const T& inX, const T& inY) :
  48:/home/rene/xpcc/src/xpcc/math/geometry/vector2_impl.hpp **** 	x(inX),
  49:/home/rene/xpcc/src/xpcc/math/geometry/vector2_impl.hpp **** 	y(inY)
 335               		.loc 2 49 0
 336 0064 2D91      		ld r18,X+	 ;  MEM[(const int &)center_22(D)]
 337 0066 3C91      		ld r19,X	 ;  MEM[(const int &)center_22(D)]
 338 0068 2983      		std Y+1,r18	 ;  D.14197.x, MEM[(const int &)center_22(D)]
 339 006a 3A83      		std Y+2,r19	 ;  D.14197.x, MEM[(const int &)center_22(D)]
 340 006c 8B83      		std Y+3,r24	 ;  D.14197.y, D.14196
 341 006e 9C83      		std Y+4,r25	 ;  D.14197.y, D.14196
 342               	.LBE79:
 343               	.LBE78:
 344               		.loc 1 60 0
 345 0070 440F      		lsl r20	 ;  tmp113
 346 0072 551F      		rol r21	 ;  tmp113
 347               	.LVL26:
 348 0074 BE01      		movw r22,r28	 ; ,
 349 0076 6F5F      		subi r22,-1	 ; ,
 350 0078 7F4F      		sbci r23,-1	 ; ,
 351 007a C801      		movw r24,r16	 ; , this
 352 007c 0995      		icall
 353               	.LVL27:
  57:/home/rene/xpcc/src/xpcc/driver/ui/display/graphic_display_fill.cpp **** 	uint16_t x = 0;
 354               		.loc 1 57 0
 355 007e A12C      		mov r10,__zero_reg__	 ;  x
 356 0080 B12C      		mov r11,__zero_reg__	 ;  x
  55:/home/rene/xpcc/src/xpcc/driver/ui/display/graphic_display_fill.cpp **** 	int16_t ddF_x = 0;
 357               		.loc 1 55 0
 358 0082 80E0      		ldi r24,0	 ;  ddF_x
 359 0084 90E0      		ldi r25,0	 ;  ddF_x
  61:/home/rene/xpcc/src/xpcc/driver/ui/display/graphic_display_fill.cpp **** 	
  62:/home/rene/xpcc/src/xpcc/driver/ui/display/graphic_display_fill.cpp **** 	while(x < y)
 360               		.loc 1 62 0
 361 0086 00C0      		rjmp .L13	 ; 
 362               	.LVL28:
 363               	.L15:
  63:/home/rene/xpcc/src/xpcc/driver/ui/display/graphic_display_fill.cpp **** 	{
  64:/home/rene/xpcc/src/xpcc/driver/ui/display/graphic_display_fill.cpp **** 		if (f >= 0)
 364               		.loc 1 64 0
 365 0088 97FC      		sbrc r9,7	 ;  f,
 366 008a 00C0      		rjmp .L14	 ; 
  65:/home/rene/xpcc/src/xpcc/driver/ui/display/graphic_display_fill.cpp **** 		{
  66:/home/rene/xpcc/src/xpcc/driver/ui/display/graphic_display_fill.cpp **** 			y--;
 367               		.loc 1 66 0
 368 008c B1E0      		ldi r27,1	 ; ,
 369 008e CB1A      		sub r12,r27	 ;  y,
 370 0090 D108      		sbc r13,__zero_reg__	 ;  y
 371               	.LVL29:
  67:/home/rene/xpcc/src/xpcc/driver/ui/display/graphic_display_fill.cpp **** 			ddF_y += 2;
 372               		.loc 1 67 0
 373 0092 22E0      		ldi r18,2	 ; ,
 374 0094 620E      		add r6,r18	 ;  ddF_y,
 375 0096 711C      		adc r7,__zero_reg__	 ;  ddF_y
 376               	.LVL30:
  68:/home/rene/xpcc/src/xpcc/driver/ui/display/graphic_display_fill.cpp **** 			f += ddF_y;
 377               		.loc 1 68 0
 378 0098 860C      		add r8,r6	 ;  f, ddF_y
 379 009a 971C      		adc r9,r7	 ;  f, ddF_y
 380               	.LVL31:
 381               	.L14:
  69:/home/rene/xpcc/src/xpcc/driver/ui/display/graphic_display_fill.cpp **** 		}
  70:/home/rene/xpcc/src/xpcc/driver/ui/display/graphic_display_fill.cpp **** 		x++;
 382               		.loc 1 70 0
 383 009c AFEF      		ldi r26,-1	 ; ,
 384 009e AA1A      		sub r10,r26	 ;  x,
 385 00a0 BA0A      		sbc r11,r26	 ;  x,
 386               	.LVL32:
  71:/home/rene/xpcc/src/xpcc/driver/ui/display/graphic_display_fill.cpp **** 		ddF_x += 2;
 387               		.loc 1 71 0
 388 00a2 9C01      		movw r18,r24	 ;  ddF_x, ddF_x
 389 00a4 2E5F      		subi r18,-2	 ;  ddF_x,
 390 00a6 3F4F      		sbci r19,-1	 ;  ddF_x,
 391               	.LVL33:
  72:/home/rene/xpcc/src/xpcc/driver/ui/display/graphic_display_fill.cpp **** 		f += ddF_x + 1;
 392               		.loc 1 72 0
 393 00a8 0396      		adiw r24,3	 ;  tmp114,
 394 00aa 880E      		add r8,r24	 ;  f, tmp114
 395 00ac 991E      		adc r9,r25	 ;  f, tmp114
 396               	.LVL34:
  73:/home/rene/xpcc/src/xpcc/driver/ui/display/graphic_display_fill.cpp **** 		
  74:/home/rene/xpcc/src/xpcc/driver/ui/display/graphic_display_fill.cpp **** 		this->drawVerticalLine(glcd::Point(center.getX() + x, center.getY() - y), 2 * y);
 397               		.loc 1 74 0
 398 00ae D801      		movw r26,r16	 ; , this
 399 00b0 ED91      		ld r30,X+	 ;  this_17(D)->_vptr.GraphicDisplay
 400 00b2 FC91      		ld r31,X	 ;  this_17(D)->_vptr.GraphicDisplay
 401 00b4 0088      		ldd __tmp_reg__,Z+16	 ;  MEM[(int (*__vtbl_ptr_type) () *)D.14275_37 + 16B]
 402 00b6 F189      		ldd r31,Z+17	 ;  D.14277, MEM[(int (*__vtbl_ptr_type) () *)D.14275_37 + 16B]
 403 00b8 E02D      		mov r30,__tmp_reg__	 ;  D.14277
 404 00ba 2601      		movw r4,r12	 ;  D.14293, y
 405 00bc 440C      		lsl r4	 ;  D.14293
 406 00be 551C      		rol r5	 ;  D.14293
 407               	.LVL35:
 408 00c0 D701      		movw r26,r14	 ; , center
 409 00c2 1296      		adiw r26,2	 ;  MEM[(const int &)center_22(D) + 2]
 410 00c4 8D91      		ld r24,X+	 ;  D.14199
 411 00c6 9C91      		ld r25,X	 ;  D.14199
 412 00c8 1397      		sbiw r26,2+1	 ;  MEM[(const int &)center_22(D) + 2]
 413 00ca 8C19      		sub r24,r12	 ;  D.14199, y
 414 00cc 9D09      		sbc r25,r13	 ;  D.14199, y
 415               	.LVL36:
 416 00ce 4D91      		ld r20,X+	 ;  tmp117
 417 00d0 5C91      		ld r21,X	 ;  tmp117
 418 00d2 4A0D      		add r20,r10	 ;  tmp117, x
 419 00d4 5B1D      		adc r21,r11	 ;  tmp117, x
 420               	.LBB80:
 421               	.LBB81:
 422               		.loc 2 49 0
 423 00d6 4983      		std Y+1,r20	 ;  D.14200.x, tmp117
 424 00d8 5A83      		std Y+2,r21	 ;  D.14200.x, tmp117
 425 00da 8B83      		std Y+3,r24	 ;  D.14200.y, D.14199
 426 00dc 9C83      		std Y+4,r25	 ;  D.14200.y, D.14199
 427               	.LBE81:
 428               	.LBE80:
 429               		.loc 1 74 0
 430 00de A201      		movw r20,r4	 ; , D.14293
 431 00e0 BE01      		movw r22,r28	 ; ,
 432 00e2 6F5F      		subi r22,-1	 ; ,
 433 00e4 7F4F      		sbci r23,-1	 ; ,
 434 00e6 C801      		movw r24,r16	 ; , this
 435 00e8 2D83      		std Y+5,r18	 ; ,
 436 00ea 3E83      		std Y+6,r19	 ; ,
 437 00ec 0995      		icall
 438               	.LVL37:
  75:/home/rene/xpcc/src/xpcc/driver/ui/display/graphic_display_fill.cpp **** 		this->drawVerticalLine(glcd::Point(center.getX() + y, center.getY() - x), 2 * x);
 439               		.loc 1 75 0
 440 00ee D801      		movw r26,r16	 ; , this
 441 00f0 ED91      		ld r30,X+	 ;  this_17(D)->_vptr.GraphicDisplay
 442 00f2 FC91      		ld r31,X	 ;  this_17(D)->_vptr.GraphicDisplay
 443 00f4 0088      		ldd __tmp_reg__,Z+16	 ;  MEM[(int (*__vtbl_ptr_type) () *)D.14275_51 + 16B]
 444 00f6 F189      		ldd r31,Z+17	 ;  D.14277, MEM[(int (*__vtbl_ptr_type) () *)D.14275_51 + 16B]
 445 00f8 E02D      		mov r30,__tmp_reg__	 ;  D.14277
 446 00fa 1501      		movw r2,r10	 ;  D.14304, x
 447 00fc 220C      		lsl r2	 ;  D.14304
 448 00fe 331C      		rol r3	 ;  D.14304
 449               	.LVL38:
 450 0100 D701      		movw r26,r14	 ; , center
 451 0102 1296      		adiw r26,2	 ;  MEM[(const int &)center_22(D) + 2]
 452 0104 8D91      		ld r24,X+	 ;  D.14202
 453 0106 9C91      		ld r25,X	 ;  D.14202
 454 0108 1397      		sbiw r26,2+1	 ;  MEM[(const int &)center_22(D) + 2]
 455 010a 8A19      		sub r24,r10	 ;  D.14202, x
 456 010c 9B09      		sbc r25,r11	 ;  D.14202, x
 457               	.LVL39:
 458 010e 4D91      		ld r20,X+	 ;  tmp121
 459 0110 5C91      		ld r21,X	 ;  tmp121
 460 0112 4C0D      		add r20,r12	 ;  tmp121, y
 461 0114 5D1D      		adc r21,r13	 ;  tmp121, y
 462               	.LBB82:
 463               	.LBB83:
 464               		.loc 2 49 0
 465 0116 4983      		std Y+1,r20	 ;  D.14203.x, tmp121
 466 0118 5A83      		std Y+2,r21	 ;  D.14203.x, tmp121
 467 011a 8B83      		std Y+3,r24	 ;  D.14203.y, D.14202
 468 011c 9C83      		std Y+4,r25	 ;  D.14203.y, D.14202
 469               	.LBE83:
 470               	.LBE82:
 471               		.loc 1 75 0
 472 011e A101      		movw r20,r2	 ; , D.14304
 473 0120 BE01      		movw r22,r28	 ; ,
 474 0122 6F5F      		subi r22,-1	 ; ,
 475 0124 7F4F      		sbci r23,-1	 ; ,
 476 0126 C801      		movw r24,r16	 ; , this
 477 0128 0995      		icall
 478               	.LVL40:
  76:/home/rene/xpcc/src/xpcc/driver/ui/display/graphic_display_fill.cpp **** 		this->drawVerticalLine(glcd::Point(center.getX() - x, center.getY() - y), 2 * y);
 479               		.loc 1 76 0
 480 012a D801      		movw r26,r16	 ; , this
 481 012c ED91      		ld r30,X+	 ;  this_17(D)->_vptr.GraphicDisplay
 482 012e FC91      		ld r31,X	 ;  this_17(D)->_vptr.GraphicDisplay
 483 0130 0088      		ldd __tmp_reg__,Z+16	 ;  MEM[(int (*__vtbl_ptr_type) () *)D.14275_65 + 16B]
 484 0132 F189      		ldd r31,Z+17	 ;  D.14277, MEM[(int (*__vtbl_ptr_type) () *)D.14275_65 + 16B]
 485 0134 E02D      		mov r30,__tmp_reg__	 ;  D.14277
 486               	.LVL41:
 487 0136 D701      		movw r26,r14	 ; , center
 488 0138 1296      		adiw r26,2	 ;  MEM[(const int &)center_22(D) + 2]
 489 013a 8D91      		ld r24,X+	 ;  D.14205
 490 013c 9C91      		ld r25,X	 ;  D.14205
 491 013e 1397      		sbiw r26,2+1	 ;  MEM[(const int &)center_22(D) + 2]
 492 0140 8C19      		sub r24,r12	 ;  D.14205, y
 493 0142 9D09      		sbc r25,r13	 ;  D.14205, y
 494               	.LVL42:
 495 0144 4D91      		ld r20,X+	 ;  tmp125
 496 0146 5C91      		ld r21,X	 ;  tmp125
 497 0148 4A19      		sub r20,r10	 ;  tmp125, x
 498 014a 5B09      		sbc r21,r11	 ;  tmp125, x
 499               	.LBB84:
 500               	.LBB85:
 501               		.loc 2 49 0
 502 014c 4983      		std Y+1,r20	 ;  D.14206.x, tmp125
 503 014e 5A83      		std Y+2,r21	 ;  D.14206.x, tmp125
 504 0150 8B83      		std Y+3,r24	 ;  D.14206.y, D.14205
 505 0152 9C83      		std Y+4,r25	 ;  D.14206.y, D.14205
 506               	.LBE85:
 507               	.LBE84:
 508               		.loc 1 76 0
 509 0154 A201      		movw r20,r4	 ; , D.14293
 510 0156 BE01      		movw r22,r28	 ; ,
 511 0158 6F5F      		subi r22,-1	 ; ,
 512 015a 7F4F      		sbci r23,-1	 ; ,
 513 015c C801      		movw r24,r16	 ; , this
 514 015e 0995      		icall
 515               	.LVL43:
  77:/home/rene/xpcc/src/xpcc/driver/ui/display/graphic_display_fill.cpp **** 		this->drawVerticalLine(glcd::Point(center.getX() - y, center.getY() - x), 2 * x);
 516               		.loc 1 77 0
 517 0160 D801      		movw r26,r16	 ; , this
 518 0162 ED91      		ld r30,X+	 ;  this_17(D)->_vptr.GraphicDisplay
 519 0164 FC91      		ld r31,X	 ;  this_17(D)->_vptr.GraphicDisplay
 520 0166 0088      		ldd __tmp_reg__,Z+16	 ;  MEM[(int (*__vtbl_ptr_type) () *)D.14275_79 + 16B]
 521 0168 F189      		ldd r31,Z+17	 ;  D.14277, MEM[(int (*__vtbl_ptr_type) () *)D.14275_79 + 16B]
 522 016a E02D      		mov r30,__tmp_reg__	 ;  D.14277
 523               	.LVL44:
 524 016c D701      		movw r26,r14	 ; , center
 525 016e 1296      		adiw r26,2	 ;  MEM[(const int &)center_22(D) + 2]
 526 0170 8D91      		ld r24,X+	 ;  D.14208
 527 0172 9C91      		ld r25,X	 ;  D.14208
 528 0174 1397      		sbiw r26,2+1	 ;  MEM[(const int &)center_22(D) + 2]
 529 0176 8A19      		sub r24,r10	 ;  D.14208, x
 530 0178 9B09      		sbc r25,r11	 ;  D.14208, x
 531               	.LVL45:
 532 017a 4D91      		ld r20,X+	 ;  tmp129
 533 017c 5C91      		ld r21,X	 ;  tmp129
 534 017e 4C19      		sub r20,r12	 ;  tmp129, y
 535 0180 5D09      		sbc r21,r13	 ;  tmp129, y
 536               	.LBB86:
 537               	.LBB87:
 538               		.loc 2 49 0
 539 0182 4983      		std Y+1,r20	 ;  D.14209.x, tmp129
 540 0184 5A83      		std Y+2,r21	 ;  D.14209.x, tmp129
 541 0186 8B83      		std Y+3,r24	 ;  D.14209.y, D.14208
 542 0188 9C83      		std Y+4,r25	 ;  D.14209.y, D.14208
 543               	.LBE87:
 544               	.LBE86:
 545               		.loc 1 77 0
 546 018a A101      		movw r20,r2	 ; , D.14304
 547 018c BE01      		movw r22,r28	 ; ,
 548 018e 6F5F      		subi r22,-1	 ; ,
 549 0190 7F4F      		sbci r23,-1	 ; ,
 550 0192 C801      		movw r24,r16	 ; , this
 551 0194 0995      		icall
 552               	.LVL46:
  71:/home/rene/xpcc/src/xpcc/driver/ui/display/graphic_display_fill.cpp **** 		ddF_x += 2;
 553               		.loc 1 71 0
 554 0196 2D81      		ldd r18,Y+5	 ; ,
 555 0198 3E81      		ldd r19,Y+6	 ; ,
 556 019a C901      		movw r24,r18	 ;  ddF_x, ddF_x
 557               	.LVL47:
 558               	.L13:
  62:/home/rene/xpcc/src/xpcc/driver/ui/display/graphic_display_fill.cpp **** 	while(x < y)
 559               		.loc 1 62 0 discriminator 1
 560 019c AC14      		cp r10,r12	 ;  x, y
 561 019e BD04      		cpc r11,r13	 ;  x, y
 562 01a0 00F4      		brsh .+2	 ; 
 563 01a2 00C0      		rjmp .L15	 ; 
 564               	/* epilogue start */
 565               	.LBE77:
  78:/home/rene/xpcc/src/xpcc/driver/ui/display/graphic_display_fill.cpp **** 	}
  79:/home/rene/xpcc/src/xpcc/driver/ui/display/graphic_display_fill.cpp **** }
 566               		.loc 1 79 0
 567 01a4 2696      		adiw r28,6	 ; ,
 568 01a6 CDBF      		out __SP_L__,r28	 ; ,
 569 01a8 DEBF      		out __SP_H__,r29	 ; ,
 570 01aa DF91      		pop r29	 ; 
 571 01ac CF91      		pop r28	 ; 
 572 01ae 1F91      		pop r17	 ; 
 573 01b0 0F91      		pop r16	 ; 
 574               	.LVL48:
 575 01b2 FF90      		pop r15	 ; 
 576 01b4 EF90      		pop r14	 ; 
 577               	.LVL49:
 578 01b6 DF90      		pop r13	 ; 
 579 01b8 CF90      		pop r12	 ; 
 580               	.LVL50:
 581 01ba BF90      		pop r11	 ; 
 582 01bc AF90      		pop r10	 ; 
 583               	.LVL51:
 584 01be 9F90      		pop r9	 ; 
 585 01c0 8F90      		pop r8	 ; 
 586               	.LVL52:
 587 01c2 7F90      		pop r7	 ; 
 588 01c4 6F90      		pop r6	 ; 
 589               	.LVL53:
 590 01c6 5F90      		pop r5	 ; 
 591 01c8 4F90      		pop r4	 ; 
 592 01ca 3F90      		pop r3	 ; 
 593 01cc 2F90      		pop r2	 ; 
 594 01ce 0895      		ret
 595               	.LFE1054:
 819               	.Letext0:
 820               		.file 3 "/usr/lib/gcc/avr/4.7.2/include/stddef.h"
 821               		.file 4 "/home/rene/xpcc/src/stdc++/cstddef"
 822               		.file 5 "/home/rene/xpcc/src/stdc++/cmath"
 823               		.file 6 "/home/rene/xpcc/src/stdc++/cstdlib"
 824               		.file 7 "/usr/lib/gcc/avr/4.7.2/../../../avr/include/stdint.h"
 825               		.file 8 "/home/rene/xpcc/src/xpcc/driver/ui/display/graphic_display.hpp"
 826               		.file 9 "/home/rene/xpcc/src/xpcc/math/geometry/geometric_traits.hpp"
 827               		.file 10 "/home/rene/xpcc/src/xpcc/math/geometry/vector2.hpp"
 828               		.file 11 "/home/rene/xpcc/src/xpcc/io/iodevice.hpp"
 829               		.file 12 "/home/rene/xpcc/src/xpcc/math/geometry/vector1.hpp"
 830               		.file 13 "/home/rene/xpcc/src/xpcc/math/geometry/vector1_impl.hpp"
 831               		.file 14 "/home/rene/xpcc/src/xpcc/math/matrix.hpp"
 832               		.file 15 "/home/rene/xpcc/src/xpcc/math/matrix_impl.hpp"
 833               		.file 16 "/home/rene/xpcc/src/xpcc/architecture/driver/accessor/ram.hpp"
 834               		.file 17 "/usr/lib/gcc/avr/4.7.2/../../../avr/include/math.h"
 835               		.file 18 "/usr/lib/gcc/avr/4.7.2/../../../avr/include/stdlib.h"
 836               		.file 19 "<built-in>"
 837               		.file 20 "/home/rene/xpcc/src/xpcc/utils/template_metaprogramming.hpp"
DEFINED SYMBOLS
                            *ABS*:0000000000000000 graphic_display_fill.cpp
     /tmp/ccLlGNvn.s:2      *ABS*:000000000000003e __SP_H__
     /tmp/ccLlGNvn.s:3      *ABS*:000000000000003d __SP_L__
     /tmp/ccLlGNvn.s:4      *ABS*:000000000000003f __SREG__
     /tmp/ccLlGNvn.s:5      *ABS*:0000000000000034 __CCP__
     /tmp/ccLlGNvn.s:6      *ABS*:0000000000000000 __tmp_reg__
     /tmp/ccLlGNvn.s:7      *ABS*:0000000000000001 __zero_reg__
     /tmp/ccLlGNvn.s:63     .text._ZN4xpcc14GraphicDisplay13fillRectangleENS_6VectorIiLh2EEEjj:0000000000000000 _ZN4xpcc14GraphicDisplay13fillRectangleENS_6VectorIiLh2EEEjj
     /tmp/ccLlGNvn.s:244    .text._ZN4xpcc14GraphicDisplay10fillCircleENS_6VectorIiLh2EEEj:0000000000000000 _ZN4xpcc14GraphicDisplay10fillCircleENS_6VectorIiLh2EEEj

NO UNDEFINED SYMBOLS
