   1               		.file	"uart_c1.cpp"
   2               	__SP_H__ = 0x3e
   3               	__SP_L__ = 0x3d
   4               	__SREG__ = 0x3f
   5               	__CCP__ = 0x34
   6               	__tmp_reg__ = 0
   7               	__zero_reg__ = 1
   8               	 ;  GNU C++ (GCC) version 4.7.2 (avr)
   9               	 ; 	compiled by GNU C version 4.7.2, GMP version 5.0.5, MPFR version 3.1.0-p10, MPC version 0.9
  10               	 ;  warning: GMP header version 5.0.5 differs from library version 5.1.2.
  11               	 ;  warning: MPFR header version 3.1.0-p10 differs from library version 3.1.1-p2.
  12               	 ;  GGC heuristics: --param ggc-min-expand=100 --param ggc-min-heapsize=131072
  13               	 ;  options passed:  -I /home/rene/xpcc/src/stdc++ -I /home/rene/xpcc/src
  14               	 ;  -I /home/rene/xpcc/ext -I build/libxpcc -imultilib avrxmega2
  15               	 ;  -D BASENAME=uart_c1.cpp -D F_CPU=16000000ul
  16               	 ;  /home/rene/xpcc/src/xpcc/architecture/platform/avr/atxmega/uart/uart_c1.cpp
  17               	 ;  -mmcu=atxmega32a4
  18               	 ;  -auxbase-strip build/libxpcc/src/xpcc/architecture/platform/avr/atxmega/uart/uart_c1.o
  19               	 ;  -gdwarf-2 -Os -Woverloaded-virtual -Wall -Wextra -Wundef -std=gnu++11
  20               	 ;  -fno-threadsafe-statics -fuse-cxa-atexit -funsigned-char
  21               	 ;  -funsigned-bitfields -fshort-enums -ffunction-sections -fdata-sections
  22               	 ;  -fno-split-wide-types -fno-move-loop-invariants -fno-tree-loop-optimize
  23               	 ;  -finline-limit=10000 -fverbose-asm -fno-rtti -fno-enforce-eh-specs
  24               	 ;  -fno-exceptions
  25               	 ;  options enabled:  -fauto-inc-dec -fbranch-count-reg -fcaller-saves
  26               	 ;  -fcombine-stack-adjustments -fcommon -fcompare-elim -fcprop-registers
  27               	 ;  -fcrossjumping -fcse-follow-jumps -fdata-sections -fdebug-types-section
  28               	 ;  -fdefer-pop -fdevirtualize -fearly-inlining
  29               	 ;  -feliminate-unused-debug-types -fexpensive-optimizations
  30               	 ;  -fforward-propagate -ffunction-cse -ffunction-sections -fgcse -fgcse-lm
  31               	 ;  -fgnu-runtime -fguess-branch-probability -fident -fif-conversion
  32               	 ;  -fif-conversion2 -findirect-inlining -finline -finline-atomics
  33               	 ;  -finline-functions -finline-functions-called-once
  34               	 ;  -finline-small-functions -fipa-cp -fipa-profile -fipa-pure-const
  35               	 ;  -fipa-reference -fipa-sra -fira-share-save-slots
  36               	 ;  -fira-share-spill-slots -fivopts -fkeep-static-consts
  37               	 ;  -fleading-underscore -fmath-errno -fmerge-constants
  38               	 ;  -fmerge-debug-strings -fomit-frame-pointer -foptimize-register-move
  39               	 ;  -foptimize-sibling-calls -fpartial-inlining -fpeephole -fpeephole2
  40               	 ;  -fprefetch-loop-arrays -freg-struct-return -fregmove -freorder-blocks
  41               	 ;  -freorder-functions -frerun-cse-after-loop
  42               	 ;  -fsched-critical-path-heuristic -fsched-dep-count-heuristic
  43               	 ;  -fsched-group-heuristic -fsched-interblock -fsched-last-insn-heuristic
  44               	 ;  -fsched-rank-heuristic -fsched-spec -fsched-spec-insn-heuristic
  45               	 ;  -fsched-stalled-insns-dep -fshow-column -fshrink-wrap -fsigned-zeros
  46               	 ;  -fsplit-ivs-in-unroller -fstrict-aliasing -fstrict-overflow
  47               	 ;  -fstrict-volatile-bitfields -fthread-jumps -ftoplevel-reorder
  48               	 ;  -ftrapping-math -ftree-bit-ccp -ftree-builtin-call-dce -ftree-ccp
  49               	 ;  -ftree-ch -ftree-copy-prop -ftree-copyrename -ftree-dce
  50               	 ;  -ftree-dominator-opts -ftree-dse -ftree-forwprop -ftree-fre
  51               	 ;  -ftree-loop-if-convert -ftree-loop-im -ftree-loop-ivcanon
  52               	 ;  -ftree-parallelize-loops= -ftree-phiprop -ftree-pre -ftree-pta
  53               	 ;  -ftree-reassoc -ftree-scev-cprop -ftree-sink -ftree-slp-vectorize
  54               	 ;  -ftree-sra -ftree-switch-conversion -ftree-tail-merge -ftree-ter
  55               	 ;  -ftree-vect-loop-version -ftree-vrp -funit-at-a-time -fvar-tracking
  56               	 ;  -fvar-tracking-assignments -fverbose-asm -fzero-initialized-in-bss
  57               	
  58               		.text
  59               	.Ltext0:
  60               		.section	.text._ZN4xpcc7atxmega6UartC110initializeEv,"ax",@progbits
  61               	.global	_ZN4xpcc7atxmega6UartC110initializeEv
  63               	_ZN4xpcc7atxmega6UartC110initializeEv:
  64               	.LFB461:
  65               		.file 1 "/home/rene/xpcc/src/xpcc/architecture/platform/avr/atxmega/uart/uart_c1.cpp"
   1:/home/rene/xpcc/src/xpcc/architecture/platform/avr/atxmega/uart/uart_c1.cpp **** // coding: utf-8
   2:/home/rene/xpcc/src/xpcc/architecture/platform/avr/atxmega/uart/uart_c1.cpp **** // ----------------------------------------------------------------------------
   3:/home/rene/xpcc/src/xpcc/architecture/platform/avr/atxmega/uart/uart_c1.cpp **** /* Copyright (c) 2009, Roboterclub Aachen e.V.
   4:/home/rene/xpcc/src/xpcc/architecture/platform/avr/atxmega/uart/uart_c1.cpp ****  * All rights reserved.
   5:/home/rene/xpcc/src/xpcc/architecture/platform/avr/atxmega/uart/uart_c1.cpp ****  *
   6:/home/rene/xpcc/src/xpcc/architecture/platform/avr/atxmega/uart/uart_c1.cpp ****  * Redistribution and use in source and binary forms, with or without
   7:/home/rene/xpcc/src/xpcc/architecture/platform/avr/atxmega/uart/uart_c1.cpp ****  * modification, are permitted provided that the following conditions are met:
   8:/home/rene/xpcc/src/xpcc/architecture/platform/avr/atxmega/uart/uart_c1.cpp ****  * 
   9:/home/rene/xpcc/src/xpcc/architecture/platform/avr/atxmega/uart/uart_c1.cpp ****  *     * Redistributions of source code must retain the above copyright
  10:/home/rene/xpcc/src/xpcc/architecture/platform/avr/atxmega/uart/uart_c1.cpp ****  *       notice, this list of conditions and the following disclaimer.
  11:/home/rene/xpcc/src/xpcc/architecture/platform/avr/atxmega/uart/uart_c1.cpp ****  *     * Redistributions in binary form must reproduce the above copyright
  12:/home/rene/xpcc/src/xpcc/architecture/platform/avr/atxmega/uart/uart_c1.cpp ****  *       notice, this list of conditions and the following disclaimer in the
  13:/home/rene/xpcc/src/xpcc/architecture/platform/avr/atxmega/uart/uart_c1.cpp ****  *       documentation and/or other materials provided with the distribution.
  14:/home/rene/xpcc/src/xpcc/architecture/platform/avr/atxmega/uart/uart_c1.cpp ****  *     * Neither the name of the Roboterclub Aachen e.V. nor the
  15:/home/rene/xpcc/src/xpcc/architecture/platform/avr/atxmega/uart/uart_c1.cpp ****  *       names of its contributors may be used to endorse or promote products
  16:/home/rene/xpcc/src/xpcc/architecture/platform/avr/atxmega/uart/uart_c1.cpp ****  *       derived from this software without specific prior written permission.
  17:/home/rene/xpcc/src/xpcc/architecture/platform/avr/atxmega/uart/uart_c1.cpp ****  *
  18:/home/rene/xpcc/src/xpcc/architecture/platform/avr/atxmega/uart/uart_c1.cpp ****  * THIS SOFTWARE IS PROVIDED BY ROBOTERCLUB AACHEN E.V. ''AS IS'' AND ANY
  19:/home/rene/xpcc/src/xpcc/architecture/platform/avr/atxmega/uart/uart_c1.cpp ****  * EXPRESS OR IMPLIED WARRANTIES, INCLUDING, BUT NOT LIMITED TO, THE IMPLIED
  20:/home/rene/xpcc/src/xpcc/architecture/platform/avr/atxmega/uart/uart_c1.cpp ****  * WARRANTIES OF MERCHANTABILITY AND FITNESS FOR A PARTICULAR PURPOSE ARE
  21:/home/rene/xpcc/src/xpcc/architecture/platform/avr/atxmega/uart/uart_c1.cpp ****  * DISCLAIMED. IN NO EVENT SHALL ROBOTERCLUB AACHEN E.V. BE LIABLE FOR ANY
  22:/home/rene/xpcc/src/xpcc/architecture/platform/avr/atxmega/uart/uart_c1.cpp ****  * DIRECT, INDIRECT, INCIDENTAL, SPECIAL, EXEMPLARY, OR CONSEQUENTIAL DAMAGES
  23:/home/rene/xpcc/src/xpcc/architecture/platform/avr/atxmega/uart/uart_c1.cpp ****  * (INCLUDING, BUT NOT LIMITED TO, PROCUREMENT OF SUBSTITUTE GOODS OR SERVICES;
  24:/home/rene/xpcc/src/xpcc/architecture/platform/avr/atxmega/uart/uart_c1.cpp ****  * LOSS OF USE, DATA, OR PROFITS; OR BUSINESS INTERRUPTION) HOWEVER CAUSED AND
  25:/home/rene/xpcc/src/xpcc/architecture/platform/avr/atxmega/uart/uart_c1.cpp ****  * ON ANY THEORY OF LIABILITY, WHETHER IN CONTRACT, STRICT LIABILITY, OR TORT
  26:/home/rene/xpcc/src/xpcc/architecture/platform/avr/atxmega/uart/uart_c1.cpp ****  * (INCLUDING NEGLIGENCE OR OTHERWISE) ARISING IN ANY WAY OUT OF THE USE OF
  27:/home/rene/xpcc/src/xpcc/architecture/platform/avr/atxmega/uart/uart_c1.cpp ****  * THIS SOFTWARE, EVEN IF ADVISED OF THE POSSIBILITY OF SUCH DAMAGE.
  28:/home/rene/xpcc/src/xpcc/architecture/platform/avr/atxmega/uart/uart_c1.cpp ****  */
  29:/home/rene/xpcc/src/xpcc/architecture/platform/avr/atxmega/uart/uart_c1.cpp **** // ----------------------------------------------------------------------------
  30:/home/rene/xpcc/src/xpcc/architecture/platform/avr/atxmega/uart/uart_c1.cpp **** /*
  31:/home/rene/xpcc/src/xpcc/architecture/platform/avr/atxmega/uart/uart_c1.cpp ****  * WARNING: This file is generated automatically, do not edit!
  32:/home/rene/xpcc/src/xpcc/architecture/platform/avr/atxmega/uart/uart_c1.cpp ****  * Please modify the corresponding *.in file instead and rebuild this file. 
  33:/home/rene/xpcc/src/xpcc/architecture/platform/avr/atxmega/uart/uart_c1.cpp ****  */
  34:/home/rene/xpcc/src/xpcc/architecture/platform/avr/atxmega/uart/uart_c1.cpp **** // ----------------------------------------------------------------------------
  35:/home/rene/xpcc/src/xpcc/architecture/platform/avr/atxmega/uart/uart_c1.cpp **** 
  36:/home/rene/xpcc/src/xpcc/architecture/platform/avr/atxmega/uart/uart_c1.cpp **** #include <avr/io.h>
  37:/home/rene/xpcc/src/xpcc/architecture/platform/avr/atxmega/uart/uart_c1.cpp **** #include <avr/interrupt.h>
  38:/home/rene/xpcc/src/xpcc/architecture/platform/avr/atxmega/uart/uart_c1.cpp **** 
  39:/home/rene/xpcc/src/xpcc/architecture/platform/avr/atxmega/uart/uart_c1.cpp **** #include <xpcc/architecture/platform/avr/atxmega.hpp>
  40:/home/rene/xpcc/src/xpcc/architecture/platform/avr/atxmega/uart/uart_c1.cpp **** #include <xpcc/architecture/driver/gpio.hpp>
  41:/home/rene/xpcc/src/xpcc/architecture/platform/avr/atxmega/uart/uart_c1.cpp **** 
  42:/home/rene/xpcc/src/xpcc/architecture/platform/avr/atxmega/uart/uart_c1.cpp **** #include "uart_c1.hpp"
  43:/home/rene/xpcc/src/xpcc/architecture/platform/avr/atxmega/uart/uart_c1.cpp **** 
  44:/home/rene/xpcc/src/xpcc/architecture/platform/avr/atxmega/uart/uart_c1.cpp **** #ifdef USARTC1_RXC_vect
  45:/home/rene/xpcc/src/xpcc/architecture/platform/avr/atxmega/uart/uart_c1.cpp **** 
  46:/home/rene/xpcc/src/xpcc/architecture/platform/avr/atxmega/uart/uart_c1.cpp **** namespace
  47:/home/rene/xpcc/src/xpcc/architecture/platform/avr/atxmega/uart/uart_c1.cpp **** {
  48:/home/rene/xpcc/src/xpcc/architecture/platform/avr/atxmega/uart/uart_c1.cpp **** 	GPIO__INPUT(RXD, C, 6);
  49:/home/rene/xpcc/src/xpcc/architecture/platform/avr/atxmega/uart/uart_c1.cpp **** 	GPIO__OUTPUT(TXD, C, 7);
  50:/home/rene/xpcc/src/xpcc/architecture/platform/avr/atxmega/uart/uart_c1.cpp **** }
  51:/home/rene/xpcc/src/xpcc/architecture/platform/avr/atxmega/uart/uart_c1.cpp **** 
  52:/home/rene/xpcc/src/xpcc/architecture/platform/avr/atxmega/uart/uart_c1.cpp **** // ----------------------------------------------------------------------------
  53:/home/rene/xpcc/src/xpcc/architecture/platform/avr/atxmega/uart/uart_c1.cpp **** void
  54:/home/rene/xpcc/src/xpcc/architecture/platform/avr/atxmega/uart/uart_c1.cpp **** xpcc::atxmega::UartC1::initialize()
  55:/home/rene/xpcc/src/xpcc/architecture/platform/avr/atxmega/uart/uart_c1.cpp **** {
  66               		.loc 1 55 0
  67               	/* prologue: function */
  68               	/* frame size = 0 */
  69               	/* stack size = 0 */
  70               	.L__stack_usage = 0
  71               	.LBB8:
  72               	.LBB9:
  49:/home/rene/xpcc/src/xpcc/architecture/platform/avr/atxmega/uart/uart_c1.cpp **** 	GPIO__OUTPUT(TXD, C, 7);
  73               		.loc 1 49 0
  74 0000 80E8      		ldi r24,lo8(-128)	 ;  tmp45,
  75 0002 8093 4506 		sts 1605,r24	 ;  MEM[(volatile uint8_t *)1605B], tmp45
  76               	.LBE9:
  77               	.LBE8:
  78               	.LBB10:
  79               	.LBB11:
  80 0006 8093 4106 		sts 1601,r24	 ;  MEM[(volatile uint8_t *)1601B], tmp45
  81               	.LBE11:
  82               	.LBE10:
  83               	.LBB12:
  84               	.LBB13:
  48:/home/rene/xpcc/src/xpcc/architecture/platform/avr/atxmega/uart/uart_c1.cpp **** 	GPIO__INPUT(RXD, C, 6);
  85               		.loc 1 48 0
  86 000a 80E4      		ldi r24,lo8(64)	 ;  tmp49,
  87 000c 8093 4206 		sts 1602,r24	 ;  MEM[(volatile uint8_t *)1602B], tmp49
  88               	.LBE13:
  89               	.LBE12:
  56:/home/rene/xpcc/src/xpcc/architecture/platform/avr/atxmega/uart/uart_c1.cpp **** 	TXD::set();
  57:/home/rene/xpcc/src/xpcc/architecture/platform/avr/atxmega/uart/uart_c1.cpp **** 	TXD::setOutput();
  58:/home/rene/xpcc/src/xpcc/architecture/platform/avr/atxmega/uart/uart_c1.cpp **** 	
  59:/home/rene/xpcc/src/xpcc/architecture/platform/avr/atxmega/uart/uart_c1.cpp **** 	RXD::setInput();
  60:/home/rene/xpcc/src/xpcc/architecture/platform/avr/atxmega/uart/uart_c1.cpp **** 	
  61:/home/rene/xpcc/src/xpcc/architecture/platform/avr/atxmega/uart/uart_c1.cpp **** 	// setting the frame size to 8 bit
  62:/home/rene/xpcc/src/xpcc/architecture/platform/avr/atxmega/uart/uart_c1.cpp **** 	USARTC1_CTRLC = USART_CHSIZE_8BIT_gc;
  90               		.loc 1 62 0
  91 0010 83E0      		ldi r24,lo8(3)	 ;  tmp51,
  92 0012 8093 B508 		sts 2229,r24	 ;  MEM[(volatile uint8_t *)2229B], tmp51
  63:/home/rene/xpcc/src/xpcc/architecture/platform/avr/atxmega/uart/uart_c1.cpp **** 	
  64:/home/rene/xpcc/src/xpcc/architecture/platform/avr/atxmega/uart/uart_c1.cpp **** 	// enable both, receiver and transmitter
  65:/home/rene/xpcc/src/xpcc/architecture/platform/avr/atxmega/uart/uart_c1.cpp **** 	USARTC1_CTRLB |= USART_RXEN_bm | USART_TXEN_bm;
  93               		.loc 1 65 0
  94 0016 E4EB      		ldi r30,lo8(-76)	 ;  tmp52,
  95 0018 F8E0      		ldi r31,lo8(8)	 ; ,
  96 001a 8081      		ld r24,Z	 ;  D.6737, MEM[(volatile uint8_t *)2228B]
  97 001c 8861      		ori r24,lo8(24)	 ;  D.6737,
  98 001e 8083      		st Z,r24	 ;  MEM[(volatile uint8_t *)2228B], D.6737
  99 0020 0895      		ret
 100               	.LFE461:
 102               		.section	.text._ZN4xpcc7atxmega6UartC15writeEh,"ax",@progbits
 103               	.global	_ZN4xpcc7atxmega6UartC15writeEh
 105               	_ZN4xpcc7atxmega6UartC15writeEh:
 106               	.LFB462:
  66:/home/rene/xpcc/src/xpcc/architecture/platform/avr/atxmega/uart/uart_c1.cpp **** }
  67:/home/rene/xpcc/src/xpcc/architecture/platform/avr/atxmega/uart/uart_c1.cpp **** 
  68:/home/rene/xpcc/src/xpcc/architecture/platform/avr/atxmega/uart/uart_c1.cpp **** // ----------------------------------------------------------------------------
  69:/home/rene/xpcc/src/xpcc/architecture/platform/avr/atxmega/uart/uart_c1.cpp **** void
  70:/home/rene/xpcc/src/xpcc/architecture/platform/avr/atxmega/uart/uart_c1.cpp **** xpcc::atxmega::UartC1::write(uint8_t c)
  71:/home/rene/xpcc/src/xpcc/architecture/platform/avr/atxmega/uart/uart_c1.cpp **** {
 107               		.loc 1 71 0
 108               	/* prologue: function */
 109               	/* frame size = 0 */
 110               	/* stack size = 0 */
 111               	.L__stack_usage = 0
 112               	.LVL0:
 113               	.L3:
  72:/home/rene/xpcc/src/xpcc/architecture/platform/avr/atxmega/uart/uart_c1.cpp **** 	while (!(USARTC1_STATUS & USART_DREIF_bm))
 114               		.loc 1 72 0 discriminator 1
 115 0000 9091 B108 		lds r25,2225	 ;  D.6730, MEM[(volatile uint8_t *)2225B]
 116 0004 95FF      		sbrs r25,5	 ;  D.6730,
 117 0006 00C0      		rjmp .L3	 ; 
  73:/home/rene/xpcc/src/xpcc/architecture/platform/avr/atxmega/uart/uart_c1.cpp **** 		;
  74:/home/rene/xpcc/src/xpcc/architecture/platform/avr/atxmega/uart/uart_c1.cpp **** 	
  75:/home/rene/xpcc/src/xpcc/architecture/platform/avr/atxmega/uart/uart_c1.cpp **** 	USARTC1_DATA = c;
 118               		.loc 1 75 0
 119 0008 8093 B008 		sts 2224,r24	 ;  MEM[(volatile uint8_t *)2224B], c
 120 000c 0895      		ret
 121               	.LFE462:
 123               		.section	.text._ZN4xpcc7atxmega6UartC15writeEPKhh,"ax",@progbits
 124               	.global	_ZN4xpcc7atxmega6UartC15writeEPKhh
 126               	_ZN4xpcc7atxmega6UartC15writeEPKhh:
 127               	.LFB463:
  76:/home/rene/xpcc/src/xpcc/architecture/platform/avr/atxmega/uart/uart_c1.cpp **** }
  77:/home/rene/xpcc/src/xpcc/architecture/platform/avr/atxmega/uart/uart_c1.cpp **** 
  78:/home/rene/xpcc/src/xpcc/architecture/platform/avr/atxmega/uart/uart_c1.cpp **** // ----------------------------------------------------------------------------
  79:/home/rene/xpcc/src/xpcc/architecture/platform/avr/atxmega/uart/uart_c1.cpp **** void
  80:/home/rene/xpcc/src/xpcc/architecture/platform/avr/atxmega/uart/uart_c1.cpp **** xpcc::atxmega::UartC1::write(const uint8_t *s, uint8_t n)
  81:/home/rene/xpcc/src/xpcc/architecture/platform/avr/atxmega/uart/uart_c1.cpp **** {
 128               		.loc 1 81 0
 129               	.LVL1:
 130 0000 0F93      		push r16	 ; 
 131               	.LCFI0:
 132 0002 1F93      		push r17	 ; 
 133               	.LCFI1:
 134 0004 CF93      		push r28	 ; 
 135               	.LCFI2:
 136 0006 DF93      		push r29	 ; 
 137               	.LCFI3:
 138               		 ; SP -= 1	 ; 
 139 0008 1F92      		push __zero_reg__
 140               	.LCFI4:
 141 000a CDB7      		in r28,__SP_L__	 ; 
 142 000c DEB7      		in r29,__SP_H__	 ; 
 143               	.LCFI5:
 144               	/* prologue: function */
 145               	/* frame size = 1 */
 146               	/* stack size = 5 */
 147               	.L__stack_usage = 5
 148 000e 8C01      		movw r16,r24	 ;  s, s
  82:/home/rene/xpcc/src/xpcc/architecture/platform/avr/atxmega/uart/uart_c1.cpp **** 	while (--n != 0) {
 149               		.loc 1 82 0
 150 0010 00C0      		rjmp .L8	 ; 
 151               	.LVL2:
 152               	.L9:
  83:/home/rene/xpcc/src/xpcc/architecture/platform/avr/atxmega/uart/uart_c1.cpp **** 		UartC1::write(*s++);
 153               		.loc 1 83 0
 154 0012 F801      		movw r30,r16	 ; , s
 155 0014 8191      		ld r24,Z+	 ; , *s_1
 156 0016 8F01      		movw r16,r30	 ;  s,
 157               	.LVL3:
 158 0018 6983      		std Y+1,r22	 ; ,
 159 001a 0E94 0000 		call _ZN4xpcc7atxmega6UartC15writeEh	 ; 
 160               	.LVL4:
 161 001e 6981      		ldd r22,Y+1	 ; ,
 162               	.LVL5:
 163               	.L8:
  82:/home/rene/xpcc/src/xpcc/architecture/platform/avr/atxmega/uart/uart_c1.cpp **** 	while (--n != 0) {
 164               		.loc 1 82 0 discriminator 1
 165 0020 6150      		subi r22,lo8(-(-1))	 ;  n,
 166               	.LVL6:
 167 0022 01F4      		brne .L9	 ; ,
 168               	/* epilogue start */
  84:/home/rene/xpcc/src/xpcc/architecture/platform/avr/atxmega/uart/uart_c1.cpp **** 	}
  85:/home/rene/xpcc/src/xpcc/architecture/platform/avr/atxmega/uart/uart_c1.cpp **** }
 169               		.loc 1 85 0
 170               		 ; SP += 1	 ; 
 171 0024 0F90      		pop __tmp_reg__
 172 0026 DF91      		pop r29	 ; 
 173 0028 CF91      		pop r28	 ; 
 174 002a 1F91      		pop r17	 ; 
 175 002c 0F91      		pop r16	 ; 
 176               	.LVL7:
 177 002e 0895      		ret
 178               	.LFE463:
 180               		.section	.text._ZN4xpcc7atxmega6UartC14readERh,"ax",@progbits
 181               	.global	_ZN4xpcc7atxmega6UartC14readERh
 183               	_ZN4xpcc7atxmega6UartC14readERh:
 184               	.LFB464:
  86:/home/rene/xpcc/src/xpcc/architecture/platform/avr/atxmega/uart/uart_c1.cpp **** 
  87:/home/rene/xpcc/src/xpcc/architecture/platform/avr/atxmega/uart/uart_c1.cpp **** // ----------------------------------------------------------------------------
  88:/home/rene/xpcc/src/xpcc/architecture/platform/avr/atxmega/uart/uart_c1.cpp **** bool
  89:/home/rene/xpcc/src/xpcc/architecture/platform/avr/atxmega/uart/uart_c1.cpp **** xpcc::atxmega::UartC1::read(uint8_t& c)
  90:/home/rene/xpcc/src/xpcc/architecture/platform/avr/atxmega/uart/uart_c1.cpp **** {
 185               		.loc 1 90 0
 186               	.LVL8:
 187               	/* prologue: function */
 188               	/* frame size = 0 */
 189               	/* stack size = 0 */
 190               	.L__stack_usage = 0
  91:/home/rene/xpcc/src/xpcc/architecture/platform/avr/atxmega/uart/uart_c1.cpp **** 	if (USARTC1_STATUS & USART_RXCIF_bm) {
 191               		.loc 1 91 0
 192 0000 2091 B108 		lds r18,2225	 ;  D.6712, MEM[(volatile uint8_t *)2225B]
 193 0004 27FF      		sbrs r18,7	 ;  D.6712,
 194 0006 00C0      		rjmp .L12	 ; 
  92:/home/rene/xpcc/src/xpcc/architecture/platform/avr/atxmega/uart/uart_c1.cpp **** 		// the status flag is cleared by reading DATA
  93:/home/rene/xpcc/src/xpcc/architecture/platform/avr/atxmega/uart/uart_c1.cpp **** 		c = USARTC1_DATA;
 195               		.loc 1 93 0
 196 0008 2091 B008 		lds r18,2224	 ;  D.6717, MEM[(volatile uint8_t *)2224B]
 197 000c FC01      		movw r30,r24	 ; , c
 198 000e 2083      		st Z,r18	 ;  *c_8(D), D.6717
  94:/home/rene/xpcc/src/xpcc/architecture/platform/avr/atxmega/uart/uart_c1.cpp **** 		return true;
 199               		.loc 1 94 0
 200 0010 81E0      		ldi r24,lo8(1)	 ;  D.6718,
 201               	.LVL9:
 202 0012 0895      		ret
 203               	.LVL10:
 204               	.L12:
  95:/home/rene/xpcc/src/xpcc/architecture/platform/avr/atxmega/uart/uart_c1.cpp **** 	}
  96:/home/rene/xpcc/src/xpcc/architecture/platform/avr/atxmega/uart/uart_c1.cpp **** 	return false;
 205               		.loc 1 96 0
 206 0014 80E0      		ldi r24,0	 ;  D.6718
 207               	.LVL11:
  97:/home/rene/xpcc/src/xpcc/architecture/platform/avr/atxmega/uart/uart_c1.cpp **** }
 208               		.loc 1 97 0
 209 0016 0895      		ret
 210               	.LFE464:
 212               		.section	.text._ZN4xpcc7atxmega6UartC14readEPhh,"ax",@progbits
 213               	.global	_ZN4xpcc7atxmega6UartC14readEPhh
 215               	_ZN4xpcc7atxmega6UartC14readEPhh:
 216               	.LFB465:
  98:/home/rene/xpcc/src/xpcc/architecture/platform/avr/atxmega/uart/uart_c1.cpp **** 
  99:/home/rene/xpcc/src/xpcc/architecture/platform/avr/atxmega/uart/uart_c1.cpp **** // ----------------------------------------------------------------------------
 100:/home/rene/xpcc/src/xpcc/architecture/platform/avr/atxmega/uart/uart_c1.cpp **** uint8_t
 101:/home/rene/xpcc/src/xpcc/architecture/platform/avr/atxmega/uart/uart_c1.cpp **** xpcc::atxmega::UartC1::read(uint8_t *b, uint8_t n)
 102:/home/rene/xpcc/src/xpcc/architecture/platform/avr/atxmega/uart/uart_c1.cpp **** {
 217               		.loc 1 102 0
 218               	.LVL12:
 219               	/* prologue: function */
 220               	/* frame size = 0 */
 221               	/* stack size = 0 */
 222               	.L__stack_usage = 0
 223 0000 FC01      		movw r30,r24	 ;  b, b
 224               	.LVL13:
 225               	.LBB14:
 103:/home/rene/xpcc/src/xpcc/architecture/platform/avr/atxmega/uart/uart_c1.cpp **** 	/*
 104:/home/rene/xpcc/src/xpcc/architecture/platform/avr/atxmega/uart/uart_c1.cpp **** 	 * The delay of 1.5 times frame time could be calculated at compile time
 105:/home/rene/xpcc/src/xpcc/architecture/platform/avr/atxmega/uart/uart_c1.cpp **** 	 * if the baud rate was known. It's only known in the constructor, not here. 
 106:/home/rene/xpcc/src/xpcc/architecture/platform/avr/atxmega/uart/uart_c1.cpp **** 	 * 
 107:/home/rene/xpcc/src/xpcc/architecture/platform/avr/atxmega/uart/uart_c1.cpp **** 	 * This manual calculation assumes a baud rate of 115200. 
 108:/home/rene/xpcc/src/xpcc/architecture/platform/avr/atxmega/uart/uart_c1.cpp **** 	 * On cycle of the loop if(USARTC1_STATUS ...) takes nine instructions:
 109:/home/rene/xpcc/src/xpcc/architecture/platform/avr/atxmega/uart/uart_c1.cpp **** 	 * 
 110:/home/rene/xpcc/src/xpcc/architecture/platform/avr/atxmega/uart/uart_c1.cpp **** 	 * if (USART...)		LDS		2
 111:/home/rene/xpcc/src/xpcc/architecture/platform/avr/atxmega/uart/uart_c1.cpp **** 	 * 						SBRS	2
 112:/home/rene/xpcc/src/xpcc/architecture/platform/avr/atxmega/uart/uart_c1.cpp **** 	 * 						RJMP	2
 113:/home/rene/xpcc/src/xpcc/architecture/platform/avr/atxmega/uart/uart_c1.cpp **** 	 * if (--delay == 0)	SUBI	1
 114:/home/rene/xpcc/src/xpcc/architecture/platform/avr/atxmega/uart/uart_c1.cpp **** 	 * 						BRNE	2
 115:/home/rene/xpcc/src/xpcc/architecture/platform/avr/atxmega/uart/uart_c1.cpp **** 	 * 
 116:/home/rene/xpcc/src/xpcc/architecture/platform/avr/atxmega/uart/uart_c1.cpp **** 	 * Assuming a baud rate of 115200 a frame (1 stop, 8 data, 1 stop bit)
 117:/home/rene/xpcc/src/xpcc/architecture/platform/avr/atxmega/uart/uart_c1.cpp **** 	 * lasts 86.6usec. At a CPU frequency of F_CPU a CPU cycle lasts 
 118:/home/rene/xpcc/src/xpcc/architecture/platform/avr/atxmega/uart/uart_c1.cpp **** 	 * 1/F_CPU seconds. So a frame takes (86.6usec * F_CPU) cycles, or
 119:/home/rene/xpcc/src/xpcc/architecture/platform/avr/atxmega/uart/uart_c1.cpp **** 	 * 86.6 * (F_CPU/1000000) = (F_CPU / 11547) cycles. Adding a margin of
 120:/home/rene/xpcc/src/xpcc/architecture/platform/avr/atxmega/uart/uart_c1.cpp **** 	 * 50% (F_CPU / 7698) cycles are equal to 1.5 times the frame time. 
 121:/home/rene/xpcc/src/xpcc/architecture/platform/avr/atxmega/uart/uart_c1.cpp **** 	 * The loop needs nine instructions so the loop should loop 
 122:/home/rene/xpcc/src/xpcc/architecture/platform/avr/atxmega/uart/uart_c1.cpp **** 	 * (F_CPU / 69282) times.   
 123:/home/rene/xpcc/src/xpcc/architecture/platform/avr/atxmega/uart/uart_c1.cpp **** 	 * 
 124:/home/rene/xpcc/src/xpcc/architecture/platform/avr/atxmega/uart/uart_c1.cpp **** 	 * Example for 32 MHz:
 125:/home/rene/xpcc/src/xpcc/architecture/platform/avr/atxmega/uart/uart_c1.cpp **** 	 * A CPU cycle takes 31.25nsec. In 86.6usec 2771.2 CPU cycles are executed. 
 126:/home/rene/xpcc/src/xpcc/architecture/platform/avr/atxmega/uart/uart_c1.cpp **** 	 * The loop takes nine instructions so it is enough to loop 308 times for 
 127:/home/rene/xpcc/src/xpcc/architecture/platform/avr/atxmega/uart/uart_c1.cpp **** 	 * one frame time.  After adding 50% the loop should loop 462 times. 
 128:/home/rene/xpcc/src/xpcc/architecture/platform/avr/atxmega/uart/uart_c1.cpp **** 	 *
 129:/home/rene/xpcc/src/xpcc/architecture/platform/avr/atxmega/uart/uart_c1.cpp **** 	 * This is the same result as (32000000 / 69282) = 462. 
 130:/home/rene/xpcc/src/xpcc/architecture/platform/avr/atxmega/uart/uart_c1.cpp **** 	 */
 131:/home/rene/xpcc/src/xpcc/architecture/platform/avr/atxmega/uart/uart_c1.cpp **** 	uint8_t rcvd = 0;
 132:/home/rene/xpcc/src/xpcc/architecture/platform/avr/atxmega/uart/uart_c1.cpp **** 	uint16_t const delayStart = (F_CPU / 69282);		// TODO Make depend on baudrate 
 133:/home/rene/xpcc/src/xpcc/architecture/platform/avr/atxmega/uart/uart_c1.cpp **** 	uint16_t delay = delayStart; 
 226               		.loc 1 133 0
 227 0002 26EE      		ldi r18,lo8(-26)	 ;  delay,
 228 0004 30E0      		ldi r19,0	 ;  delay
 131:/home/rene/xpcc/src/xpcc/architecture/platform/avr/atxmega/uart/uart_c1.cpp **** 	uint8_t rcvd = 0;
 229               		.loc 1 131 0
 230 0006 80E0      		ldi r24,0	 ;  rcvd
 231               	.LVL14:
 232               	.L19:
 134:/home/rene/xpcc/src/xpcc/architecture/platform/avr/atxmega/uart/uart_c1.cpp **** 	while (1)
 135:/home/rene/xpcc/src/xpcc/architecture/platform/avr/atxmega/uart/uart_c1.cpp **** 	{
 136:/home/rene/xpcc/src/xpcc/architecture/platform/avr/atxmega/uart/uart_c1.cpp **** 		if (USARTC1_STATUS & USART_RXCIF_bm)
 233               		.loc 1 136 0
 234 0008 9091 B108 		lds r25,2225	 ;  D.6695, MEM[(volatile uint8_t *)2225B]
 235 000c 97FF      		sbrs r25,7	 ;  D.6695,
 236 000e 00C0      		rjmp .L15	 ; 
 137:/home/rene/xpcc/src/xpcc/architecture/platform/avr/atxmega/uart/uart_c1.cpp **** 		{
 138:/home/rene/xpcc/src/xpcc/architecture/platform/avr/atxmega/uart/uart_c1.cpp **** 			// data available
 139:/home/rene/xpcc/src/xpcc/architecture/platform/avr/atxmega/uart/uart_c1.cpp **** 			*b++ = USARTC1_DATA;
 237               		.loc 1 139 0
 238 0010 9091 B008 		lds r25,2224	 ;  D.6700, MEM[(volatile uint8_t *)2224B]
 239 0014 9193      		st Z+,r25	 ;  *b_1, D.6700
 240               	.LVL15:
 140:/home/rene/xpcc/src/xpcc/architecture/platform/avr/atxmega/uart/uart_c1.cpp **** 			if (++rcvd == n) {
 241               		.loc 1 140 0
 242 0016 8F5F      		subi r24,lo8(-(1))	 ;  rcvd,
 243               	.LVL16:
 244 0018 8617      		cp r24,r22	 ;  rcvd, n
 245 001a 01F0      		breq .L16	 ; ,
 141:/home/rene/xpcc/src/xpcc/architecture/platform/avr/atxmega/uart/uart_c1.cpp **** 				return rcvd;
 142:/home/rene/xpcc/src/xpcc/architecture/platform/avr/atxmega/uart/uart_c1.cpp **** 			}
 143:/home/rene/xpcc/src/xpcc/architecture/platform/avr/atxmega/uart/uart_c1.cpp **** 			delay = delayStart;	
 246               		.loc 1 143 0
 247 001c 26EE      		ldi r18,lo8(-26)	 ;  delay,
 248 001e 30E0      		ldi r19,0	 ;  delay
 249               	.LVL17:
 250 0020 00C0      		rjmp .L19	 ; 
 251               	.LVL18:
 252               	.L15:
 144:/home/rene/xpcc/src/xpcc/architecture/platform/avr/atxmega/uart/uart_c1.cpp **** 		}
 145:/home/rene/xpcc/src/xpcc/architecture/platform/avr/atxmega/uart/uart_c1.cpp **** 		else {
 146:/home/rene/xpcc/src/xpcc/architecture/platform/avr/atxmega/uart/uart_c1.cpp **** 			// no new data, but wait a little longer
 147:/home/rene/xpcc/src/xpcc/architecture/platform/avr/atxmega/uart/uart_c1.cpp **** 			if (--delay == 0) {
 253               		.loc 1 147 0
 254 0022 2150      		subi r18,1	 ;  delay,
 255 0024 3109      		sbc r19,__zero_reg__	 ;  delay
 256               	.LVL19:
 257 0026 01F4      		brne .L19	 ; ,
 258               	.L16:
 259               	.LBE14:
 148:/home/rene/xpcc/src/xpcc/architecture/platform/avr/atxmega/uart/uart_c1.cpp **** 				return rcvd;
 149:/home/rene/xpcc/src/xpcc/architecture/platform/avr/atxmega/uart/uart_c1.cpp **** 			}
 150:/home/rene/xpcc/src/xpcc/architecture/platform/avr/atxmega/uart/uart_c1.cpp **** 		}
 151:/home/rene/xpcc/src/xpcc/architecture/platform/avr/atxmega/uart/uart_c1.cpp **** 	}
 152:/home/rene/xpcc/src/xpcc/architecture/platform/avr/atxmega/uart/uart_c1.cpp **** }
 260               		.loc 1 152 0
 261 0028 0895      		ret
 262               	.LFE465:
 354               	.Letext0:
 355               		.file 2 "/usr/lib/gcc/avr/4.7.2/../../../avr/include/stdint.h"
 356               		.file 3 "/home/rene/xpcc/src/xpcc/architecture/platform/avr/../avr.hpp"
 357               		.file 4 "/home/rene/xpcc/src/xpcc/architecture/platform/avr/atxmega.hpp"
 358               		.file 5 "/home/rene/xpcc/src/xpcc/architecture/platform/avr/atxmega/uart/uart_c1.hpp"
 359               		.file 6 "/home/rene/xpcc/src/xpcc/architecture/platform/avr/atxmega/spi/spi.hpp"
 360               		.file 7 "/home/rene/xpcc/src/xpcc/architecture/platform/avr/atxmega/adc/adc.hpp"
 361               		.file 8 "/home/rene/xpcc/src/xpcc/architecture/platform/avr/atxmega/dma/dma.hpp"
 362               		.file 9 "/home/rene/xpcc/src/xpcc/architecture/driver/gpio.hpp"
 363               		.file 10 "/home/rene/xpcc/src/xpcc/architecture/platform/avr/atxmega/timer/input_capture.hpp"
 364               		.file 11 "/home/rene/xpcc/src/xpcc/architecture/platform/avr/atxmega/timer/timer.hpp"
 365               		.file 12 "/home/rene/xpcc/src/xpcc/architecture/driver/atomic/lock.hpp"
 366               		.file 13 "/home/rene/xpcc/src/xpcc/driver/connectivity/i2c/constants.hpp"
 367               		.file 14 "/usr/lib/gcc/avr/4.7.2/include/stddef.h"
 368               		.file 15 "<built-in>"
 369               		.file 16 "/home/rene/xpcc/src/stdc++/cstddef"
 370               		.file 17 "/home/rene/xpcc/src/stdc++/cmath"
 371               		.file 18 "/usr/lib/gcc/avr/4.7.2/../../../avr/include/math.h"
 372               		.file 19 "/usr/lib/gcc/avr/4.7.2/../../../avr/include/avr/iox32a4.h"
DEFINED SYMBOLS
                            *ABS*:0000000000000000 uart_c1.cpp
     /tmp/ccbPIb0M.s:2      *ABS*:000000000000003e __SP_H__
     /tmp/ccbPIb0M.s:3      *ABS*:000000000000003d __SP_L__
     /tmp/ccbPIb0M.s:4      *ABS*:000000000000003f __SREG__
     /tmp/ccbPIb0M.s:5      *ABS*:0000000000000034 __CCP__
     /tmp/ccbPIb0M.s:6      *ABS*:0000000000000000 __tmp_reg__
     /tmp/ccbPIb0M.s:7      *ABS*:0000000000000001 __zero_reg__
     /tmp/ccbPIb0M.s:63     .text._ZN4xpcc7atxmega6UartC110initializeEv:0000000000000000 _ZN4xpcc7atxmega6UartC110initializeEv
     /tmp/ccbPIb0M.s:105    .text._ZN4xpcc7atxmega6UartC15writeEh:0000000000000000 _ZN4xpcc7atxmega6UartC15writeEh
     /tmp/ccbPIb0M.s:126    .text._ZN4xpcc7atxmega6UartC15writeEPKhh:0000000000000000 _ZN4xpcc7atxmega6UartC15writeEPKhh
     /tmp/ccbPIb0M.s:183    .text._ZN4xpcc7atxmega6UartC14readERh:0000000000000000 _ZN4xpcc7atxmega6UartC14readERh
     /tmp/ccbPIb0M.s:215    .text._ZN4xpcc7atxmega6UartC14readEPhh:0000000000000000 _ZN4xpcc7atxmega6UartC14readEPhh

NO UNDEFINED SYMBOLS
