   1               		.file	"uart_spi_c0.cpp"
   2               	__SP_H__ = 0x3e
   3               	__SP_L__ = 0x3d
   4               	__SREG__ = 0x3f
   5               	__CCP__ = 0x34
   6               	__tmp_reg__ = 0
   7               	__zero_reg__ = 1
   8               	 ;  GNU C++ (GCC) version 4.7.2 (avr)
   9               	 ; 	compiled by GNU C version 4.7.2, GMP version 5.0.5, MPFR version 3.1.0-p10, MPC version 0.9
  10               	 ;  warning: GMP header version 5.0.5 differs from library version 5.1.2.
  11               	 ;  warning: MPFR header version 3.1.0-p10 differs from library version 3.1.1-p2.
  12               	 ;  GGC heuristics: --param ggc-min-expand=100 --param ggc-min-heapsize=131072
  13               	 ;  options passed:  -I /home/rene/xpcc/src/stdc++ -I /home/rene/xpcc/src
  14               	 ;  -I /home/rene/xpcc/ext -I build/libxpcc -imultilib avrxmega2
  15               	 ;  -D BASENAME=uart_spi_c0.cpp -D F_CPU=16000000ul
  16               	 ;  /home/rene/xpcc/src/xpcc/architecture/platform/avr/atxmega/spi/uart_spi_c0.cpp
  17               	 ;  -mmcu=atxmega32a4
  18               	 ;  -auxbase-strip build/libxpcc/src/xpcc/architecture/platform/avr/atxmega/spi/uart_spi_c0.o
  19               	 ;  -gdwarf-2 -Os -Woverloaded-virtual -Wall -Wextra -Wundef -std=gnu++11
  20               	 ;  -fno-threadsafe-statics -fuse-cxa-atexit -funsigned-char
  21               	 ;  -funsigned-bitfields -fshort-enums -ffunction-sections -fdata-sections
  22               	 ;  -fno-split-wide-types -fno-move-loop-invariants -fno-tree-loop-optimize
  23               	 ;  -finline-limit=10000 -fverbose-asm -fno-rtti -fno-enforce-eh-specs
  24               	 ;  -fno-exceptions
  25               	 ;  options enabled:  -fauto-inc-dec -fbranch-count-reg -fcaller-saves
  26               	 ;  -fcombine-stack-adjustments -fcommon -fcompare-elim -fcprop-registers
  27               	 ;  -fcrossjumping -fcse-follow-jumps -fdata-sections -fdebug-types-section
  28               	 ;  -fdefer-pop -fdevirtualize -fearly-inlining
  29               	 ;  -feliminate-unused-debug-types -fexpensive-optimizations
  30               	 ;  -fforward-propagate -ffunction-cse -ffunction-sections -fgcse -fgcse-lm
  31               	 ;  -fgnu-runtime -fguess-branch-probability -fident -fif-conversion
  32               	 ;  -fif-conversion2 -findirect-inlining -finline -finline-atomics
  33               	 ;  -finline-functions -finline-functions-called-once
  34               	 ;  -finline-small-functions -fipa-cp -fipa-profile -fipa-pure-const
  35               	 ;  -fipa-reference -fipa-sra -fira-share-save-slots
  36               	 ;  -fira-share-spill-slots -fivopts -fkeep-static-consts
  37               	 ;  -fleading-underscore -fmath-errno -fmerge-constants
  38               	 ;  -fmerge-debug-strings -fomit-frame-pointer -foptimize-register-move
  39               	 ;  -foptimize-sibling-calls -fpartial-inlining -fpeephole -fpeephole2
  40               	 ;  -fprefetch-loop-arrays -freg-struct-return -fregmove -freorder-blocks
  41               	 ;  -freorder-functions -frerun-cse-after-loop
  42               	 ;  -fsched-critical-path-heuristic -fsched-dep-count-heuristic
  43               	 ;  -fsched-group-heuristic -fsched-interblock -fsched-last-insn-heuristic
  44               	 ;  -fsched-rank-heuristic -fsched-spec -fsched-spec-insn-heuristic
  45               	 ;  -fsched-stalled-insns-dep -fshow-column -fshrink-wrap -fsigned-zeros
  46               	 ;  -fsplit-ivs-in-unroller -fstrict-aliasing -fstrict-overflow
  47               	 ;  -fstrict-volatile-bitfields -fthread-jumps -ftoplevel-reorder
  48               	 ;  -ftrapping-math -ftree-bit-ccp -ftree-builtin-call-dce -ftree-ccp
  49               	 ;  -ftree-ch -ftree-copy-prop -ftree-copyrename -ftree-dce
  50               	 ;  -ftree-dominator-opts -ftree-dse -ftree-forwprop -ftree-fre
  51               	 ;  -ftree-loop-if-convert -ftree-loop-im -ftree-loop-ivcanon
  52               	 ;  -ftree-parallelize-loops= -ftree-phiprop -ftree-pre -ftree-pta
  53               	 ;  -ftree-reassoc -ftree-scev-cprop -ftree-sink -ftree-slp-vectorize
  54               	 ;  -ftree-sra -ftree-switch-conversion -ftree-tail-merge -ftree-ter
  55               	 ;  -ftree-vect-loop-version -ftree-vrp -funit-at-a-time -fvar-tracking
  56               	 ;  -fvar-tracking-assignments -fverbose-asm -fzero-initialized-in-bss
  57               	
  58               		.text
  59               	.Ltext0:
  60               		.section	.text._ZN4xpcc7atxmega15UartSpiMasterC010initializeEm,"ax",@progbits
  61               	.global	_ZN4xpcc7atxmega15UartSpiMasterC010initializeEm
  63               	_ZN4xpcc7atxmega15UartSpiMasterC010initializeEm:
  64               	.LFB471:
  65               		.file 1 "/home/rene/xpcc/src/xpcc/architecture/platform/avr/atxmega/spi/uart_spi_c0.cpp"
   1:/home/rene/xpcc/src/xpcc/architecture/platform/avr/atxmega/spi/uart_spi_c0.cpp **** // coding: utf-8
   2:/home/rene/xpcc/src/xpcc/architecture/platform/avr/atxmega/spi/uart_spi_c0.cpp **** // ----------------------------------------------------------------------------
   3:/home/rene/xpcc/src/xpcc/architecture/platform/avr/atxmega/spi/uart_spi_c0.cpp **** /* Copyright (c) 2009, Roboterclub Aachen e.V.
   4:/home/rene/xpcc/src/xpcc/architecture/platform/avr/atxmega/spi/uart_spi_c0.cpp ****  * All rights reserved.
   5:/home/rene/xpcc/src/xpcc/architecture/platform/avr/atxmega/spi/uart_spi_c0.cpp ****  *
   6:/home/rene/xpcc/src/xpcc/architecture/platform/avr/atxmega/spi/uart_spi_c0.cpp ****  * Redistribution and use in source and binary forms, with or without
   7:/home/rene/xpcc/src/xpcc/architecture/platform/avr/atxmega/spi/uart_spi_c0.cpp ****  * modification, are permitted provided that the following conditions are met:
   8:/home/rene/xpcc/src/xpcc/architecture/platform/avr/atxmega/spi/uart_spi_c0.cpp ****  * 
   9:/home/rene/xpcc/src/xpcc/architecture/platform/avr/atxmega/spi/uart_spi_c0.cpp ****  *     * Redistributions of source code must retain the above copyright
  10:/home/rene/xpcc/src/xpcc/architecture/platform/avr/atxmega/spi/uart_spi_c0.cpp ****  *       notice, this list of conditions and the following disclaimer.
  11:/home/rene/xpcc/src/xpcc/architecture/platform/avr/atxmega/spi/uart_spi_c0.cpp ****  *     * Redistributions in binary form must reproduce the above copyright
  12:/home/rene/xpcc/src/xpcc/architecture/platform/avr/atxmega/spi/uart_spi_c0.cpp ****  *       notice, this list of conditions and the following disclaimer in the
  13:/home/rene/xpcc/src/xpcc/architecture/platform/avr/atxmega/spi/uart_spi_c0.cpp ****  *       documentation and/or other materials provided with the distribution.
  14:/home/rene/xpcc/src/xpcc/architecture/platform/avr/atxmega/spi/uart_spi_c0.cpp ****  *     * Neither the name of the Roboterclub Aachen e.V. nor the
  15:/home/rene/xpcc/src/xpcc/architecture/platform/avr/atxmega/spi/uart_spi_c0.cpp ****  *       names of its contributors may be used to endorse or promote products
  16:/home/rene/xpcc/src/xpcc/architecture/platform/avr/atxmega/spi/uart_spi_c0.cpp ****  *       derived from this software without specific prior written permission.
  17:/home/rene/xpcc/src/xpcc/architecture/platform/avr/atxmega/spi/uart_spi_c0.cpp ****  *
  18:/home/rene/xpcc/src/xpcc/architecture/platform/avr/atxmega/spi/uart_spi_c0.cpp ****  * THIS SOFTWARE IS PROVIDED BY ROBOTERCLUB AACHEN E.V. ''AS IS'' AND ANY
  19:/home/rene/xpcc/src/xpcc/architecture/platform/avr/atxmega/spi/uart_spi_c0.cpp ****  * EXPRESS OR IMPLIED WARRANTIES, INCLUDING, BUT NOT LIMITED TO, THE IMPLIED
  20:/home/rene/xpcc/src/xpcc/architecture/platform/avr/atxmega/spi/uart_spi_c0.cpp ****  * WARRANTIES OF MERCHANTABILITY AND FITNESS FOR A PARTICULAR PURPOSE ARE
  21:/home/rene/xpcc/src/xpcc/architecture/platform/avr/atxmega/spi/uart_spi_c0.cpp ****  * DISCLAIMED. IN NO EVENT SHALL ROBOTERCLUB AACHEN E.V. BE LIABLE FOR ANY
  22:/home/rene/xpcc/src/xpcc/architecture/platform/avr/atxmega/spi/uart_spi_c0.cpp ****  * DIRECT, INDIRECT, INCIDENTAL, SPECIAL, EXEMPLARY, OR CONSEQUENTIAL DAMAGES
  23:/home/rene/xpcc/src/xpcc/architecture/platform/avr/atxmega/spi/uart_spi_c0.cpp ****  * (INCLUDING, BUT NOT LIMITED TO, PROCUREMENT OF SUBSTITUTE GOODS OR SERVICES;
  24:/home/rene/xpcc/src/xpcc/architecture/platform/avr/atxmega/spi/uart_spi_c0.cpp ****  * LOSS OF USE, DATA, OR PROFITS; OR BUSINESS INTERRUPTION) HOWEVER CAUSED AND
  25:/home/rene/xpcc/src/xpcc/architecture/platform/avr/atxmega/spi/uart_spi_c0.cpp ****  * ON ANY THEORY OF LIABILITY, WHETHER IN CONTRACT, STRICT LIABILITY, OR TORT
  26:/home/rene/xpcc/src/xpcc/architecture/platform/avr/atxmega/spi/uart_spi_c0.cpp ****  * (INCLUDING NEGLIGENCE OR OTHERWISE) ARISING IN ANY WAY OUT OF THE USE OF
  27:/home/rene/xpcc/src/xpcc/architecture/platform/avr/atxmega/spi/uart_spi_c0.cpp ****  * THIS SOFTWARE, EVEN IF ADVISED OF THE POSSIBILITY OF SUCH DAMAGE.
  28:/home/rene/xpcc/src/xpcc/architecture/platform/avr/atxmega/spi/uart_spi_c0.cpp ****  */
  29:/home/rene/xpcc/src/xpcc/architecture/platform/avr/atxmega/spi/uart_spi_c0.cpp **** // ----------------------------------------------------------------------------
  30:/home/rene/xpcc/src/xpcc/architecture/platform/avr/atxmega/spi/uart_spi_c0.cpp **** /*
  31:/home/rene/xpcc/src/xpcc/architecture/platform/avr/atxmega/spi/uart_spi_c0.cpp ****  * WARNING: This file is generated automatically, do not edit!
  32:/home/rene/xpcc/src/xpcc/architecture/platform/avr/atxmega/spi/uart_spi_c0.cpp ****  * Please modify the corresponding *.in file instead and rebuild this file. 
  33:/home/rene/xpcc/src/xpcc/architecture/platform/avr/atxmega/spi/uart_spi_c0.cpp ****  */
  34:/home/rene/xpcc/src/xpcc/architecture/platform/avr/atxmega/spi/uart_spi_c0.cpp **** // ----------------------------------------------------------------------------
  35:/home/rene/xpcc/src/xpcc/architecture/platform/avr/atxmega/spi/uart_spi_c0.cpp **** 
  36:/home/rene/xpcc/src/xpcc/architecture/platform/avr/atxmega/spi/uart_spi_c0.cpp **** #include <avr/io.h>
  37:/home/rene/xpcc/src/xpcc/architecture/platform/avr/atxmega/spi/uart_spi_c0.cpp **** #include <xpcc/architecture/platform/avr/atxmega.hpp>
  38:/home/rene/xpcc/src/xpcc/architecture/platform/avr/atxmega/spi/uart_spi_c0.cpp **** #include <xpcc/architecture/driver/gpio.hpp>
  39:/home/rene/xpcc/src/xpcc/architecture/platform/avr/atxmega/spi/uart_spi_c0.cpp **** #include "../dma.hpp"
  40:/home/rene/xpcc/src/xpcc/architecture/platform/avr/atxmega/spi/uart_spi_c0.cpp **** #include "spi_c.hpp"
  41:/home/rene/xpcc/src/xpcc/architecture/platform/avr/atxmega/spi/uart_spi_c0.cpp **** #include "xpcc_config.hpp"
  42:/home/rene/xpcc/src/xpcc/architecture/platform/avr/atxmega/spi/uart_spi_c0.cpp **** 
  43:/home/rene/xpcc/src/xpcc/architecture/platform/avr/atxmega/spi/uart_spi_c0.cpp **** #ifdef USARTC0
  44:/home/rene/xpcc/src/xpcc/architecture/platform/avr/atxmega/spi/uart_spi_c0.cpp **** 
  45:/home/rene/xpcc/src/xpcc/architecture/platform/avr/atxmega/spi/uart_spi_c0.cpp **** #if SPIC0_TX_DMA_CHANNEL >= 0
  46:/home/rene/xpcc/src/xpcc/architecture/platform/avr/atxmega/spi/uart_spi_c0.cpp **** #	define DMA_TX	CONCAT(DmaChannel, SPIC0_TX_DMA_CHANNEL)
  47:/home/rene/xpcc/src/xpcc/architecture/platform/avr/atxmega/spi/uart_spi_c0.cpp **** #
  48:/home/rene/xpcc/src/xpcc/architecture/platform/avr/atxmega/spi/uart_spi_c0.cpp **** #	if SPIC0_RX_DMA_CHANNEL == SPIC0_TX_DMA_CHANNEL
  49:/home/rene/xpcc/src/xpcc/architecture/platform/avr/atxmega/spi/uart_spi_c0.cpp **** #		error "You cannot use the same DMA channel for both sending and receiving."
  50:/home/rene/xpcc/src/xpcc/architecture/platform/avr/atxmega/spi/uart_spi_c0.cpp **** #	endif
  51:/home/rene/xpcc/src/xpcc/architecture/platform/avr/atxmega/spi/uart_spi_c0.cpp **** #
  52:/home/rene/xpcc/src/xpcc/architecture/platform/avr/atxmega/spi/uart_spi_c0.cpp **** #	if SPIC0_RX_DMA_CHANNEL >= 0
  53:/home/rene/xpcc/src/xpcc/architecture/platform/avr/atxmega/spi/uart_spi_c0.cpp **** #		define DMA_RX	CONCAT(DmaChannel, SPIC0_RX_DMA_CHANNEL)
  54:/home/rene/xpcc/src/xpcc/architecture/platform/avr/atxmega/spi/uart_spi_c0.cpp **** #	endif
  55:/home/rene/xpcc/src/xpcc/architecture/platform/avr/atxmega/spi/uart_spi_c0.cpp **** #endif
  56:/home/rene/xpcc/src/xpcc/architecture/platform/avr/atxmega/spi/uart_spi_c0.cpp **** 
  57:/home/rene/xpcc/src/xpcc/architecture/platform/avr/atxmega/spi/uart_spi_c0.cpp **** namespace
  58:/home/rene/xpcc/src/xpcc/architecture/platform/avr/atxmega/spi/uart_spi_c0.cpp **** {
  59:/home/rene/xpcc/src/xpcc/architecture/platform/avr/atxmega/spi/uart_spi_c0.cpp **** 	GPIO__OUTPUT(XCK, C, 1);
  60:/home/rene/xpcc/src/xpcc/architecture/platform/avr/atxmega/spi/uart_spi_c0.cpp **** 	GPIO__INPUT(RXD, C, 2);
  61:/home/rene/xpcc/src/xpcc/architecture/platform/avr/atxmega/spi/uart_spi_c0.cpp **** 	GPIO__OUTPUT(TXD, C, 3);
  62:/home/rene/xpcc/src/xpcc/architecture/platform/avr/atxmega/spi/uart_spi_c0.cpp **** 	
  63:/home/rene/xpcc/src/xpcc/architecture/platform/avr/atxmega/spi/uart_spi_c0.cpp **** 	static uint8_t* transmitBuffer(0);
  64:/home/rene/xpcc/src/xpcc/architecture/platform/avr/atxmega/spi/uart_spi_c0.cpp **** 	static uint8_t* receiveBuffer(0);
  65:/home/rene/xpcc/src/xpcc/architecture/platform/avr/atxmega/spi/uart_spi_c0.cpp **** 	static uint16_t bufferLength(0);
  66:/home/rene/xpcc/src/xpcc/architecture/platform/avr/atxmega/spi/uart_spi_c0.cpp **** 	static uint8_t dummyBuffer(0xff);
  67:/home/rene/xpcc/src/xpcc/architecture/platform/avr/atxmega/spi/uart_spi_c0.cpp **** 	enum
  68:/home/rene/xpcc/src/xpcc/architecture/platform/avr/atxmega/spi/uart_spi_c0.cpp **** 	{
  69:/home/rene/xpcc/src/xpcc/architecture/platform/avr/atxmega/spi/uart_spi_c0.cpp **** 		BUFFER_TRANSMIT_INCR_bm = 0x01,
  70:/home/rene/xpcc/src/xpcc/architecture/platform/avr/atxmega/spi/uart_spi_c0.cpp **** 		BUFFER_RECEIVE_INCR_bm = 0x02,
  71:/home/rene/xpcc/src/xpcc/architecture/platform/avr/atxmega/spi/uart_spi_c0.cpp **** 		BUFFER_TRANSMIT_IS_NOT_ZERO_bm = 0x04,
  72:/home/rene/xpcc/src/xpcc/architecture/platform/avr/atxmega/spi/uart_spi_c0.cpp **** 		BUFFER_RECEIVE_IS_NOT_ZERO_bm = 0x08,
  73:/home/rene/xpcc/src/xpcc/architecture/platform/avr/atxmega/spi/uart_spi_c0.cpp **** 		BUFFER_IS_DUMMY_bm = 0x10,
  74:/home/rene/xpcc/src/xpcc/architecture/platform/avr/atxmega/spi/uart_spi_c0.cpp **** 		BUFFER_IS_BUSY_SYNC_bm = 0x20
  75:/home/rene/xpcc/src/xpcc/architecture/platform/avr/atxmega/spi/uart_spi_c0.cpp **** 	};
  76:/home/rene/xpcc/src/xpcc/architecture/platform/avr/atxmega/spi/uart_spi_c0.cpp **** 	static uint8_t status(0);
  77:/home/rene/xpcc/src/xpcc/architecture/platform/avr/atxmega/spi/uart_spi_c0.cpp **** }
  78:/home/rene/xpcc/src/xpcc/architecture/platform/avr/atxmega/spi/uart_spi_c0.cpp **** 
  79:/home/rene/xpcc/src/xpcc/architecture/platform/avr/atxmega/spi/uart_spi_c0.cpp **** // ----------------------------------------------------------------------------
  80:/home/rene/xpcc/src/xpcc/architecture/platform/avr/atxmega/spi/uart_spi_c0.cpp **** void
  81:/home/rene/xpcc/src/xpcc/architecture/platform/avr/atxmega/spi/uart_spi_c0.cpp **** xpcc::atxmega::UartSpiMasterC0::initialize(uint32_t const bitrate)
  82:/home/rene/xpcc/src/xpcc/architecture/platform/avr/atxmega/spi/uart_spi_c0.cpp **** {
  66               		.loc 1 82 0
  67               	.LVL0:
  68               	/* prologue: function */
  69               	/* frame size = 0 */
  70               	/* stack size = 0 */
  71               	.L__stack_usage = 0
  72 0000 9B01      		movw r18,r22	 ;  D.6818, bitrate
  73 0002 AC01      		movw r20,r24	 ;  D.6818, bitrate
  74               	.LVL1:
  75               	.LBB53:
  76               	.LBB54:
  77               	.LBB55:
  78               	.LBB56:
  79               	.LBB57:
  60:/home/rene/xpcc/src/xpcc/architecture/platform/avr/atxmega/spi/uart_spi_c0.cpp **** 	GPIO__INPUT(RXD, C, 2);
  80               		.loc 1 60 0
  81 0004 84E0      		ldi r24,lo8(4)	 ;  tmp52,
  82 0006 8093 4206 		sts 1602,r24	 ;  MEM[(volatile uint8_t *)1602B], tmp52
  83               	.LBE57:
  84               	.LBE56:
  85 000a 88E1      		ldi r24,lo8(24)	 ;  tmp54,
  86 000c 8093 5206 		sts 1618,r24	 ;  MEM[(volatile uint8_t *)1618B], tmp54
  87               	.LVL2:
  88               	.LBE55:
  89               	.LBE54:
  90               	.LBB58:
  91               	.LBB59:
  92               	.LBB60:
  93               	.LBB61:
  61:/home/rene/xpcc/src/xpcc/architecture/platform/avr/atxmega/spi/uart_spi_c0.cpp **** 	GPIO__OUTPUT(TXD, C, 3);
  94               		.loc 1 61 0
  95 0010 88E0      		ldi r24,lo8(8)	 ;  tmp56,
  96 0012 8093 4506 		sts 1605,r24	 ;  MEM[(volatile uint8_t *)1605B], tmp56
  97               	.LBE61:
  98               	.LBE60:
  99               	.LBE59:
 100               	.LBB62:
 101               	.LBB63:
 102 0016 8093 4106 		sts 1601,r24	 ;  MEM[(volatile uint8_t *)1601B], tmp56
 103               	.LVL3:
 104               	.LBE63:
 105               	.LBE62:
 106               	.LBE58:
 107               	.LBB64:
 108               	.LBB65:
 109               	.LBB66:
 110               	.LBB67:
  59:/home/rene/xpcc/src/xpcc/architecture/platform/avr/atxmega/spi/uart_spi_c0.cpp **** 	GPIO__OUTPUT(XCK, C, 1);
 111               		.loc 1 59 0
 112 001a 82E0      		ldi r24,lo8(2)	 ;  tmp60,
 113 001c 8093 4606 		sts 1606,r24	 ;  MEM[(volatile uint8_t *)1606B], tmp60
 114               	.LBE67:
 115               	.LBE66:
 116               	.LBE65:
 117               	.LBB68:
 118               	.LBB69:
 119 0020 8093 4106 		sts 1601,r24	 ;  MEM[(volatile uint8_t *)1601B], tmp60
 120               	.LBE69:
 121               	.LBE68:
 122               	.LBE64:
  83:/home/rene/xpcc/src/xpcc/architecture/platform/avr/atxmega/spi/uart_spi_c0.cpp **** 	RXD::setInput(PULLUP);
  84:/home/rene/xpcc/src/xpcc/architecture/platform/avr/atxmega/spi/uart_spi_c0.cpp **** 	TXD::setOutput(xpcc::gpio::HIGH);
  85:/home/rene/xpcc/src/xpcc/architecture/platform/avr/atxmega/spi/uart_spi_c0.cpp **** 	XCK::setOutput(xpcc::gpio::LOW);
  86:/home/rene/xpcc/src/xpcc/architecture/platform/avr/atxmega/spi/uart_spi_c0.cpp **** 	
  87:/home/rene/xpcc/src/xpcc/architecture/platform/avr/atxmega/spi/uart_spi_c0.cpp **** 	uint16_t ubrr = F_CPU / (2 * bitrate) - 1;
 123               		.loc 1 87 0
 124 0024 220F      		lsl r18	 ;  D.6818
 125 0026 331F      		rol r19	 ;  D.6818
 126 0028 441F      		rol r20	 ;  D.6818
 127 002a 551F      		rol r21	 ;  D.6818
 128               	.LVL4:
  88:/home/rene/xpcc/src/xpcc/architecture/platform/avr/atxmega/spi/uart_spi_c0.cpp **** 	if (2*bitrate >= F_CPU) ubrr = 0;
 129               		.loc 1 88 0
 130 002c 2115      		cp r18,__zero_reg__	 ;  D.6818
 131 002e 84E2      		ldi r24,36	 ; ,
 132 0030 3807      		cpc r19,r24	 ;  D.6818,
 133 0032 84EF      		ldi r24,-12	 ; ,
 134 0034 4807      		cpc r20,r24	 ;  D.6818,
 135 0036 5105      		cpc r21,__zero_reg__	 ;  D.6818
 136 0038 00F4      		brsh .L3	 ; ,
  87:/home/rene/xpcc/src/xpcc/architecture/platform/avr/atxmega/spi/uart_spi_c0.cpp **** 	uint16_t ubrr = F_CPU / (2 * bitrate) - 1;
 137               		.loc 1 87 0
 138 003a 60E0      		ldi r22,0	 ; 
 139 003c 74E2      		ldi r23,lo8(36)	 ; ,
 140 003e 84EF      		ldi r24,lo8(-12)	 ; ,
 141 0040 90E0      		ldi r25,0	 ; 
 142               	.LVL5:
 143 0042 0E94 0000 		call __udivmodsi4
 144               	.LVL6:
 145 0046 2150      		subi r18,1	 ;  ubrr,
 146 0048 3109      		sbc r19,__zero_reg__	 ;  ubrr
 147               	.LVL7:
 148 004a 00C0      		rjmp .L2	 ; 
 149               	.LVL8:
 150               	.L3:
 151               		.loc 1 88 0
 152 004c 20E0      		ldi r18,0	 ;  ubrr
 153 004e 30E0      		ldi r19,0	 ;  ubrr
 154               	.LVL9:
 155               	.L2:
  89:/home/rene/xpcc/src/xpcc/architecture/platform/avr/atxmega/spi/uart_spi_c0.cpp **** 	USARTC0_BAUDCTRLB = static_cast<uint8_t>(ubrr >> 8);
 156               		.loc 1 89 0
 157 0050 832F      		mov r24,r19	 ;  tmp67, ubrr
 158 0052 9927      		clr r25	 ;  tmp67
 159 0054 8093 A708 		sts 2215,r24	 ;  MEM[(volatile uint8_t *)2215B], tmp67
  90:/home/rene/xpcc/src/xpcc/architecture/platform/avr/atxmega/spi/uart_spi_c0.cpp **** 	USARTC0_BAUDCTRLA = static_cast<uint8_t>(ubrr);
 160               		.loc 1 90 0
 161 0058 2093 A608 		sts 2214,r18	 ;  MEM[(volatile uint8_t *)2214B], ubrr
  91:/home/rene/xpcc/src/xpcc/architecture/platform/avr/atxmega/spi/uart_spi_c0.cpp **** 	
  92:/home/rene/xpcc/src/xpcc/architecture/platform/avr/atxmega/spi/uart_spi_c0.cpp **** 	// enable SPI master mode 
  93:/home/rene/xpcc/src/xpcc/architecture/platform/avr/atxmega/spi/uart_spi_c0.cpp **** 	USARTC0_CTRLA = 0;
 162               		.loc 1 93 0
 163 005c 1092 A308 		sts 2211,__zero_reg__	 ;  MEM[(volatile uint8_t *)2211B],
  94:/home/rene/xpcc/src/xpcc/architecture/platform/avr/atxmega/spi/uart_spi_c0.cpp **** 	USARTC0_CTRLC = USART_CMODE_MSPI_gc;
 164               		.loc 1 94 0
 165 0060 80EC      		ldi r24,lo8(-64)	 ;  tmp72,
 166 0062 8093 A508 		sts 2213,r24	 ;  MEM[(volatile uint8_t *)2213B], tmp72
  95:/home/rene/xpcc/src/xpcc/architecture/platform/avr/atxmega/spi/uart_spi_c0.cpp **** 	USARTC0_CTRLB = USART_RXEN_bm | USART_TXEN_bm;
 167               		.loc 1 95 0
 168 0066 88E1      		ldi r24,lo8(24)	 ;  tmp74,
 169 0068 8093 A408 		sts 2212,r24	 ;  MEM[(volatile uint8_t *)2212B], tmp74
 170 006c 0895      		ret
 171               	.LBE53:
 172               	.LFE471:
 174               		.section	.text._ZN4xpcc7atxmega15UartSpiMasterC010isFinishedEv,"ax",@progbits
 175               	.global	_ZN4xpcc7atxmega15UartSpiMasterC010isFinishedEv
 177               	_ZN4xpcc7atxmega15UartSpiMasterC010isFinishedEv:
 178               	.LFB475:
  96:/home/rene/xpcc/src/xpcc/architecture/platform/avr/atxmega/spi/uart_spi_c0.cpp **** 	
  97:/home/rene/xpcc/src/xpcc/architecture/platform/avr/atxmega/spi/uart_spi_c0.cpp **** #ifdef DMA_TX
  98:/home/rene/xpcc/src/xpcc/architecture/platform/avr/atxmega/spi/uart_spi_c0.cpp **** 	DMA_TX::initialize(dma::BURST_1BYTE,
  99:/home/rene/xpcc/src/xpcc/architecture/platform/avr/atxmega/spi/uart_spi_c0.cpp **** 					   dma::TRIGGER_DMA_USARTC0_DRE,
 100:/home/rene/xpcc/src/xpcc/architecture/platform/avr/atxmega/spi/uart_spi_c0.cpp **** 					   dma::RELOAD_TRANSACTION);
 101:/home/rene/xpcc/src/xpcc/architecture/platform/avr/atxmega/spi/uart_spi_c0.cpp **** 	DMA_TX::setDestination(&USARTC0_DATA);
 102:/home/rene/xpcc/src/xpcc/architecture/platform/avr/atxmega/spi/uart_spi_c0.cpp **** 	DMA_TX::setSingleShotMode();
 103:/home/rene/xpcc/src/xpcc/architecture/platform/avr/atxmega/spi/uart_spi_c0.cpp **** #endif
 104:/home/rene/xpcc/src/xpcc/architecture/platform/avr/atxmega/spi/uart_spi_c0.cpp **** 	
 105:/home/rene/xpcc/src/xpcc/architecture/platform/avr/atxmega/spi/uart_spi_c0.cpp **** #ifdef DMA_RX
 106:/home/rene/xpcc/src/xpcc/architecture/platform/avr/atxmega/spi/uart_spi_c0.cpp **** 	DMA_RX::initialize(dma::BURST_1BYTE,
 107:/home/rene/xpcc/src/xpcc/architecture/platform/avr/atxmega/spi/uart_spi_c0.cpp **** 					   dma::TRIGGER_DMA_USARTC0_RXC,
 108:/home/rene/xpcc/src/xpcc/architecture/platform/avr/atxmega/spi/uart_spi_c0.cpp **** 					   dma::RELOAD_NONE,
 109:/home/rene/xpcc/src/xpcc/architecture/platform/avr/atxmega/spi/uart_spi_c0.cpp **** 					   dma::ADDRESS_FIXED,
 110:/home/rene/xpcc/src/xpcc/architecture/platform/avr/atxmega/spi/uart_spi_c0.cpp **** 					   dma::RELOAD_TRANSACTION);
 111:/home/rene/xpcc/src/xpcc/architecture/platform/avr/atxmega/spi/uart_spi_c0.cpp **** 	DMA_RX::setSource(&USARTC0_DATA);
 112:/home/rene/xpcc/src/xpcc/architecture/platform/avr/atxmega/spi/uart_spi_c0.cpp **** 	DMA_RX::setSingleShotMode();
 113:/home/rene/xpcc/src/xpcc/architecture/platform/avr/atxmega/spi/uart_spi_c0.cpp **** #endif
 114:/home/rene/xpcc/src/xpcc/architecture/platform/avr/atxmega/spi/uart_spi_c0.cpp **** }
 115:/home/rene/xpcc/src/xpcc/architecture/platform/avr/atxmega/spi/uart_spi_c0.cpp **** 
 116:/home/rene/xpcc/src/xpcc/architecture/platform/avr/atxmega/spi/uart_spi_c0.cpp **** // ----------------------------------------------------------------------------
 117:/home/rene/xpcc/src/xpcc/architecture/platform/avr/atxmega/spi/uart_spi_c0.cpp **** bool
 118:/home/rene/xpcc/src/xpcc/architecture/platform/avr/atxmega/spi/uart_spi_c0.cpp **** xpcc::atxmega::UartSpiMasterC0::setBuffer(uint16_t length, uint8_t* transmit, uint8_t* receive, Buf
 119:/home/rene/xpcc/src/xpcc/architecture/platform/avr/atxmega/spi/uart_spi_c0.cpp **** {
 120:/home/rene/xpcc/src/xpcc/architecture/platform/avr/atxmega/spi/uart_spi_c0.cpp **** 	if (isBusy()) return false;
 121:/home/rene/xpcc/src/xpcc/architecture/platform/avr/atxmega/spi/uart_spi_c0.cpp **** 	
 122:/home/rene/xpcc/src/xpcc/architecture/platform/avr/atxmega/spi/uart_spi_c0.cpp **** 	transmitBuffer = transmit;
 123:/home/rene/xpcc/src/xpcc/architecture/platform/avr/atxmega/spi/uart_spi_c0.cpp **** 	receiveBuffer = receive ? receive : transmit;
 124:/home/rene/xpcc/src/xpcc/architecture/platform/avr/atxmega/spi/uart_spi_c0.cpp **** 	bufferLength = length;
 125:/home/rene/xpcc/src/xpcc/architecture/platform/avr/atxmega/spi/uart_spi_c0.cpp **** 	status &= ~(BUFFER_TRANSMIT_INCR_bm | BUFFER_RECEIVE_INCR_bm);
 126:/home/rene/xpcc/src/xpcc/architecture/platform/avr/atxmega/spi/uart_spi_c0.cpp **** 	status |= bufferIncrease;
 127:/home/rene/xpcc/src/xpcc/architecture/platform/avr/atxmega/spi/uart_spi_c0.cpp **** 	
 128:/home/rene/xpcc/src/xpcc/architecture/platform/avr/atxmega/spi/uart_spi_c0.cpp **** #ifdef DMA_TX
 129:/home/rene/xpcc/src/xpcc/architecture/platform/avr/atxmega/spi/uart_spi_c0.cpp **** 	DMA_TX::setBlockTransferCount(bufferLength);
 130:/home/rene/xpcc/src/xpcc/architecture/platform/avr/atxmega/spi/uart_spi_c0.cpp **** 	if (transmit)
 131:/home/rene/xpcc/src/xpcc/architecture/platform/avr/atxmega/spi/uart_spi_c0.cpp **** 	{
 132:/home/rene/xpcc/src/xpcc/architecture/platform/avr/atxmega/spi/uart_spi_c0.cpp **** 		DMA_TX::setSourceAddressMode((bufferIncrease & BUFFER_INCR_TRANSMIT_DECR_RECEIVE)
 133:/home/rene/xpcc/src/xpcc/architecture/platform/avr/atxmega/spi/uart_spi_c0.cpp **** 									 ? dma::ADDRESS_INCREMENT : dma::ADDRESS_DECREMENT);
 134:/home/rene/xpcc/src/xpcc/architecture/platform/avr/atxmega/spi/uart_spi_c0.cpp **** 		DMA_TX::setSource(transmitBuffer);
 135:/home/rene/xpcc/src/xpcc/architecture/platform/avr/atxmega/spi/uart_spi_c0.cpp **** 		// tell everyone we have a non-zero buffer
 136:/home/rene/xpcc/src/xpcc/architecture/platform/avr/atxmega/spi/uart_spi_c0.cpp **** 		status |= BUFFER_TRANSMIT_IS_NOT_ZERO_bm;
 137:/home/rene/xpcc/src/xpcc/architecture/platform/avr/atxmega/spi/uart_spi_c0.cpp **** 	}
 138:/home/rene/xpcc/src/xpcc/architecture/platform/avr/atxmega/spi/uart_spi_c0.cpp **** 	else {
 139:/home/rene/xpcc/src/xpcc/architecture/platform/avr/atxmega/spi/uart_spi_c0.cpp **** 		// no buffer means we should send a dummy value
 140:/home/rene/xpcc/src/xpcc/architecture/platform/avr/atxmega/spi/uart_spi_c0.cpp **** 		DMA_TX::setSource(&dummyBuffer);
 141:/home/rene/xpcc/src/xpcc/architecture/platform/avr/atxmega/spi/uart_spi_c0.cpp **** 		// stop the address from increasing
 142:/home/rene/xpcc/src/xpcc/architecture/platform/avr/atxmega/spi/uart_spi_c0.cpp **** 		DMA_TX::setSourceAddressMode(dma::ADDRESS_FIXED);
 143:/home/rene/xpcc/src/xpcc/architecture/platform/avr/atxmega/spi/uart_spi_c0.cpp **** 		status &= ~BUFFER_TRANSMIT_IS_NOT_ZERO_bm;
 144:/home/rene/xpcc/src/xpcc/architecture/platform/avr/atxmega/spi/uart_spi_c0.cpp **** 	}
 145:/home/rene/xpcc/src/xpcc/architecture/platform/avr/atxmega/spi/uart_spi_c0.cpp **** #endif
 146:/home/rene/xpcc/src/xpcc/architecture/platform/avr/atxmega/spi/uart_spi_c0.cpp **** 	
 147:/home/rene/xpcc/src/xpcc/architecture/platform/avr/atxmega/spi/uart_spi_c0.cpp **** #ifdef DMA_RX
 148:/home/rene/xpcc/src/xpcc/architecture/platform/avr/atxmega/spi/uart_spi_c0.cpp **** 	if (receive)
 149:/home/rene/xpcc/src/xpcc/architecture/platform/avr/atxmega/spi/uart_spi_c0.cpp **** 	{
 150:/home/rene/xpcc/src/xpcc/architecture/platform/avr/atxmega/spi/uart_spi_c0.cpp **** 		DMA_RX::setBlockTransferCount(bufferLength);
 151:/home/rene/xpcc/src/xpcc/architecture/platform/avr/atxmega/spi/uart_spi_c0.cpp **** 		DMA_RX::setDestinationAddressMode((bufferIncrease & BUFFER_DECR_TRANSMIT_INCR_RECEIVE)
 152:/home/rene/xpcc/src/xpcc/architecture/platform/avr/atxmega/spi/uart_spi_c0.cpp **** 										  ? dma::ADDRESS_INCREMENT : dma::ADDRESS_DECREMENT);
 153:/home/rene/xpcc/src/xpcc/architecture/platform/avr/atxmega/spi/uart_spi_c0.cpp **** 		DMA_RX::setDestination(receiveBuffer);
 154:/home/rene/xpcc/src/xpcc/architecture/platform/avr/atxmega/spi/uart_spi_c0.cpp **** 		// tell everyone we have a non-zero buffer
 155:/home/rene/xpcc/src/xpcc/architecture/platform/avr/atxmega/spi/uart_spi_c0.cpp **** 		status |= BUFFER_RECEIVE_IS_NOT_ZERO_bm;
 156:/home/rene/xpcc/src/xpcc/architecture/platform/avr/atxmega/spi/uart_spi_c0.cpp **** 	}
 157:/home/rene/xpcc/src/xpcc/architecture/platform/avr/atxmega/spi/uart_spi_c0.cpp **** 	else {
 158:/home/rene/xpcc/src/xpcc/architecture/platform/avr/atxmega/spi/uart_spi_c0.cpp **** 		// we could write to a dummy buffer, but what use is that?
 159:/home/rene/xpcc/src/xpcc/architecture/platform/avr/atxmega/spi/uart_spi_c0.cpp **** 		status &= ~BUFFER_TRANSMIT_IS_NOT_ZERO_bm;
 160:/home/rene/xpcc/src/xpcc/architecture/platform/avr/atxmega/spi/uart_spi_c0.cpp **** 	}
 161:/home/rene/xpcc/src/xpcc/architecture/platform/avr/atxmega/spi/uart_spi_c0.cpp **** #endif
 162:/home/rene/xpcc/src/xpcc/architecture/platform/avr/atxmega/spi/uart_spi_c0.cpp **** 	
 163:/home/rene/xpcc/src/xpcc/architecture/platform/avr/atxmega/spi/uart_spi_c0.cpp **** 	return true;
 164:/home/rene/xpcc/src/xpcc/architecture/platform/avr/atxmega/spi/uart_spi_c0.cpp **** }
 165:/home/rene/xpcc/src/xpcc/architecture/platform/avr/atxmega/spi/uart_spi_c0.cpp **** 
 166:/home/rene/xpcc/src/xpcc/architecture/platform/avr/atxmega/spi/uart_spi_c0.cpp **** // ----------------------------------------------------------------------------
 167:/home/rene/xpcc/src/xpcc/architecture/platform/avr/atxmega/spi/uart_spi_c0.cpp **** bool
 168:/home/rene/xpcc/src/xpcc/architecture/platform/avr/atxmega/spi/uart_spi_c0.cpp **** xpcc::atxmega::UartSpiMasterC0::transfer(TransferOptions options)
 169:/home/rene/xpcc/src/xpcc/architecture/platform/avr/atxmega/spi/uart_spi_c0.cpp **** {
 170:/home/rene/xpcc/src/xpcc/architecture/platform/avr/atxmega/spi/uart_spi_c0.cpp **** 	if (isBusy()) return false;
 171:/home/rene/xpcc/src/xpcc/architecture/platform/avr/atxmega/spi/uart_spi_c0.cpp **** 	
 172:/home/rene/xpcc/src/xpcc/architecture/platform/avr/atxmega/spi/uart_spi_c0.cpp **** #if defined (DMA_TX) || defined (DMA_RX)
 173:/home/rene/xpcc/src/xpcc/architecture/platform/avr/atxmega/spi/uart_spi_c0.cpp **** 		
 174:/home/rene/xpcc/src/xpcc/architecture/platform/avr/atxmega/spi/uart_spi_c0.cpp **** #	ifdef DMA_TX
 175:/home/rene/xpcc/src/xpcc/architecture/platform/avr/atxmega/spi/uart_spi_c0.cpp **** 	DMA_TX::getAndClearStatus();
 176:/home/rene/xpcc/src/xpcc/architecture/platform/avr/atxmega/spi/uart_spi_c0.cpp **** 	
 177:/home/rene/xpcc/src/xpcc/architecture/platform/avr/atxmega/spi/uart_spi_c0.cpp **** 	if (status & BUFFER_TRANSMIT_IS_NOT_ZERO_bm)
 178:/home/rene/xpcc/src/xpcc/architecture/platform/avr/atxmega/spi/uart_spi_c0.cpp **** 	{// if buffer is not intentionally set to dummy values
 179:/home/rene/xpcc/src/xpcc/architecture/platform/avr/atxmega/spi/uart_spi_c0.cpp **** 		if (!(options & TRANSFER_SEND_BUFFER_DISCARD_RECEIVE)) {
 180:/home/rene/xpcc/src/xpcc/architecture/platform/avr/atxmega/spi/uart_spi_c0.cpp **** 			// temporarily use the dummy buffer
 181:/home/rene/xpcc/src/xpcc/architecture/platform/avr/atxmega/spi/uart_spi_c0.cpp **** 			DMA_TX::setSourceAddressMode(dma::ADDRESS_FIXED);
 182:/home/rene/xpcc/src/xpcc/architecture/platform/avr/atxmega/spi/uart_spi_c0.cpp **** 			DMA_TX::setSource(&dummyBuffer);
 183:/home/rene/xpcc/src/xpcc/architecture/platform/avr/atxmega/spi/uart_spi_c0.cpp **** 			status |= BUFFER_IS_DUMMY_bm;
 184:/home/rene/xpcc/src/xpcc/architecture/platform/avr/atxmega/spi/uart_spi_c0.cpp **** 		}
 185:/home/rene/xpcc/src/xpcc/architecture/platform/avr/atxmega/spi/uart_spi_c0.cpp **** 		else if (status & BUFFER_IS_DUMMY_bm) {
 186:/home/rene/xpcc/src/xpcc/architecture/platform/avr/atxmega/spi/uart_spi_c0.cpp **** 			// we need to reset all the setting, since the last transfer was with
 187:/home/rene/xpcc/src/xpcc/architecture/platform/avr/atxmega/spi/uart_spi_c0.cpp **** 			// dummy values
 188:/home/rene/xpcc/src/xpcc/architecture/platform/avr/atxmega/spi/uart_spi_c0.cpp **** 			DMA_TX::setSourceAddressMode((status & BUFFER_TRANSMIT_INCR_bm) ? dma::ADDRESS_INCREMENT : dma::
 189:/home/rene/xpcc/src/xpcc/architecture/platform/avr/atxmega/spi/uart_spi_c0.cpp **** 			DMA_TX::setSource(transmitBuffer);
 190:/home/rene/xpcc/src/xpcc/architecture/platform/avr/atxmega/spi/uart_spi_c0.cpp **** 			status &= ~BUFFER_IS_DUMMY_bm;
 191:/home/rene/xpcc/src/xpcc/architecture/platform/avr/atxmega/spi/uart_spi_c0.cpp **** 		}
 192:/home/rene/xpcc/src/xpcc/architecture/platform/avr/atxmega/spi/uart_spi_c0.cpp **** 	}
 193:/home/rene/xpcc/src/xpcc/architecture/platform/avr/atxmega/spi/uart_spi_c0.cpp **** 	// Start the DMA transfer
 194:/home/rene/xpcc/src/xpcc/architecture/platform/avr/atxmega/spi/uart_spi_c0.cpp **** 	DMA_TX::enable();
 195:/home/rene/xpcc/src/xpcc/architecture/platform/avr/atxmega/spi/uart_spi_c0.cpp **** #	endif
 196:/home/rene/xpcc/src/xpcc/architecture/platform/avr/atxmega/spi/uart_spi_c0.cpp **** 	
 197:/home/rene/xpcc/src/xpcc/architecture/platform/avr/atxmega/spi/uart_spi_c0.cpp **** #	ifdef DMA_RX
 198:/home/rene/xpcc/src/xpcc/architecture/platform/avr/atxmega/spi/uart_spi_c0.cpp **** 	DMA_RX::getAndClearStatus();
 199:/home/rene/xpcc/src/xpcc/architecture/platform/avr/atxmega/spi/uart_spi_c0.cpp **** 	
 200:/home/rene/xpcc/src/xpcc/architecture/platform/avr/atxmega/spi/uart_spi_c0.cpp **** 	// if there is a buffer to write something to, start the DMA transfer
 201:/home/rene/xpcc/src/xpcc/architecture/platform/avr/atxmega/spi/uart_spi_c0.cpp **** 	if ((options & TRANSFER_SEND_DUMMY_SAVE_RECEIVE)
 202:/home/rene/xpcc/src/xpcc/architecture/platform/avr/atxmega/spi/uart_spi_c0.cpp **** 		&& (status & BUFFER_RECEIVE_IS_NOT_ZERO_bm)) {
 203:/home/rene/xpcc/src/xpcc/architecture/platform/avr/atxmega/spi/uart_spi_c0.cpp **** 		// empty the buffer
 204:/home/rene/xpcc/src/xpcc/architecture/platform/avr/atxmega/spi/uart_spi_c0.cpp **** 		(void) USARTC0_DATA;
 205:/home/rene/xpcc/src/xpcc/architecture/platform/avr/atxmega/spi/uart_spi_c0.cpp **** 		DMA_RX::enable();
 206:/home/rene/xpcc/src/xpcc/architecture/platform/avr/atxmega/spi/uart_spi_c0.cpp **** 	}
 207:/home/rene/xpcc/src/xpcc/architecture/platform/avr/atxmega/spi/uart_spi_c0.cpp **** #	endif
 208:/home/rene/xpcc/src/xpcc/architecture/platform/avr/atxmega/spi/uart_spi_c0.cpp **** 	
 209:/home/rene/xpcc/src/xpcc/architecture/platform/avr/atxmega/spi/uart_spi_c0.cpp **** #else
 210:/home/rene/xpcc/src/xpcc/architecture/platform/avr/atxmega/spi/uart_spi_c0.cpp **** 	uint8_t rx(0), tx(dummyBuffer);
 211:/home/rene/xpcc/src/xpcc/architecture/platform/avr/atxmega/spi/uart_spi_c0.cpp **** 	// send the buffer out, blocking
 212:/home/rene/xpcc/src/xpcc/architecture/platform/avr/atxmega/spi/uart_spi_c0.cpp **** 	status |= BUFFER_IS_BUSY_SYNC_bm;
 213:/home/rene/xpcc/src/xpcc/architecture/platform/avr/atxmega/spi/uart_spi_c0.cpp **** 	// check if we have to use a dummy buffer
 214:/home/rene/xpcc/src/xpcc/architecture/platform/avr/atxmega/spi/uart_spi_c0.cpp **** 	bool transmit = (options & TRANSFER_SEND_BUFFER_DISCARD_RECEIVE) & static_cast<bool>(transmitBuffe
 215:/home/rene/xpcc/src/xpcc/architecture/platform/avr/atxmega/spi/uart_spi_c0.cpp **** 	bool receive = (options & TRANSFER_SEND_DUMMY_SAVE_RECEIVE) & static_cast<bool>(receiveBuffer);
 216:/home/rene/xpcc/src/xpcc/architecture/platform/avr/atxmega/spi/uart_spi_c0.cpp **** 	
 217:/home/rene/xpcc/src/xpcc/architecture/platform/avr/atxmega/spi/uart_spi_c0.cpp **** 	for(uint_fast16_t i=0; i < bufferLength; ++i)
 218:/home/rene/xpcc/src/xpcc/architecture/platform/avr/atxmega/spi/uart_spi_c0.cpp **** 	{
 219:/home/rene/xpcc/src/xpcc/architecture/platform/avr/atxmega/spi/uart_spi_c0.cpp **** 		if (transmit) {
 220:/home/rene/xpcc/src/xpcc/architecture/platform/avr/atxmega/spi/uart_spi_c0.cpp **** 			tx = transmitBuffer[(status & BUFFER_TRANSMIT_INCR_bm) ? i : bufferLength-1-i];
 221:/home/rene/xpcc/src/xpcc/architecture/platform/avr/atxmega/spi/uart_spi_c0.cpp **** 		}
 222:/home/rene/xpcc/src/xpcc/architecture/platform/avr/atxmega/spi/uart_spi_c0.cpp **** 		
 223:/home/rene/xpcc/src/xpcc/architecture/platform/avr/atxmega/spi/uart_spi_c0.cpp **** 		rx = write(tx);
 224:/home/rene/xpcc/src/xpcc/architecture/platform/avr/atxmega/spi/uart_spi_c0.cpp **** 		
 225:/home/rene/xpcc/src/xpcc/architecture/platform/avr/atxmega/spi/uart_spi_c0.cpp **** 		if (receive) {
 226:/home/rene/xpcc/src/xpcc/architecture/platform/avr/atxmega/spi/uart_spi_c0.cpp **** 			receiveBuffer[(status & BUFFER_RECEIVE_INCR_bm) ? i : bufferLength-1-i] = rx;
 227:/home/rene/xpcc/src/xpcc/architecture/platform/avr/atxmega/spi/uart_spi_c0.cpp **** 		}
 228:/home/rene/xpcc/src/xpcc/architecture/platform/avr/atxmega/spi/uart_spi_c0.cpp **** 	}
 229:/home/rene/xpcc/src/xpcc/architecture/platform/avr/atxmega/spi/uart_spi_c0.cpp **** 	
 230:/home/rene/xpcc/src/xpcc/architecture/platform/avr/atxmega/spi/uart_spi_c0.cpp **** 	status &= ~BUFFER_IS_BUSY_SYNC_bm;
 231:/home/rene/xpcc/src/xpcc/architecture/platform/avr/atxmega/spi/uart_spi_c0.cpp **** #endif
 232:/home/rene/xpcc/src/xpcc/architecture/platform/avr/atxmega/spi/uart_spi_c0.cpp **** 	
 233:/home/rene/xpcc/src/xpcc/architecture/platform/avr/atxmega/spi/uart_spi_c0.cpp **** 	return true;
 234:/home/rene/xpcc/src/xpcc/architecture/platform/avr/atxmega/spi/uart_spi_c0.cpp **** }
 235:/home/rene/xpcc/src/xpcc/architecture/platform/avr/atxmega/spi/uart_spi_c0.cpp **** 
 236:/home/rene/xpcc/src/xpcc/architecture/platform/avr/atxmega/spi/uart_spi_c0.cpp **** 
 237:/home/rene/xpcc/src/xpcc/architecture/platform/avr/atxmega/spi/uart_spi_c0.cpp **** bool
 238:/home/rene/xpcc/src/xpcc/architecture/platform/avr/atxmega/spi/uart_spi_c0.cpp **** xpcc::atxmega::UartSpiMasterC0::transferSync(TransferOptions options)
 239:/home/rene/xpcc/src/xpcc/architecture/platform/avr/atxmega/spi/uart_spi_c0.cpp **** {
 240:/home/rene/xpcc/src/xpcc/architecture/platform/avr/atxmega/spi/uart_spi_c0.cpp **** #if defined (DMA_TX) || defined (DMA_RX)
 241:/home/rene/xpcc/src/xpcc/architecture/platform/avr/atxmega/spi/uart_spi_c0.cpp **** 	if (transfer(options))
 242:/home/rene/xpcc/src/xpcc/architecture/platform/avr/atxmega/spi/uart_spi_c0.cpp **** 	{
 243:/home/rene/xpcc/src/xpcc/architecture/platform/avr/atxmega/spi/uart_spi_c0.cpp **** 		while (!isFinished())
 244:/home/rene/xpcc/src/xpcc/architecture/platform/avr/atxmega/spi/uart_spi_c0.cpp **** 			;
 245:/home/rene/xpcc/src/xpcc/architecture/platform/avr/atxmega/spi/uart_spi_c0.cpp **** 		return true;
 246:/home/rene/xpcc/src/xpcc/architecture/platform/avr/atxmega/spi/uart_spi_c0.cpp **** 	}
 247:/home/rene/xpcc/src/xpcc/architecture/platform/avr/atxmega/spi/uart_spi_c0.cpp **** 	return false;
 248:/home/rene/xpcc/src/xpcc/architecture/platform/avr/atxmega/spi/uart_spi_c0.cpp **** #else
 249:/home/rene/xpcc/src/xpcc/architecture/platform/avr/atxmega/spi/uart_spi_c0.cpp **** 	return transfer(options);
 250:/home/rene/xpcc/src/xpcc/architecture/platform/avr/atxmega/spi/uart_spi_c0.cpp **** #endif
 251:/home/rene/xpcc/src/xpcc/architecture/platform/avr/atxmega/spi/uart_spi_c0.cpp **** }
 252:/home/rene/xpcc/src/xpcc/architecture/platform/avr/atxmega/spi/uart_spi_c0.cpp **** 
 253:/home/rene/xpcc/src/xpcc/architecture/platform/avr/atxmega/spi/uart_spi_c0.cpp **** bool
 254:/home/rene/xpcc/src/xpcc/architecture/platform/avr/atxmega/spi/uart_spi_c0.cpp **** xpcc::atxmega::UartSpiMasterC0::isFinished()
 255:/home/rene/xpcc/src/xpcc/architecture/platform/avr/atxmega/spi/uart_spi_c0.cpp **** {
 179               		.loc 1 255 0
 180               	/* prologue: function */
 181               	/* frame size = 0 */
 182               	/* stack size = 0 */
 183               	.L__stack_usage = 0
 256:/home/rene/xpcc/src/xpcc/architecture/platform/avr/atxmega/spi/uart_spi_c0.cpp **** #ifdef DMA_TX
 257:/home/rene/xpcc/src/xpcc/architecture/platform/avr/atxmega/spi/uart_spi_c0.cpp **** 	return (DMA_TX::getStatus() & (DMA_CH_ERRIF_bm | DMA_CH_TRNIF_bm)) && (USARTC0_STATUS & USART_TXCI
 258:/home/rene/xpcc/src/xpcc/architecture/platform/avr/atxmega/spi/uart_spi_c0.cpp **** #else
 259:/home/rene/xpcc/src/xpcc/architecture/platform/avr/atxmega/spi/uart_spi_c0.cpp **** 	return !(status & BUFFER_IS_BUSY_SYNC_bm);
 184               		.loc 1 259 0
 185 0000 8091 0000 		lds r24,_ZN12_GLOBAL__N_1L6statusE	 ;  status, status
 186 0004 85FB      		bst r24,5	 ;  status,
 187 0006 8827      		clr r24	 ;  tmp49
 188 0008 80F9      		bld r24,0	 ;  tmp49
 260:/home/rene/xpcc/src/xpcc/architecture/platform/avr/atxmega/spi/uart_spi_c0.cpp **** #endif
 261:/home/rene/xpcc/src/xpcc/architecture/platform/avr/atxmega/spi/uart_spi_c0.cpp **** }
 189               		.loc 1 261 0
 190 000a 91E0      		ldi r25,lo8(1)	 ;  tmp50,
 191 000c 8927      		eor r24,r25	 ; , tmp50
 192 000e 0895      		ret
 193               	.LFE475:
 195               		.section	.text._ZN4xpcc7atxmega15UartSpiMasterC06isBusyEv,"ax",@progbits
 196               	.global	_ZN4xpcc7atxmega15UartSpiMasterC06isBusyEv
 198               	_ZN4xpcc7atxmega15UartSpiMasterC06isBusyEv:
 199               	.LFB476:
 262:/home/rene/xpcc/src/xpcc/architecture/platform/avr/atxmega/spi/uart_spi_c0.cpp **** 
 263:/home/rene/xpcc/src/xpcc/architecture/platform/avr/atxmega/spi/uart_spi_c0.cpp **** bool
 264:/home/rene/xpcc/src/xpcc/architecture/platform/avr/atxmega/spi/uart_spi_c0.cpp **** xpcc::atxmega::UartSpiMasterC0::isBusy()
 265:/home/rene/xpcc/src/xpcc/architecture/platform/avr/atxmega/spi/uart_spi_c0.cpp **** {
 200               		.loc 1 265 0
 201               	/* prologue: function */
 202               	/* frame size = 0 */
 203               	/* stack size = 0 */
 204               	.L__stack_usage = 0
 266:/home/rene/xpcc/src/xpcc/architecture/platform/avr/atxmega/spi/uart_spi_c0.cpp **** #ifdef DMA_TX
 267:/home/rene/xpcc/src/xpcc/architecture/platform/avr/atxmega/spi/uart_spi_c0.cpp **** 	return (DMA_TX::getStatus() & (DMA_CH_CHPEND_bm | DMA_CH_CHBUSY_bm));
 268:/home/rene/xpcc/src/xpcc/architecture/platform/avr/atxmega/spi/uart_spi_c0.cpp **** #else
 269:/home/rene/xpcc/src/xpcc/architecture/platform/avr/atxmega/spi/uart_spi_c0.cpp **** 	return (status & BUFFER_IS_BUSY_SYNC_bm);
 205               		.loc 1 269 0
 206 0000 8091 0000 		lds r24,_ZN12_GLOBAL__N_1L6statusE	 ;  status, status
 270:/home/rene/xpcc/src/xpcc/architecture/platform/avr/atxmega/spi/uart_spi_c0.cpp **** #endif
 271:/home/rene/xpcc/src/xpcc/architecture/platform/avr/atxmega/spi/uart_spi_c0.cpp **** }
 207               		.loc 1 271 0
 208 0004 85FB      		bst r24,5	 ;  status,
 209 0006 8827      		clr r24	 ; 
 210 0008 80F9      		bld r24,0	 ; 
 211 000a 0895      		ret
 212               	.LFE476:
 214               		.section	.text._ZN4xpcc7atxmega15UartSpiMasterC09setBufferEjPhS2_NS_9SpiMaster14BufferIncreaseE,"a
 215               	.global	_ZN4xpcc7atxmega15UartSpiMasterC09setBufferEjPhS2_NS_9SpiMaster14BufferIncreaseE
 217               	_ZN4xpcc7atxmega15UartSpiMasterC09setBufferEjPhS2_NS_9SpiMaster14BufferIncreaseE:
 218               	.LFB472:
 119:/home/rene/xpcc/src/xpcc/architecture/platform/avr/atxmega/spi/uart_spi_c0.cpp **** {
 219               		.loc 1 119 0
 220               	.LVL10:
 221 0000 CF92      		push r12	 ; 
 222               	.LCFI0:
 223 0002 DF92      		push r13	 ; 
 224               	.LCFI1:
 225 0004 EF92      		push r14	 ; 
 226               	.LCFI2:
 227 0006 FF92      		push r15	 ; 
 228               	.LCFI3:
 229 0008 0F93      		push r16	 ; 
 230               	.LCFI4:
 231 000a 1F93      		push r17	 ; 
 232               	.LCFI5:
 233 000c CF93      		push r28	 ; 
 234               	.LCFI6:
 235 000e DF93      		push r29	 ; 
 236               	.LCFI7:
 237               		 ; SP -= 1	 ; 
 238 0010 1F92      		push __zero_reg__
 239               	.LCFI8:
 240 0012 CDB7      		in r28,__SP_L__	 ; 
 241 0014 DEB7      		in r29,__SP_H__	 ; 
 242               	.LCFI9:
 243               	/* prologue: function */
 244               	/* frame size = 1 */
 245               	/* stack size = 9 */
 246               	.L__stack_usage = 9
 247 0016 7C01      		movw r14,r24	 ;  length, length
 248 0018 8B01      		movw r16,r22	 ;  transmit, transmit
 249 001a 6A01      		movw r12,r20	 ;  receive, receive
 120:/home/rene/xpcc/src/xpcc/architecture/platform/avr/atxmega/spi/uart_spi_c0.cpp **** 	if (isBusy()) return false;
 250               		.loc 1 120 0
 251 001c 2983      		std Y+1,r18	 ; ,
 252 001e 0E94 0000 		call _ZN4xpcc7atxmega15UartSpiMasterC06isBusyEv	 ; 
 253               	.LVL11:
 254 0022 2981      		ldd r18,Y+1	 ; ,
 255               	.LVL12:
 256 0024 8111      		cpse r24,__zero_reg__	 ; ,
 257 0026 00C0      		rjmp .L9	 ; 
 122:/home/rene/xpcc/src/xpcc/architecture/platform/avr/atxmega/spi/uart_spi_c0.cpp **** 	transmitBuffer = transmit;
 258               		.loc 1 122 0
 259 0028 0093 0000 		sts _ZN12_GLOBAL__N_1L14transmitBufferE,r16	 ;  transmitBuffer, transmit
 260 002c 1093 0000 		sts _ZN12_GLOBAL__N_1L14transmitBufferE+1,r17	 ;  transmitBuffer, transmit
 123:/home/rene/xpcc/src/xpcc/architecture/platform/avr/atxmega/spi/uart_spi_c0.cpp **** 	receiveBuffer = receive ? receive : transmit;
 261               		.loc 1 123 0
 262 0030 C114      		cp r12,__zero_reg__	 ;  receive
 263 0032 D104      		cpc r13,__zero_reg__	 ;  receive
 264 0034 01F4      		brne .L8	 ; ,
 265 0036 6801      		movw r12,r16	 ;  receive, transmit
 266               	.LVL13:
 267               	.L8:
 123:/home/rene/xpcc/src/xpcc/architecture/platform/avr/atxmega/spi/uart_spi_c0.cpp **** 	receiveBuffer = receive ? receive : transmit;
 268               		.loc 1 123 0 is_stmt 0 discriminator 3
 269 0038 C092 0000 		sts _ZN12_GLOBAL__N_1L13receiveBufferE,r12	 ;  receiveBuffer, receive
 270 003c D092 0000 		sts _ZN12_GLOBAL__N_1L13receiveBufferE+1,r13	 ;  receiveBuffer, receive
 124:/home/rene/xpcc/src/xpcc/architecture/platform/avr/atxmega/spi/uart_spi_c0.cpp **** 	bufferLength = length;
 271               		.loc 1 124 0 is_stmt 1 discriminator 3
 272 0040 E092 0000 		sts _ZN12_GLOBAL__N_1L12bufferLengthE,r14	 ;  bufferLength, length
 273 0044 F092 0000 		sts _ZN12_GLOBAL__N_1L12bufferLengthE+1,r15	 ;  bufferLength, length
 125:/home/rene/xpcc/src/xpcc/architecture/platform/avr/atxmega/spi/uart_spi_c0.cpp **** 	status &= ~(BUFFER_TRANSMIT_INCR_bm | BUFFER_RECEIVE_INCR_bm);
 274               		.loc 1 125 0 discriminator 3
 275 0048 8091 0000 		lds r24,_ZN12_GLOBAL__N_1L6statusE	 ;  tmp54, status
 276 004c 8C7F      		andi r24,lo8(-4)	 ;  tmp54,
 126:/home/rene/xpcc/src/xpcc/architecture/platform/avr/atxmega/spi/uart_spi_c0.cpp **** 	status |= bufferIncrease;
 277               		.loc 1 126 0 discriminator 3
 278 004e 822B      		or r24,r18	 ;  tmp54, bufferIncrease
 279 0050 8093 0000 		sts _ZN12_GLOBAL__N_1L6statusE,r24	 ;  status, tmp54
 163:/home/rene/xpcc/src/xpcc/architecture/platform/avr/atxmega/spi/uart_spi_c0.cpp **** 	return true;
 280               		.loc 1 163 0 discriminator 3
 281 0054 81E0      		ldi r24,lo8(1)	 ;  D.6809,
 282 0056 00C0      		rjmp .L7	 ; 
 283               	.LVL14:
 284               	.L9:
 120:/home/rene/xpcc/src/xpcc/architecture/platform/avr/atxmega/spi/uart_spi_c0.cpp **** 	if (isBusy()) return false;
 285               		.loc 1 120 0
 286 0058 80E0      		ldi r24,0	 ;  D.6809
 287               	.LVL15:
 288               	.L7:
 289               	/* epilogue start */
 164:/home/rene/xpcc/src/xpcc/architecture/platform/avr/atxmega/spi/uart_spi_c0.cpp **** }
 290               		.loc 1 164 0
 291               		 ; SP += 1	 ; 
 292 005a 0F90      		pop __tmp_reg__
 293 005c DF91      		pop r29	 ; 
 294 005e CF91      		pop r28	 ; 
 295 0060 1F91      		pop r17	 ; 
 296 0062 0F91      		pop r16	 ; 
 297               	.LVL16:
 298 0064 FF90      		pop r15	 ; 
 299 0066 EF90      		pop r14	 ; 
 300               	.LVL17:
 301 0068 DF90      		pop r13	 ; 
 302 006a CF90      		pop r12	 ; 
 303 006c 0895      		ret
 304               	.LFE472:
 306               		.section	.text._ZN4xpcc7atxmega15UartSpiMasterC05writeEh,"ax",@progbits
 307               	.global	_ZN4xpcc7atxmega15UartSpiMasterC05writeEh
 309               	_ZN4xpcc7atxmega15UartSpiMasterC05writeEh:
 310               	.LFB477:
 272:/home/rene/xpcc/src/xpcc/architecture/platform/avr/atxmega/spi/uart_spi_c0.cpp **** 
 273:/home/rene/xpcc/src/xpcc/architecture/platform/avr/atxmega/spi/uart_spi_c0.cpp **** // ----------------------------------------------------------------------------
 274:/home/rene/xpcc/src/xpcc/architecture/platform/avr/atxmega/spi/uart_spi_c0.cpp **** uint8_t
 275:/home/rene/xpcc/src/xpcc/architecture/platform/avr/atxmega/spi/uart_spi_c0.cpp **** xpcc::atxmega::UartSpiMasterC0::write(uint8_t data)
 276:/home/rene/xpcc/src/xpcc/architecture/platform/avr/atxmega/spi/uart_spi_c0.cpp **** {
 311               		.loc 1 276 0
 312               	.LVL18:
 313               	/* prologue: function */
 314               	/* frame size = 0 */
 315               	/* stack size = 0 */
 316               	.L__stack_usage = 0
 277:/home/rene/xpcc/src/xpcc/architecture/platform/avr/atxmega/spi/uart_spi_c0.cpp **** 	// clear flags
 278:/home/rene/xpcc/src/xpcc/architecture/platform/avr/atxmega/spi/uart_spi_c0.cpp **** 	USARTC0_STATUS = USART_RXCIF_bm;
 317               		.loc 1 278 0
 318 0000 90E8      		ldi r25,lo8(-128)	 ;  tmp48,
 319 0002 9093 A108 		sts 2209,r25	 ;  MEM[(volatile uint8_t *)2209B], tmp48
 279:/home/rene/xpcc/src/xpcc/architecture/platform/avr/atxmega/spi/uart_spi_c0.cpp **** 	
 280:/home/rene/xpcc/src/xpcc/architecture/platform/avr/atxmega/spi/uart_spi_c0.cpp **** 	// send byte
 281:/home/rene/xpcc/src/xpcc/architecture/platform/avr/atxmega/spi/uart_spi_c0.cpp **** 	USARTC0_DATA = data;
 320               		.loc 1 281 0
 321 0006 8093 A008 		sts 2208,r24	 ;  MEM[(volatile uint8_t *)2208B], data
 322               	.LVL19:
 323               	.L12:
 282:/home/rene/xpcc/src/xpcc/architecture/platform/avr/atxmega/spi/uart_spi_c0.cpp **** 	
 283:/home/rene/xpcc/src/xpcc/architecture/platform/avr/atxmega/spi/uart_spi_c0.cpp **** 	// wait until the byte is transmitted
 284:/home/rene/xpcc/src/xpcc/architecture/platform/avr/atxmega/spi/uart_spi_c0.cpp **** 	while (!(USARTC0_STATUS & USART_RXCIF_bm))
 324               		.loc 1 284 0 discriminator 1
 325 000a 8091 A108 		lds r24,2209	 ;  D.6746, MEM[(volatile uint8_t *)2209B]
 326 000e 87FF      		sbrs r24,7	 ;  D.6746,
 327 0010 00C0      		rjmp .L12	 ; 
 285:/home/rene/xpcc/src/xpcc/architecture/platform/avr/atxmega/spi/uart_spi_c0.cpp **** 		;
 286:/home/rene/xpcc/src/xpcc/architecture/platform/avr/atxmega/spi/uart_spi_c0.cpp **** 	
 287:/home/rene/xpcc/src/xpcc/architecture/platform/avr/atxmega/spi/uart_spi_c0.cpp **** 	return USARTC0_DATA;
 328               		.loc 1 287 0
 329 0012 8091 A008 		lds r24,2208	 ;  D.6748, MEM[(volatile uint8_t *)2208B]
 288:/home/rene/xpcc/src/xpcc/architecture/platform/avr/atxmega/spi/uart_spi_c0.cpp **** }
 330               		.loc 1 288 0
 331 0016 0895      		ret
 332               	.LFE477:
 334               		.section	.text._ZN4xpcc7atxmega15UartSpiMasterC08transferENS_9SpiMaster15TransferOptionsE,"ax",@pr
 335               	.global	_ZN4xpcc7atxmega15UartSpiMasterC08transferENS_9SpiMaster15TransferOptionsE
 337               	_ZN4xpcc7atxmega15UartSpiMasterC08transferENS_9SpiMaster15TransferOptionsE:
 338               	.LFB473:
 169:/home/rene/xpcc/src/xpcc/architecture/platform/avr/atxmega/spi/uart_spi_c0.cpp **** {
 339               		.loc 1 169 0
 340               	.LVL20:
 341 0000 CF92      		push r12	 ; 
 342               	.LCFI10:
 343 0002 DF92      		push r13	 ; 
 344               	.LCFI11:
 345 0004 EF92      		push r14	 ; 
 346               	.LCFI12:
 347 0006 FF92      		push r15	 ; 
 348               	.LCFI13:
 349 0008 0F93      		push r16	 ; 
 350               	.LCFI14:
 351 000a 1F93      		push r17	 ; 
 352               	.LCFI15:
 353 000c CF93      		push r28	 ; 
 354               	.LCFI16:
 355 000e DF93      		push r29	 ; 
 356               	.LCFI17:
 357               		 ; SP -= 1	 ; 
 358 0010 1F92      		push __zero_reg__
 359               	.LCFI18:
 360 0012 CDB7      		in r28,__SP_L__	 ; 
 361 0014 DEB7      		in r29,__SP_H__	 ; 
 362               	.LCFI19:
 363               	/* prologue: function */
 364               	/* frame size = 1 */
 365               	/* stack size = 9 */
 366               	.L__stack_usage = 9
 367 0016 F82E      		mov r15,r24	 ;  options, options
 368               	.LBB70:
 170:/home/rene/xpcc/src/xpcc/architecture/platform/avr/atxmega/spi/uart_spi_c0.cpp **** 	if (isBusy()) return false;
 369               		.loc 1 170 0
 370 0018 0E94 0000 		call _ZN4xpcc7atxmega15UartSpiMasterC06isBusyEv	 ; 
 371               	.LVL21:
 372 001c 8111      		cpse r24,__zero_reg__	 ; ,
 373 001e 00C0      		rjmp .L20	 ; 
 374               	.LVL22:
 212:/home/rene/xpcc/src/xpcc/architecture/platform/avr/atxmega/spi/uart_spi_c0.cpp **** 	status |= BUFFER_IS_BUSY_SYNC_bm;
 375               		.loc 1 212 0
 376 0020 9091 0000 		lds r25,_ZN12_GLOBAL__N_1L6statusE	 ;  status.4, status
 377 0024 892F      		mov r24,r25	 ;  tmp63, status.4
 378 0026 8062      		ori r24,lo8(32)	 ;  tmp63,
 379 0028 8093 0000 		sts _ZN12_GLOBAL__N_1L6statusE,r24	 ;  status, tmp63
 214:/home/rene/xpcc/src/xpcc/architecture/platform/avr/atxmega/spi/uart_spi_c0.cpp **** 	bool transmit = (options & TRANSFER_SEND_BUFFER_DISCARD_RECEIVE) & static_cast<bool>(transmitBuffe
 380               		.loc 1 214 0
 381 002c 0091 0000 		lds r16,_ZN12_GLOBAL__N_1L14transmitBufferE	 ;  transmitBuffer.6, transmitBuffer
 382 0030 1091 0000 		lds r17,_ZN12_GLOBAL__N_1L14transmitBufferE+1	 ;  transmitBuffer.6, transmitBuffer
 383 0034 8F2D      		mov r24,r15	 ;  tmp65, options
 384 0036 8170      		andi r24,lo8(1)	 ;  tmp65,
 385 0038 21E0      		ldi r18,lo8(1)	 ;  tmp66,
 386 003a 0115      		cp r16,__zero_reg__	 ;  transmitBuffer.6
 387 003c 1105      		cpc r17,__zero_reg__	 ;  transmitBuffer.6
 388 003e 01F4      		brne .L15	 ; ,
 389 0040 20E0      		ldi r18,0	 ;  tmp66
 390               	.L15:
 391 0042 E82E      		mov r14,r24	 ;  transmit, tmp65
 392 0044 E222      		and r14,r18	 ;  transmit, tmp66
 393               	.LVL23:
 394               	.LBB71:
 217:/home/rene/xpcc/src/xpcc/architecture/platform/avr/atxmega/spi/uart_spi_c0.cpp **** 	for(uint_fast16_t i=0; i < bufferLength; ++i)
 395               		.loc 1 217 0
 396 0046 C12C      		mov r12,__zero_reg__	 ;  i
 397 0048 D12C      		mov r13,__zero_reg__	 ;  i
 210:/home/rene/xpcc/src/xpcc/architecture/platform/avr/atxmega/spi/uart_spi_c0.cpp **** 	uint8_t rx(0), tx(dummyBuffer);
 398               		.loc 1 210 0
 399 004a FF24      		clr r15	 ;  tx
 400 004c FA94      		dec r15	 ;  tx
 401               	.LVL24:
 217:/home/rene/xpcc/src/xpcc/architecture/platform/avr/atxmega/spi/uart_spi_c0.cpp **** 	for(uint_fast16_t i=0; i < bufferLength; ++i)
 402               		.loc 1 217 0
 403 004e 00C0      		rjmp .L16	 ; 
 404               	.LVL25:
 405               	.L19:
 219:/home/rene/xpcc/src/xpcc/architecture/platform/avr/atxmega/spi/uart_spi_c0.cpp **** 		if (transmit) {
 406               		.loc 1 219 0
 407 0050 EE20      		tst r14	 ;  transmit
 408 0052 01F0      		breq .L17	 ; ,
 220:/home/rene/xpcc/src/xpcc/architecture/platform/avr/atxmega/spi/uart_spi_c0.cpp **** 			tx = transmitBuffer[(status & BUFFER_TRANSMIT_INCR_bm) ? i : bufferLength-1-i];
 409               		.loc 1 220 0
 410 0054 90FD      		sbrc r25,0	 ;  status.4,
 411 0056 00C0      		rjmp .L21	 ; 
 220:/home/rene/xpcc/src/xpcc/architecture/platform/avr/atxmega/spi/uart_spi_c0.cpp **** 			tx = transmitBuffer[(status & BUFFER_TRANSMIT_INCR_bm) ? i : bufferLength-1-i];
 412               		.loc 1 220 0 is_stmt 0 discriminator 2
 413 0058 2150      		subi r18,1	 ;  i,
 414 005a 3109      		sbc r19,__zero_reg__	 ;  i
 415 005c 2C19      		sub r18,r12	 ;  i, i
 416 005e 3D09      		sbc r19,r13	 ;  i, i
 417 0060 00C0      		rjmp .L18	 ; 
 418               	.L21:
 220:/home/rene/xpcc/src/xpcc/architecture/platform/avr/atxmega/spi/uart_spi_c0.cpp **** 			tx = transmitBuffer[(status & BUFFER_TRANSMIT_INCR_bm) ? i : bufferLength-1-i];
 419               		.loc 1 220 0
 420 0062 9601      		movw r18,r12	 ;  i, i
 421               	.L18:
 220:/home/rene/xpcc/src/xpcc/architecture/platform/avr/atxmega/spi/uart_spi_c0.cpp **** 			tx = transmitBuffer[(status & BUFFER_TRANSMIT_INCR_bm) ? i : bufferLength-1-i];
 422               		.loc 1 220 0 discriminator 3
 423 0064 F801      		movw r30,r16	 ;  tmp70, transmitBuffer.6
 424 0066 E20F      		add r30,r18	 ;  tmp70, i
 425 0068 F31F      		adc r31,r19	 ;  tmp70, i
 426 006a F080      		ld r15,Z	 ;  tx, *D.6793_38
 427               	.LVL26:
 428               	.L17:
 223:/home/rene/xpcc/src/xpcc/architecture/platform/avr/atxmega/spi/uart_spi_c0.cpp **** 		rx = write(tx);
 429               		.loc 1 223 0 is_stmt 1
 430 006c 8F2D      		mov r24,r15	 ; , tx
 431 006e 9983      		std Y+1,r25	 ; ,
 432 0070 0E94 0000 		call _ZN4xpcc7atxmega15UartSpiMasterC05writeEh	 ; 
 433               	.LVL27:
 217:/home/rene/xpcc/src/xpcc/architecture/platform/avr/atxmega/spi/uart_spi_c0.cpp **** 	for(uint_fast16_t i=0; i < bufferLength; ++i)
 434               		.loc 1 217 0
 435 0074 8FEF      		ldi r24,-1	 ; ,
 436 0076 C81A      		sub r12,r24	 ;  i,
 437 0078 D80A      		sbc r13,r24	 ;  i,
 438               	.LVL28:
 439 007a 9981      		ldd r25,Y+1	 ; ,
 440               	.LVL29:
 441               	.L16:
 217:/home/rene/xpcc/src/xpcc/architecture/platform/avr/atxmega/spi/uart_spi_c0.cpp **** 	for(uint_fast16_t i=0; i < bufferLength; ++i)
 442               		.loc 1 217 0 is_stmt 0 discriminator 1
 443 007c 2091 0000 		lds r18,_ZN12_GLOBAL__N_1L12bufferLengthE	 ;  bufferLength.8, bufferLength
 444 0080 3091 0000 		lds r19,_ZN12_GLOBAL__N_1L12bufferLengthE+1	 ;  bufferLength.8, bufferLength
 445 0084 C216      		cp r12,r18	 ;  i, bufferLength.8
 446 0086 D306      		cpc r13,r19	 ;  i, bufferLength.8
 447 0088 00F0      		brlo .L19	 ; ,
 448               	.LBE71:
 230:/home/rene/xpcc/src/xpcc/architecture/platform/avr/atxmega/spi/uart_spi_c0.cpp **** 	status &= ~BUFFER_IS_BUSY_SYNC_bm;
 449               		.loc 1 230 0 is_stmt 1
 450 008a 9F7D      		andi r25,lo8(-33)	 ;  tmp71,
 451 008c 9093 0000 		sts _ZN12_GLOBAL__N_1L6statusE,r25	 ;  status, tmp71
 233:/home/rene/xpcc/src/xpcc/architecture/platform/avr/atxmega/spi/uart_spi_c0.cpp **** 	return true;
 452               		.loc 1 233 0
 453 0090 81E0      		ldi r24,lo8(1)	 ;  D.6765,
 454 0092 00C0      		rjmp .L14	 ; 
 455               	.LVL30:
 456               	.L20:
 170:/home/rene/xpcc/src/xpcc/architecture/platform/avr/atxmega/spi/uart_spi_c0.cpp **** 	if (isBusy()) return false;
 457               		.loc 1 170 0
 458 0094 80E0      		ldi r24,0	 ;  D.6765
 459               	.LVL31:
 460               	.L14:
 461               	/* epilogue start */
 462               	.LBE70:
 234:/home/rene/xpcc/src/xpcc/architecture/platform/avr/atxmega/spi/uart_spi_c0.cpp **** }
 463               		.loc 1 234 0
 464               		 ; SP += 1	 ; 
 465 0096 0F90      		pop __tmp_reg__
 466 0098 DF91      		pop r29	 ; 
 467 009a CF91      		pop r28	 ; 
 468 009c 1F91      		pop r17	 ; 
 469 009e 0F91      		pop r16	 ; 
 470 00a0 FF90      		pop r15	 ; 
 471 00a2 EF90      		pop r14	 ; 
 472 00a4 DF90      		pop r13	 ; 
 473 00a6 CF90      		pop r12	 ; 
 474 00a8 0895      		ret
 475               	.LFE473:
 477               		.section	.text._ZN4xpcc7atxmega15UartSpiMasterC012transferSyncENS_9SpiMaster15TransferOptionsE,"ax
 478               	.global	_ZN4xpcc7atxmega15UartSpiMasterC012transferSyncENS_9SpiMaster15TransferOptionsE
 480               	_ZN4xpcc7atxmega15UartSpiMasterC012transferSyncENS_9SpiMaster15TransferOptionsE:
 481               	.LFB474:
 239:/home/rene/xpcc/src/xpcc/architecture/platform/avr/atxmega/spi/uart_spi_c0.cpp **** {
 482               		.loc 1 239 0
 483               	.LVL32:
 484               	/* prologue: function */
 485               	/* frame size = 0 */
 486               	/* stack size = 0 */
 487               	.L__stack_usage = 0
 249:/home/rene/xpcc/src/xpcc/architecture/platform/avr/atxmega/spi/uart_spi_c0.cpp **** 	return transfer(options);
 488               		.loc 1 249 0
 489 0000 0C94 0000 		jmp _ZN4xpcc7atxmega15UartSpiMasterC08transferENS_9SpiMaster15TransferOptionsE	 ; 
 490               	.LVL33:
 491               	.LFE474:
 493               		.section	.bss._ZN12_GLOBAL__N_1L14transmitBufferE,"aw",@nobits
 496               	_ZN12_GLOBAL__N_1L14transmitBufferE:
 497 0000 0000      		.zero	2
 498               		.section	.bss._ZN12_GLOBAL__N_1L13receiveBufferE,"aw",@nobits
 501               	_ZN12_GLOBAL__N_1L13receiveBufferE:
 502 0000 0000      		.zero	2
 503               		.section	.bss._ZN12_GLOBAL__N_1L12bufferLengthE,"aw",@nobits
 506               	_ZN12_GLOBAL__N_1L12bufferLengthE:
 507 0000 0000      		.zero	2
 508               		.section	.bss._ZN12_GLOBAL__N_1L6statusE,"aw",@nobits
 511               	_ZN12_GLOBAL__N_1L6statusE:
 512 0000 00        		.zero	1
 699               	.Letext0:
 700               		.file 2 "/usr/lib/gcc/avr/4.7.2/../../../avr/include/stdint.h"
 701               		.file 3 "/usr/lib/gcc/avr/4.7.2/../../../avr/include/avr/iox32a4.h"
 702               		.file 4 "/home/rene/xpcc/src/xpcc/architecture/platform/avr/../avr.hpp"
 703               		.file 5 "/home/rene/xpcc/src/xpcc/architecture/platform/avr/atxmega.hpp"
 704               		.file 6 "/home/rene/xpcc/src/xpcc/architecture/platform/avr/atxmega/spi/spi_c.hpp"
 705               		.file 7 "/home/rene/xpcc/src/xpcc/architecture/platform/avr/atxmega/gpio.hpp"
 706               		.file 8 "/home/rene/xpcc/src/xpcc/architecture/platform/avr/atxmega/spi/spi.hpp"
 707               		.file 9 "/home/rene/xpcc/src/xpcc/architecture/platform/avr/atxmega/adc/adc.hpp"
 708               		.file 10 "/home/rene/xpcc/src/xpcc/architecture/platform/avr/atxmega/dma/dma.hpp"
 709               		.file 11 "/home/rene/xpcc/src/xpcc/driver/connectivity/spi/spi_master.hpp"
 710               		.file 12 "/home/rene/xpcc/src/xpcc/architecture/driver/gpio.hpp"
 711               		.file 13 "/home/rene/xpcc/src/xpcc/architecture/platform/avr/atxmega/timer/input_capture.hpp"
 712               		.file 14 "/home/rene/xpcc/src/xpcc/architecture/platform/avr/atxmega/timer/timer.hpp"
 713               		.file 15 "/home/rene/xpcc/src/xpcc/architecture/driver/atomic/lock.hpp"
 714               		.file 16 "/home/rene/xpcc/src/xpcc/driver/connectivity/i2c/constants.hpp"
 715               		.file 17 "/usr/lib/gcc/avr/4.7.2/include/stddef.h"
 716               		.file 18 "<built-in>"
 717               		.file 19 "/home/rene/xpcc/src/stdc++/cstddef"
 718               		.file 20 "/home/rene/xpcc/src/stdc++/cmath"
 719               		.file 21 "/usr/lib/gcc/avr/4.7.2/../../../avr/include/math.h"
DEFINED SYMBOLS
                            *ABS*:0000000000000000 uart_spi_c0.cpp
     /tmp/ccz1hf9E.s:2      *ABS*:000000000000003e __SP_H__
     /tmp/ccz1hf9E.s:3      *ABS*:000000000000003d __SP_L__
     /tmp/ccz1hf9E.s:4      *ABS*:000000000000003f __SREG__
     /tmp/ccz1hf9E.s:5      *ABS*:0000000000000034 __CCP__
     /tmp/ccz1hf9E.s:6      *ABS*:0000000000000000 __tmp_reg__
     /tmp/ccz1hf9E.s:7      *ABS*:0000000000000001 __zero_reg__
     /tmp/ccz1hf9E.s:63     .text._ZN4xpcc7atxmega15UartSpiMasterC010initializeEm:0000000000000000 _ZN4xpcc7atxmega15UartSpiMasterC010initializeEm
     /tmp/ccz1hf9E.s:177    .text._ZN4xpcc7atxmega15UartSpiMasterC010isFinishedEv:0000000000000000 _ZN4xpcc7atxmega15UartSpiMasterC010isFinishedEv
     /tmp/ccz1hf9E.s:511    .bss._ZN12_GLOBAL__N_1L6statusE:0000000000000000 _ZN12_GLOBAL__N_1L6statusE
     /tmp/ccz1hf9E.s:198    .text._ZN4xpcc7atxmega15UartSpiMasterC06isBusyEv:0000000000000000 _ZN4xpcc7atxmega15UartSpiMasterC06isBusyEv
     /tmp/ccz1hf9E.s:217    .text._ZN4xpcc7atxmega15UartSpiMasterC09setBufferEjPhS2_NS_9SpiMaster14BufferIncreaseE:0000000000000000 _ZN4xpcc7atxmega15UartSpiMasterC09setBufferEjPhS2_NS_9SpiMaster14BufferIncreaseE
     /tmp/ccz1hf9E.s:496    .bss._ZN12_GLOBAL__N_1L14transmitBufferE:0000000000000000 _ZN12_GLOBAL__N_1L14transmitBufferE
     /tmp/ccz1hf9E.s:501    .bss._ZN12_GLOBAL__N_1L13receiveBufferE:0000000000000000 _ZN12_GLOBAL__N_1L13receiveBufferE
     /tmp/ccz1hf9E.s:506    .bss._ZN12_GLOBAL__N_1L12bufferLengthE:0000000000000000 _ZN12_GLOBAL__N_1L12bufferLengthE
     /tmp/ccz1hf9E.s:309    .text._ZN4xpcc7atxmega15UartSpiMasterC05writeEh:0000000000000000 _ZN4xpcc7atxmega15UartSpiMasterC05writeEh
     /tmp/ccz1hf9E.s:337    .text._ZN4xpcc7atxmega15UartSpiMasterC08transferENS_9SpiMaster15TransferOptionsE:0000000000000000 _ZN4xpcc7atxmega15UartSpiMasterC08transferENS_9SpiMaster15TransferOptionsE
     /tmp/ccz1hf9E.s:480    .text._ZN4xpcc7atxmega15UartSpiMasterC012transferSyncENS_9SpiMaster15TransferOptionsE:0000000000000000 _ZN4xpcc7atxmega15UartSpiMasterC012transferSyncENS_9SpiMaster15TransferOptionsE

UNDEFINED SYMBOLS
__udivmodsi4
__do_clear_bss
