   1               		.file	"timer_interrupt_d0.cpp"
   2               	__SP_H__ = 0x3e
   3               	__SP_L__ = 0x3d
   4               	__SREG__ = 0x3f
   5               	__CCP__ = 0x34
   6               	__tmp_reg__ = 0
   7               	__zero_reg__ = 1
   8               	 ;  GNU C++ (GCC) version 4.7.2 (avr)
   9               	 ; 	compiled by GNU C version 4.7.2, GMP version 5.0.5, MPFR version 3.1.0-p10, MPC version 0.9
  10               	 ;  warning: GMP header version 5.0.5 differs from library version 5.1.2.
  11               	 ;  warning: MPFR header version 3.1.0-p10 differs from library version 3.1.1-p2.
  12               	 ;  GGC heuristics: --param ggc-min-expand=100 --param ggc-min-heapsize=131072
  13               	 ;  options passed:  -I /home/rene/xpcc/src/stdc++ -I /home/rene/xpcc/src
  14               	 ;  -I /home/rene/xpcc/ext -I build/libxpcc -imultilib avrxmega2
  15               	 ;  -D BASENAME=timer_interrupt_d0.cpp -D F_CPU=16000000ul
  16               	 ;  /home/rene/xpcc/src/xpcc/architecture/platform/avr/atxmega/timer/timer_interrupt_d0.cpp
  17               	 ;  -mmcu=atxmega32a4
  18               	 ;  -auxbase-strip build/libxpcc/src/xpcc/architecture/platform/avr/atxmega/timer/timer_interrupt_d
  19               	 ;  -gdwarf-2 -Os -Woverloaded-virtual -Wall -Wextra -Wundef -std=gnu++11
  20               	 ;  -fno-threadsafe-statics -fuse-cxa-atexit -funsigned-char
  21               	 ;  -funsigned-bitfields -fshort-enums -ffunction-sections -fdata-sections
  22               	 ;  -fno-split-wide-types -fno-move-loop-invariants -fno-tree-loop-optimize
  23               	 ;  -finline-limit=10000 -fverbose-asm -fno-rtti -fno-enforce-eh-specs
  24               	 ;  -fno-exceptions
  25               	 ;  options enabled:  -fauto-inc-dec -fbranch-count-reg -fcaller-saves
  26               	 ;  -fcombine-stack-adjustments -fcommon -fcompare-elim -fcprop-registers
  27               	 ;  -fcrossjumping -fcse-follow-jumps -fdata-sections -fdebug-types-section
  28               	 ;  -fdefer-pop -fdevirtualize -fearly-inlining
  29               	 ;  -feliminate-unused-debug-types -fexpensive-optimizations
  30               	 ;  -fforward-propagate -ffunction-cse -ffunction-sections -fgcse -fgcse-lm
  31               	 ;  -fgnu-runtime -fguess-branch-probability -fident -fif-conversion
  32               	 ;  -fif-conversion2 -findirect-inlining -finline -finline-atomics
  33               	 ;  -finline-functions -finline-functions-called-once
  34               	 ;  -finline-small-functions -fipa-cp -fipa-profile -fipa-pure-const
  35               	 ;  -fipa-reference -fipa-sra -fira-share-save-slots
  36               	 ;  -fira-share-spill-slots -fivopts -fkeep-static-consts
  37               	 ;  -fleading-underscore -fmath-errno -fmerge-constants
  38               	 ;  -fmerge-debug-strings -fomit-frame-pointer -foptimize-register-move
  39               	 ;  -foptimize-sibling-calls -fpartial-inlining -fpeephole -fpeephole2
  40               	 ;  -fprefetch-loop-arrays -freg-struct-return -fregmove -freorder-blocks
  41               	 ;  -freorder-functions -frerun-cse-after-loop
  42               	 ;  -fsched-critical-path-heuristic -fsched-dep-count-heuristic
  43               	 ;  -fsched-group-heuristic -fsched-interblock -fsched-last-insn-heuristic
  44               	 ;  -fsched-rank-heuristic -fsched-spec -fsched-spec-insn-heuristic
  45               	 ;  -fsched-stalled-insns-dep -fshow-column -fshrink-wrap -fsigned-zeros
  46               	 ;  -fsplit-ivs-in-unroller -fstrict-aliasing -fstrict-overflow
  47               	 ;  -fstrict-volatile-bitfields -fthread-jumps -ftoplevel-reorder
  48               	 ;  -ftrapping-math -ftree-bit-ccp -ftree-builtin-call-dce -ftree-ccp
  49               	 ;  -ftree-ch -ftree-copy-prop -ftree-copyrename -ftree-dce
  50               	 ;  -ftree-dominator-opts -ftree-dse -ftree-forwprop -ftree-fre
  51               	 ;  -ftree-loop-if-convert -ftree-loop-im -ftree-loop-ivcanon
  52               	 ;  -ftree-parallelize-loops= -ftree-phiprop -ftree-pre -ftree-pta
  53               	 ;  -ftree-reassoc -ftree-scev-cprop -ftree-sink -ftree-slp-vectorize
  54               	 ;  -ftree-sra -ftree-switch-conversion -ftree-tail-merge -ftree-ter
  55               	 ;  -ftree-vect-loop-version -ftree-vrp -funit-at-a-time -fvar-tracking
  56               	 ;  -fvar-tracking-assignments -fverbose-asm -fzero-initialized-in-bss
  57               	
  58               		.text
  59               	.Ltext0:
  60               		.section	.text.__vector_78,"ax",@progbits
  61               	.global	__vector_78
  63               	__vector_78:
  64               	.LFB25:
  65               		.file 1 "/home/rene/xpcc/src/xpcc/architecture/platform/avr/atxmega/timer/timer_interrupt_d0.cpp"
   1:/home/rene/xpcc/src/xpcc/architecture/platform/avr/atxmega/timer/timer_interrupt_d0.cpp **** // coding: utf-8
   2:/home/rene/xpcc/src/xpcc/architecture/platform/avr/atxmega/timer/timer_interrupt_d0.cpp **** // ----------------------------------------------------------------------------
   3:/home/rene/xpcc/src/xpcc/architecture/platform/avr/atxmega/timer/timer_interrupt_d0.cpp **** /* Copyright (c) 2011, Roboterclub Aachen e.V.
   4:/home/rene/xpcc/src/xpcc/architecture/platform/avr/atxmega/timer/timer_interrupt_d0.cpp ****  * All rights reserved.
   5:/home/rene/xpcc/src/xpcc/architecture/platform/avr/atxmega/timer/timer_interrupt_d0.cpp ****  *
   6:/home/rene/xpcc/src/xpcc/architecture/platform/avr/atxmega/timer/timer_interrupt_d0.cpp ****  * Redistribution and use in source and binary forms, with or without
   7:/home/rene/xpcc/src/xpcc/architecture/platform/avr/atxmega/timer/timer_interrupt_d0.cpp ****  * modification, are permitted provided that the following conditions are met:
   8:/home/rene/xpcc/src/xpcc/architecture/platform/avr/atxmega/timer/timer_interrupt_d0.cpp ****  * 
   9:/home/rene/xpcc/src/xpcc/architecture/platform/avr/atxmega/timer/timer_interrupt_d0.cpp ****  *     * Redistributions of source code must retain the above copyright
  10:/home/rene/xpcc/src/xpcc/architecture/platform/avr/atxmega/timer/timer_interrupt_d0.cpp ****  *       notice, this list of conditions and the following disclaimer.
  11:/home/rene/xpcc/src/xpcc/architecture/platform/avr/atxmega/timer/timer_interrupt_d0.cpp ****  *     * Redistributions in binary form must reproduce the above copyright
  12:/home/rene/xpcc/src/xpcc/architecture/platform/avr/atxmega/timer/timer_interrupt_d0.cpp ****  *       notice, this list of conditions and the following disclaimer in the
  13:/home/rene/xpcc/src/xpcc/architecture/platform/avr/atxmega/timer/timer_interrupt_d0.cpp ****  *       documentation and/or other materials provided with the distribution.
  14:/home/rene/xpcc/src/xpcc/architecture/platform/avr/atxmega/timer/timer_interrupt_d0.cpp ****  *     * Neither the name of the Roboterclub Aachen e.V. nor the
  15:/home/rene/xpcc/src/xpcc/architecture/platform/avr/atxmega/timer/timer_interrupt_d0.cpp ****  *       names of its contributors may be used to endorse or promote products
  16:/home/rene/xpcc/src/xpcc/architecture/platform/avr/atxmega/timer/timer_interrupt_d0.cpp ****  *       derived from this software without specific prior written permission.
  17:/home/rene/xpcc/src/xpcc/architecture/platform/avr/atxmega/timer/timer_interrupt_d0.cpp ****  *
  18:/home/rene/xpcc/src/xpcc/architecture/platform/avr/atxmega/timer/timer_interrupt_d0.cpp ****  * THIS SOFTWARE IS PROVIDED BY ROBOTERCLUB AACHEN E.V. ''AS IS'' AND ANY
  19:/home/rene/xpcc/src/xpcc/architecture/platform/avr/atxmega/timer/timer_interrupt_d0.cpp ****  * EXPRESS OR IMPLIED WARRANTIES, INCLUDING, BUT NOT LIMITED TO, THE IMPLIED
  20:/home/rene/xpcc/src/xpcc/architecture/platform/avr/atxmega/timer/timer_interrupt_d0.cpp ****  * WARRANTIES OF MERCHANTABILITY AND FITNESS FOR A PARTICULAR PURPOSE ARE
  21:/home/rene/xpcc/src/xpcc/architecture/platform/avr/atxmega/timer/timer_interrupt_d0.cpp ****  * DISCLAIMED. IN NO EVENT SHALL ROBOTERCLUB AACHEN E.V. BE LIABLE FOR ANY
  22:/home/rene/xpcc/src/xpcc/architecture/platform/avr/atxmega/timer/timer_interrupt_d0.cpp ****  * DIRECT, INDIRECT, INCIDENTAL, SPECIAL, EXEMPLARY, OR CONSEQUENTIAL DAMAGES
  23:/home/rene/xpcc/src/xpcc/architecture/platform/avr/atxmega/timer/timer_interrupt_d0.cpp ****  * (INCLUDING, BUT NOT LIMITED TO, PROCUREMENT OF SUBSTITUTE GOODS OR SERVICES;
  24:/home/rene/xpcc/src/xpcc/architecture/platform/avr/atxmega/timer/timer_interrupt_d0.cpp ****  * LOSS OF USE, DATA, OR PROFITS; OR BUSINESS INTERRUPTION) HOWEVER CAUSED AND
  25:/home/rene/xpcc/src/xpcc/architecture/platform/avr/atxmega/timer/timer_interrupt_d0.cpp ****  * ON ANY THEORY OF LIABILITY, WHETHER IN CONTRACT, STRICT LIABILITY, OR TORT
  26:/home/rene/xpcc/src/xpcc/architecture/platform/avr/atxmega/timer/timer_interrupt_d0.cpp ****  * (INCLUDING NEGLIGENCE OR OTHERWISE) ARISING IN ANY WAY OUT OF THE USE OF
  27:/home/rene/xpcc/src/xpcc/architecture/platform/avr/atxmega/timer/timer_interrupt_d0.cpp ****  * THIS SOFTWARE, EVEN IF ADVISED OF THE POSSIBILITY OF SUCH DAMAGE.
  28:/home/rene/xpcc/src/xpcc/architecture/platform/avr/atxmega/timer/timer_interrupt_d0.cpp ****  */
  29:/home/rene/xpcc/src/xpcc/architecture/platform/avr/atxmega/timer/timer_interrupt_d0.cpp **** // ----------------------------------------------------------------------------
  30:/home/rene/xpcc/src/xpcc/architecture/platform/avr/atxmega/timer/timer_interrupt_d0.cpp **** /*
  31:/home/rene/xpcc/src/xpcc/architecture/platform/avr/atxmega/timer/timer_interrupt_d0.cpp ****  * WARNING: This file is generated automatically, do not edit!
  32:/home/rene/xpcc/src/xpcc/architecture/platform/avr/atxmega/timer/timer_interrupt_d0.cpp ****  * Please modify the corresponding *.in file instead and rebuild this file. 
  33:/home/rene/xpcc/src/xpcc/architecture/platform/avr/atxmega/timer/timer_interrupt_d0.cpp ****  */
  34:/home/rene/xpcc/src/xpcc/architecture/platform/avr/atxmega/timer/timer_interrupt_d0.cpp **** // ----------------------------------------------------------------------------
  35:/home/rene/xpcc/src/xpcc/architecture/platform/avr/atxmega/timer/timer_interrupt_d0.cpp **** 
  36:/home/rene/xpcc/src/xpcc/architecture/platform/avr/atxmega/timer/timer_interrupt_d0.cpp **** #include <avr/interrupt.h>
  37:/home/rene/xpcc/src/xpcc/architecture/platform/avr/atxmega/timer/timer_interrupt_d0.cpp **** #include "timer_interrupt_d0.hpp"
  38:/home/rene/xpcc/src/xpcc/architecture/platform/avr/atxmega/timer/timer_interrupt_d0.cpp **** 
  39:/home/rene/xpcc/src/xpcc/architecture/platform/avr/atxmega/timer/timer_interrupt_d0.cpp **** #ifdef TCD0
  40:/home/rene/xpcc/src/xpcc/architecture/platform/avr/atxmega/timer/timer_interrupt_d0.cpp **** 
  41:/home/rene/xpcc/src/xpcc/architecture/platform/avr/atxmega/timer/timer_interrupt_d0.cpp **** xpcc::atxmega::TimerInterruptD0::F xpcc::atxmega::TimerInterruptD0::overflow=xpcc::dummy;
  42:/home/rene/xpcc/src/xpcc/architecture/platform/avr/atxmega/timer/timer_interrupt_d0.cpp **** xpcc::atxmega::TimerInterruptD0::F xpcc::atxmega::TimerInterruptD0::error=xpcc::dummy;
  43:/home/rene/xpcc/src/xpcc/architecture/platform/avr/atxmega/timer/timer_interrupt_d0.cpp **** xpcc::atxmega::TimerInterruptD0::F xpcc::atxmega::TimerInterruptD0::cca=xpcc::dummy;
  44:/home/rene/xpcc/src/xpcc/architecture/platform/avr/atxmega/timer/timer_interrupt_d0.cpp **** xpcc::atxmega::TimerInterruptD0::F xpcc::atxmega::TimerInterruptD0::ccb=xpcc::dummy;
  45:/home/rene/xpcc/src/xpcc/architecture/platform/avr/atxmega/timer/timer_interrupt_d0.cpp **** xpcc::atxmega::TimerInterruptD0::F xpcc::atxmega::TimerInterruptD0::ccc=xpcc::dummy;
  46:/home/rene/xpcc/src/xpcc/architecture/platform/avr/atxmega/timer/timer_interrupt_d0.cpp **** xpcc::atxmega::TimerInterruptD0::F xpcc::atxmega::TimerInterruptD0::ccd=xpcc::dummy;
  47:/home/rene/xpcc/src/xpcc/architecture/platform/avr/atxmega/timer/timer_interrupt_d0.cpp **** 
  48:/home/rene/xpcc/src/xpcc/architecture/platform/avr/atxmega/timer/timer_interrupt_d0.cpp **** ISR(TCD0_ERR_vect)
  49:/home/rene/xpcc/src/xpcc/architecture/platform/avr/atxmega/timer/timer_interrupt_d0.cpp **** {
  66               		.loc 1 49 0
  67 0000 1F92      		push r1	 ; 
  68               	.LCFI0:
  69 0002 0F92      		push r0	 ; 
  70               	.LCFI1:
  71 0004 0FB6      		in r0,__SREG__	 ; ,
  72 0006 0F92      		push r0	 ; 
  73 0008 1124      		clr __zero_reg__	 ; 
  74 000a 2F93      		push r18	 ; 
  75               	.LCFI2:
  76 000c 3F93      		push r19	 ; 
  77               	.LCFI3:
  78 000e 4F93      		push r20	 ; 
  79               	.LCFI4:
  80 0010 5F93      		push r21	 ; 
  81               	.LCFI5:
  82 0012 6F93      		push r22	 ; 
  83               	.LCFI6:
  84 0014 7F93      		push r23	 ; 
  85               	.LCFI7:
  86 0016 8F93      		push r24	 ; 
  87               	.LCFI8:
  88 0018 9F93      		push r25	 ; 
  89               	.LCFI9:
  90 001a AF93      		push r26	 ; 
  91               	.LCFI10:
  92 001c BF93      		push r27	 ; 
  93               	.LCFI11:
  94 001e EF93      		push r30	 ; 
  95               	.LCFI12:
  96 0020 FF93      		push r31	 ; 
  97               	.LCFI13:
  98               	/* prologue: Signal */
  99               	/* frame size = 0 */
 100               	/* stack size = 15 */
 101               	.L__stack_usage = 15
  50:/home/rene/xpcc/src/xpcc/architecture/platform/avr/atxmega/timer/timer_interrupt_d0.cpp **** 	xpcc::atxmega::TimerInterruptD0::error();
 102               		.loc 1 50 0
 103 0022 E091 0000 		lds r30,_ZN4xpcc7atxmega16TimerInterruptD05errorE	 ;  error, error
 104 0026 F091 0000 		lds r31,_ZN4xpcc7atxmega16TimerInterruptD05errorE+1	 ;  error, error
 105 002a 0995      		icall
 106               	.LVL0:
 107               	/* epilogue start */
  51:/home/rene/xpcc/src/xpcc/architecture/platform/avr/atxmega/timer/timer_interrupt_d0.cpp **** }
 108               		.loc 1 51 0
 109 002c FF91      		pop r31	 ; 
 110 002e EF91      		pop r30	 ; 
 111 0030 BF91      		pop r27	 ; 
 112 0032 AF91      		pop r26	 ; 
 113 0034 9F91      		pop r25	 ; 
 114 0036 8F91      		pop r24	 ; 
 115 0038 7F91      		pop r23	 ; 
 116 003a 6F91      		pop r22	 ; 
 117 003c 5F91      		pop r21	 ; 
 118 003e 4F91      		pop r20	 ; 
 119 0040 3F91      		pop r19	 ; 
 120 0042 2F91      		pop r18	 ; 
 121 0044 0F90      		pop r0	 ; 
 122 0046 0FBE      		out __SREG__,r0	 ; ,
 123 0048 0F90      		pop r0	 ; 
 124 004a 1F90      		pop r1	 ; 
 125 004c 1895      		reti
 126               	.LFE25:
 128               		.section	.text.__vector_77,"ax",@progbits
 129               	.global	__vector_77
 131               	__vector_77:
 132               	.LFB26:
  52:/home/rene/xpcc/src/xpcc/architecture/platform/avr/atxmega/timer/timer_interrupt_d0.cpp **** 
  53:/home/rene/xpcc/src/xpcc/architecture/platform/avr/atxmega/timer/timer_interrupt_d0.cpp **** ISR(TCD0_OVF_vect)
  54:/home/rene/xpcc/src/xpcc/architecture/platform/avr/atxmega/timer/timer_interrupt_d0.cpp **** {
 133               		.loc 1 54 0
 134 0000 1F92      		push r1	 ; 
 135               	.LCFI14:
 136 0002 0F92      		push r0	 ; 
 137               	.LCFI15:
 138 0004 0FB6      		in r0,__SREG__	 ; ,
 139 0006 0F92      		push r0	 ; 
 140 0008 1124      		clr __zero_reg__	 ; 
 141 000a 2F93      		push r18	 ; 
 142               	.LCFI16:
 143 000c 3F93      		push r19	 ; 
 144               	.LCFI17:
 145 000e 4F93      		push r20	 ; 
 146               	.LCFI18:
 147 0010 5F93      		push r21	 ; 
 148               	.LCFI19:
 149 0012 6F93      		push r22	 ; 
 150               	.LCFI20:
 151 0014 7F93      		push r23	 ; 
 152               	.LCFI21:
 153 0016 8F93      		push r24	 ; 
 154               	.LCFI22:
 155 0018 9F93      		push r25	 ; 
 156               	.LCFI23:
 157 001a AF93      		push r26	 ; 
 158               	.LCFI24:
 159 001c BF93      		push r27	 ; 
 160               	.LCFI25:
 161 001e EF93      		push r30	 ; 
 162               	.LCFI26:
 163 0020 FF93      		push r31	 ; 
 164               	.LCFI27:
 165               	/* prologue: Signal */
 166               	/* frame size = 0 */
 167               	/* stack size = 15 */
 168               	.L__stack_usage = 15
  55:/home/rene/xpcc/src/xpcc/architecture/platform/avr/atxmega/timer/timer_interrupt_d0.cpp **** 	xpcc::atxmega::TimerInterruptD0::overflow();
 169               		.loc 1 55 0
 170 0022 E091 0000 		lds r30,_ZN4xpcc7atxmega16TimerInterruptD08overflowE	 ;  overflow, overflow
 171 0026 F091 0000 		lds r31,_ZN4xpcc7atxmega16TimerInterruptD08overflowE+1	 ;  overflow, overflow
 172 002a 0995      		icall
 173               	.LVL1:
 174               	/* epilogue start */
  56:/home/rene/xpcc/src/xpcc/architecture/platform/avr/atxmega/timer/timer_interrupt_d0.cpp **** }
 175               		.loc 1 56 0
 176 002c FF91      		pop r31	 ; 
 177 002e EF91      		pop r30	 ; 
 178 0030 BF91      		pop r27	 ; 
 179 0032 AF91      		pop r26	 ; 
 180 0034 9F91      		pop r25	 ; 
 181 0036 8F91      		pop r24	 ; 
 182 0038 7F91      		pop r23	 ; 
 183 003a 6F91      		pop r22	 ; 
 184 003c 5F91      		pop r21	 ; 
 185 003e 4F91      		pop r20	 ; 
 186 0040 3F91      		pop r19	 ; 
 187 0042 2F91      		pop r18	 ; 
 188 0044 0F90      		pop r0	 ; 
 189 0046 0FBE      		out __SREG__,r0	 ; ,
 190 0048 0F90      		pop r0	 ; 
 191 004a 1F90      		pop r1	 ; 
 192 004c 1895      		reti
 193               	.LFE26:
 195               		.section	.text.__vector_79,"ax",@progbits
 196               	.global	__vector_79
 198               	__vector_79:
 199               	.LFB27:
  57:/home/rene/xpcc/src/xpcc/architecture/platform/avr/atxmega/timer/timer_interrupt_d0.cpp **** 
  58:/home/rene/xpcc/src/xpcc/architecture/platform/avr/atxmega/timer/timer_interrupt_d0.cpp **** ISR(TCD0_CCA_vect)
  59:/home/rene/xpcc/src/xpcc/architecture/platform/avr/atxmega/timer/timer_interrupt_d0.cpp **** {
 200               		.loc 1 59 0
 201 0000 1F92      		push r1	 ; 
 202               	.LCFI28:
 203 0002 0F92      		push r0	 ; 
 204               	.LCFI29:
 205 0004 0FB6      		in r0,__SREG__	 ; ,
 206 0006 0F92      		push r0	 ; 
 207 0008 1124      		clr __zero_reg__	 ; 
 208 000a 2F93      		push r18	 ; 
 209               	.LCFI30:
 210 000c 3F93      		push r19	 ; 
 211               	.LCFI31:
 212 000e 4F93      		push r20	 ; 
 213               	.LCFI32:
 214 0010 5F93      		push r21	 ; 
 215               	.LCFI33:
 216 0012 6F93      		push r22	 ; 
 217               	.LCFI34:
 218 0014 7F93      		push r23	 ; 
 219               	.LCFI35:
 220 0016 8F93      		push r24	 ; 
 221               	.LCFI36:
 222 0018 9F93      		push r25	 ; 
 223               	.LCFI37:
 224 001a AF93      		push r26	 ; 
 225               	.LCFI38:
 226 001c BF93      		push r27	 ; 
 227               	.LCFI39:
 228 001e EF93      		push r30	 ; 
 229               	.LCFI40:
 230 0020 FF93      		push r31	 ; 
 231               	.LCFI41:
 232               	/* prologue: Signal */
 233               	/* frame size = 0 */
 234               	/* stack size = 15 */
 235               	.L__stack_usage = 15
  60:/home/rene/xpcc/src/xpcc/architecture/platform/avr/atxmega/timer/timer_interrupt_d0.cpp **** 	xpcc::atxmega::TimerInterruptD0::cca();
 236               		.loc 1 60 0
 237 0022 E091 0000 		lds r30,_ZN4xpcc7atxmega16TimerInterruptD03ccaE	 ;  cca, cca
 238 0026 F091 0000 		lds r31,_ZN4xpcc7atxmega16TimerInterruptD03ccaE+1	 ;  cca, cca
 239 002a 0995      		icall
 240               	.LVL2:
 241               	/* epilogue start */
  61:/home/rene/xpcc/src/xpcc/architecture/platform/avr/atxmega/timer/timer_interrupt_d0.cpp **** }
 242               		.loc 1 61 0
 243 002c FF91      		pop r31	 ; 
 244 002e EF91      		pop r30	 ; 
 245 0030 BF91      		pop r27	 ; 
 246 0032 AF91      		pop r26	 ; 
 247 0034 9F91      		pop r25	 ; 
 248 0036 8F91      		pop r24	 ; 
 249 0038 7F91      		pop r23	 ; 
 250 003a 6F91      		pop r22	 ; 
 251 003c 5F91      		pop r21	 ; 
 252 003e 4F91      		pop r20	 ; 
 253 0040 3F91      		pop r19	 ; 
 254 0042 2F91      		pop r18	 ; 
 255 0044 0F90      		pop r0	 ; 
 256 0046 0FBE      		out __SREG__,r0	 ; ,
 257 0048 0F90      		pop r0	 ; 
 258 004a 1F90      		pop r1	 ; 
 259 004c 1895      		reti
 260               	.LFE27:
 262               		.section	.text.__vector_80,"ax",@progbits
 263               	.global	__vector_80
 265               	__vector_80:
 266               	.LFB28:
  62:/home/rene/xpcc/src/xpcc/architecture/platform/avr/atxmega/timer/timer_interrupt_d0.cpp **** 
  63:/home/rene/xpcc/src/xpcc/architecture/platform/avr/atxmega/timer/timer_interrupt_d0.cpp **** ISR(TCD0_CCB_vect)
  64:/home/rene/xpcc/src/xpcc/architecture/platform/avr/atxmega/timer/timer_interrupt_d0.cpp **** {
 267               		.loc 1 64 0
 268 0000 1F92      		push r1	 ; 
 269               	.LCFI42:
 270 0002 0F92      		push r0	 ; 
 271               	.LCFI43:
 272 0004 0FB6      		in r0,__SREG__	 ; ,
 273 0006 0F92      		push r0	 ; 
 274 0008 1124      		clr __zero_reg__	 ; 
 275 000a 2F93      		push r18	 ; 
 276               	.LCFI44:
 277 000c 3F93      		push r19	 ; 
 278               	.LCFI45:
 279 000e 4F93      		push r20	 ; 
 280               	.LCFI46:
 281 0010 5F93      		push r21	 ; 
 282               	.LCFI47:
 283 0012 6F93      		push r22	 ; 
 284               	.LCFI48:
 285 0014 7F93      		push r23	 ; 
 286               	.LCFI49:
 287 0016 8F93      		push r24	 ; 
 288               	.LCFI50:
 289 0018 9F93      		push r25	 ; 
 290               	.LCFI51:
 291 001a AF93      		push r26	 ; 
 292               	.LCFI52:
 293 001c BF93      		push r27	 ; 
 294               	.LCFI53:
 295 001e EF93      		push r30	 ; 
 296               	.LCFI54:
 297 0020 FF93      		push r31	 ; 
 298               	.LCFI55:
 299               	/* prologue: Signal */
 300               	/* frame size = 0 */
 301               	/* stack size = 15 */
 302               	.L__stack_usage = 15
  65:/home/rene/xpcc/src/xpcc/architecture/platform/avr/atxmega/timer/timer_interrupt_d0.cpp **** 	xpcc::atxmega::TimerInterruptD0::ccb();
 303               		.loc 1 65 0
 304 0022 E091 0000 		lds r30,_ZN4xpcc7atxmega16TimerInterruptD03ccbE	 ;  ccb, ccb
 305 0026 F091 0000 		lds r31,_ZN4xpcc7atxmega16TimerInterruptD03ccbE+1	 ;  ccb, ccb
 306 002a 0995      		icall
 307               	.LVL3:
 308               	/* epilogue start */
  66:/home/rene/xpcc/src/xpcc/architecture/platform/avr/atxmega/timer/timer_interrupt_d0.cpp **** }
 309               		.loc 1 66 0
 310 002c FF91      		pop r31	 ; 
 311 002e EF91      		pop r30	 ; 
 312 0030 BF91      		pop r27	 ; 
 313 0032 AF91      		pop r26	 ; 
 314 0034 9F91      		pop r25	 ; 
 315 0036 8F91      		pop r24	 ; 
 316 0038 7F91      		pop r23	 ; 
 317 003a 6F91      		pop r22	 ; 
 318 003c 5F91      		pop r21	 ; 
 319 003e 4F91      		pop r20	 ; 
 320 0040 3F91      		pop r19	 ; 
 321 0042 2F91      		pop r18	 ; 
 322 0044 0F90      		pop r0	 ; 
 323 0046 0FBE      		out __SREG__,r0	 ; ,
 324 0048 0F90      		pop r0	 ; 
 325 004a 1F90      		pop r1	 ; 
 326 004c 1895      		reti
 327               	.LFE28:
 329               		.section	.text.__vector_81,"ax",@progbits
 330               	.global	__vector_81
 332               	__vector_81:
 333               	.LFB29:
  67:/home/rene/xpcc/src/xpcc/architecture/platform/avr/atxmega/timer/timer_interrupt_d0.cpp **** ISR(TCD0_CCC_vect)
  68:/home/rene/xpcc/src/xpcc/architecture/platform/avr/atxmega/timer/timer_interrupt_d0.cpp **** {
 334               		.loc 1 68 0
 335 0000 1F92      		push r1	 ; 
 336               	.LCFI56:
 337 0002 0F92      		push r0	 ; 
 338               	.LCFI57:
 339 0004 0FB6      		in r0,__SREG__	 ; ,
 340 0006 0F92      		push r0	 ; 
 341 0008 1124      		clr __zero_reg__	 ; 
 342 000a 2F93      		push r18	 ; 
 343               	.LCFI58:
 344 000c 3F93      		push r19	 ; 
 345               	.LCFI59:
 346 000e 4F93      		push r20	 ; 
 347               	.LCFI60:
 348 0010 5F93      		push r21	 ; 
 349               	.LCFI61:
 350 0012 6F93      		push r22	 ; 
 351               	.LCFI62:
 352 0014 7F93      		push r23	 ; 
 353               	.LCFI63:
 354 0016 8F93      		push r24	 ; 
 355               	.LCFI64:
 356 0018 9F93      		push r25	 ; 
 357               	.LCFI65:
 358 001a AF93      		push r26	 ; 
 359               	.LCFI66:
 360 001c BF93      		push r27	 ; 
 361               	.LCFI67:
 362 001e EF93      		push r30	 ; 
 363               	.LCFI68:
 364 0020 FF93      		push r31	 ; 
 365               	.LCFI69:
 366               	/* prologue: Signal */
 367               	/* frame size = 0 */
 368               	/* stack size = 15 */
 369               	.L__stack_usage = 15
  69:/home/rene/xpcc/src/xpcc/architecture/platform/avr/atxmega/timer/timer_interrupt_d0.cpp **** 	xpcc::atxmega::TimerInterruptD0::ccc();
 370               		.loc 1 69 0
 371 0022 E091 0000 		lds r30,_ZN4xpcc7atxmega16TimerInterruptD03cccE	 ;  ccc, ccc
 372 0026 F091 0000 		lds r31,_ZN4xpcc7atxmega16TimerInterruptD03cccE+1	 ;  ccc, ccc
 373 002a 0995      		icall
 374               	.LVL4:
 375               	/* epilogue start */
  70:/home/rene/xpcc/src/xpcc/architecture/platform/avr/atxmega/timer/timer_interrupt_d0.cpp **** }
 376               		.loc 1 70 0
 377 002c FF91      		pop r31	 ; 
 378 002e EF91      		pop r30	 ; 
 379 0030 BF91      		pop r27	 ; 
 380 0032 AF91      		pop r26	 ; 
 381 0034 9F91      		pop r25	 ; 
 382 0036 8F91      		pop r24	 ; 
 383 0038 7F91      		pop r23	 ; 
 384 003a 6F91      		pop r22	 ; 
 385 003c 5F91      		pop r21	 ; 
 386 003e 4F91      		pop r20	 ; 
 387 0040 3F91      		pop r19	 ; 
 388 0042 2F91      		pop r18	 ; 
 389 0044 0F90      		pop r0	 ; 
 390 0046 0FBE      		out __SREG__,r0	 ; ,
 391 0048 0F90      		pop r0	 ; 
 392 004a 1F90      		pop r1	 ; 
 393 004c 1895      		reti
 394               	.LFE29:
 396               		.section	.text.__vector_82,"ax",@progbits
 397               	.global	__vector_82
 399               	__vector_82:
 400               	.LFB30:
  71:/home/rene/xpcc/src/xpcc/architecture/platform/avr/atxmega/timer/timer_interrupt_d0.cpp **** 
  72:/home/rene/xpcc/src/xpcc/architecture/platform/avr/atxmega/timer/timer_interrupt_d0.cpp **** ISR(TCD0_CCD_vect)
  73:/home/rene/xpcc/src/xpcc/architecture/platform/avr/atxmega/timer/timer_interrupt_d0.cpp **** {
 401               		.loc 1 73 0
 402 0000 1F92      		push r1	 ; 
 403               	.LCFI70:
 404 0002 0F92      		push r0	 ; 
 405               	.LCFI71:
 406 0004 0FB6      		in r0,__SREG__	 ; ,
 407 0006 0F92      		push r0	 ; 
 408 0008 1124      		clr __zero_reg__	 ; 
 409 000a 2F93      		push r18	 ; 
 410               	.LCFI72:
 411 000c 3F93      		push r19	 ; 
 412               	.LCFI73:
 413 000e 4F93      		push r20	 ; 
 414               	.LCFI74:
 415 0010 5F93      		push r21	 ; 
 416               	.LCFI75:
 417 0012 6F93      		push r22	 ; 
 418               	.LCFI76:
 419 0014 7F93      		push r23	 ; 
 420               	.LCFI77:
 421 0016 8F93      		push r24	 ; 
 422               	.LCFI78:
 423 0018 9F93      		push r25	 ; 
 424               	.LCFI79:
 425 001a AF93      		push r26	 ; 
 426               	.LCFI80:
 427 001c BF93      		push r27	 ; 
 428               	.LCFI81:
 429 001e EF93      		push r30	 ; 
 430               	.LCFI82:
 431 0020 FF93      		push r31	 ; 
 432               	.LCFI83:
 433               	/* prologue: Signal */
 434               	/* frame size = 0 */
 435               	/* stack size = 15 */
 436               	.L__stack_usage = 15
  74:/home/rene/xpcc/src/xpcc/architecture/platform/avr/atxmega/timer/timer_interrupt_d0.cpp **** 	xpcc::atxmega::TimerInterruptD0::ccd();
 437               		.loc 1 74 0
 438 0022 E091 0000 		lds r30,_ZN4xpcc7atxmega16TimerInterruptD03ccdE	 ;  ccd, ccd
 439 0026 F091 0000 		lds r31,_ZN4xpcc7atxmega16TimerInterruptD03ccdE+1	 ;  ccd, ccd
 440 002a 0995      		icall
 441               	.LVL5:
 442               	/* epilogue start */
  75:/home/rene/xpcc/src/xpcc/architecture/platform/avr/atxmega/timer/timer_interrupt_d0.cpp **** }
 443               		.loc 1 75 0
 444 002c FF91      		pop r31	 ; 
 445 002e EF91      		pop r30	 ; 
 446 0030 BF91      		pop r27	 ; 
 447 0032 AF91      		pop r26	 ; 
 448 0034 9F91      		pop r25	 ; 
 449 0036 8F91      		pop r24	 ; 
 450 0038 7F91      		pop r23	 ; 
 451 003a 6F91      		pop r22	 ; 
 452 003c 5F91      		pop r21	 ; 
 453 003e 4F91      		pop r20	 ; 
 454 0040 3F91      		pop r19	 ; 
 455 0042 2F91      		pop r18	 ; 
 456 0044 0F90      		pop r0	 ; 
 457 0046 0FBE      		out __SREG__,r0	 ; ,
 458 0048 0F90      		pop r0	 ; 
 459 004a 1F90      		pop r1	 ; 
 460 004c 1895      		reti
 461               	.LFE30:
 463               		.section	.text._ZN4xpcc7atxmega16TimerInterruptD010setMsTimerEPFvvEh,"ax",@progbits
 464               	.global	_ZN4xpcc7atxmega16TimerInterruptD010setMsTimerEPFvvEh
 466               	_ZN4xpcc7atxmega16TimerInterruptD010setMsTimerEPFvvEh:
 467               	.LFB31:
  76:/home/rene/xpcc/src/xpcc/architecture/platform/avr/atxmega/timer/timer_interrupt_d0.cpp **** 
  77:/home/rene/xpcc/src/xpcc/architecture/platform/avr/atxmega/timer/timer_interrupt_d0.cpp **** // specific configuration combinations
  78:/home/rene/xpcc/src/xpcc/architecture/platform/avr/atxmega/timer/timer_interrupt_d0.cpp **** void
  79:/home/rene/xpcc/src/xpcc/architecture/platform/avr/atxmega/timer/timer_interrupt_d0.cpp **** xpcc::atxmega::TimerInterruptD0::setMsTimer(F function, uint8_t interval)
  80:/home/rene/xpcc/src/xpcc/architecture/platform/avr/atxmega/timer/timer_interrupt_d0.cpp **** {
 468               		.loc 1 80 0
 469               	.LVL6:
 470               	/* prologue: function */
 471               	/* frame size = 0 */
 472               	/* stack size = 0 */
 473               	.L__stack_usage = 0
 474               	.LBB20:
 475               	.LBB21:
 476               		.file 2 "/home/rene/xpcc/src/xpcc/architecture/platform/avr/atxmega/timer/timer_d0.hpp"
   1:/home/rene/xpcc/src/xpcc/architecture/platform/avr/atxmega/timer/timer_d0.hpp **** // coding: utf-8
   2:/home/rene/xpcc/src/xpcc/architecture/platform/avr/atxmega/timer/timer_d0.hpp **** // ----------------------------------------------------------------------------
   3:/home/rene/xpcc/src/xpcc/architecture/platform/avr/atxmega/timer/timer_d0.hpp **** /* Copyright (c) 2011, Roboterclub Aachen e.V.
   4:/home/rene/xpcc/src/xpcc/architecture/platform/avr/atxmega/timer/timer_d0.hpp ****  * All rights reserved.
   5:/home/rene/xpcc/src/xpcc/architecture/platform/avr/atxmega/timer/timer_d0.hpp ****  *
   6:/home/rene/xpcc/src/xpcc/architecture/platform/avr/atxmega/timer/timer_d0.hpp ****  * Redistribution and use in source and binary forms, with or without
   7:/home/rene/xpcc/src/xpcc/architecture/platform/avr/atxmega/timer/timer_d0.hpp ****  * modification, are permitted provided that the following conditions are met:
   8:/home/rene/xpcc/src/xpcc/architecture/platform/avr/atxmega/timer/timer_d0.hpp ****  * 
   9:/home/rene/xpcc/src/xpcc/architecture/platform/avr/atxmega/timer/timer_d0.hpp ****  *     * Redistributions of source code must retain the above copyright
  10:/home/rene/xpcc/src/xpcc/architecture/platform/avr/atxmega/timer/timer_d0.hpp ****  *       notice, this list of conditions and the following disclaimer.
  11:/home/rene/xpcc/src/xpcc/architecture/platform/avr/atxmega/timer/timer_d0.hpp ****  *     * Redistributions in binary form must reproduce the above copyright
  12:/home/rene/xpcc/src/xpcc/architecture/platform/avr/atxmega/timer/timer_d0.hpp ****  *       notice, this list of conditions and the following disclaimer in the
  13:/home/rene/xpcc/src/xpcc/architecture/platform/avr/atxmega/timer/timer_d0.hpp ****  *       documentation and/or other materials provided with the distribution.
  14:/home/rene/xpcc/src/xpcc/architecture/platform/avr/atxmega/timer/timer_d0.hpp ****  *     * Neither the name of the Roboterclub Aachen e.V. nor the
  15:/home/rene/xpcc/src/xpcc/architecture/platform/avr/atxmega/timer/timer_d0.hpp ****  *       names of its contributors may be used to endorse or promote products
  16:/home/rene/xpcc/src/xpcc/architecture/platform/avr/atxmega/timer/timer_d0.hpp ****  *       derived from this software without specific prior written permission.
  17:/home/rene/xpcc/src/xpcc/architecture/platform/avr/atxmega/timer/timer_d0.hpp ****  *
  18:/home/rene/xpcc/src/xpcc/architecture/platform/avr/atxmega/timer/timer_d0.hpp ****  * THIS SOFTWARE IS PROVIDED BY ROBOTERCLUB AACHEN E.V. ''AS IS'' AND ANY
  19:/home/rene/xpcc/src/xpcc/architecture/platform/avr/atxmega/timer/timer_d0.hpp ****  * EXPRESS OR IMPLIED WARRANTIES, INCLUDING, BUT NOT LIMITED TO, THE IMPLIED
  20:/home/rene/xpcc/src/xpcc/architecture/platform/avr/atxmega/timer/timer_d0.hpp ****  * WARRANTIES OF MERCHANTABILITY AND FITNESS FOR A PARTICULAR PURPOSE ARE
  21:/home/rene/xpcc/src/xpcc/architecture/platform/avr/atxmega/timer/timer_d0.hpp ****  * DISCLAIMED. IN NO EVENT SHALL ROBOTERCLUB AACHEN E.V. BE LIABLE FOR ANY
  22:/home/rene/xpcc/src/xpcc/architecture/platform/avr/atxmega/timer/timer_d0.hpp ****  * DIRECT, INDIRECT, INCIDENTAL, SPECIAL, EXEMPLARY, OR CONSEQUENTIAL DAMAGES
  23:/home/rene/xpcc/src/xpcc/architecture/platform/avr/atxmega/timer/timer_d0.hpp ****  * (INCLUDING, BUT NOT LIMITED TO, PROCUREMENT OF SUBSTITUTE GOODS OR SERVICES;
  24:/home/rene/xpcc/src/xpcc/architecture/platform/avr/atxmega/timer/timer_d0.hpp ****  * LOSS OF USE, DATA, OR PROFITS; OR BUSINESS INTERRUPTION) HOWEVER CAUSED AND
  25:/home/rene/xpcc/src/xpcc/architecture/platform/avr/atxmega/timer/timer_d0.hpp ****  * ON ANY THEORY OF LIABILITY, WHETHER IN CONTRACT, STRICT LIABILITY, OR TORT
  26:/home/rene/xpcc/src/xpcc/architecture/platform/avr/atxmega/timer/timer_d0.hpp ****  * (INCLUDING NEGLIGENCE OR OTHERWISE) ARISING IN ANY WAY OUT OF THE USE OF
  27:/home/rene/xpcc/src/xpcc/architecture/platform/avr/atxmega/timer/timer_d0.hpp ****  * THIS SOFTWARE, EVEN IF ADVISED OF THE POSSIBILITY OF SUCH DAMAGE.
  28:/home/rene/xpcc/src/xpcc/architecture/platform/avr/atxmega/timer/timer_d0.hpp ****  */
  29:/home/rene/xpcc/src/xpcc/architecture/platform/avr/atxmega/timer/timer_d0.hpp **** // ----------------------------------------------------------------------------
  30:/home/rene/xpcc/src/xpcc/architecture/platform/avr/atxmega/timer/timer_d0.hpp **** /*
  31:/home/rene/xpcc/src/xpcc/architecture/platform/avr/atxmega/timer/timer_d0.hpp ****  * WARNING: This file is generated automatically, do not edit!
  32:/home/rene/xpcc/src/xpcc/architecture/platform/avr/atxmega/timer/timer_d0.hpp ****  * Please modify the corresponding *.in file instead and rebuild this file. 
  33:/home/rene/xpcc/src/xpcc/architecture/platform/avr/atxmega/timer/timer_d0.hpp ****  */
  34:/home/rene/xpcc/src/xpcc/architecture/platform/avr/atxmega/timer/timer_d0.hpp **** // ----------------------------------------------------------------------------
  35:/home/rene/xpcc/src/xpcc/architecture/platform/avr/atxmega/timer/timer_d0.hpp **** 
  36:/home/rene/xpcc/src/xpcc/architecture/platform/avr/atxmega/timer/timer_d0.hpp **** #ifndef XPCC_ATXMEGA__TIMER_D0_HPP
  37:/home/rene/xpcc/src/xpcc/architecture/platform/avr/atxmega/timer/timer_d0.hpp **** #define XPCC_ATXMEGA__TIMER_D0_HPP
  38:/home/rene/xpcc/src/xpcc/architecture/platform/avr/atxmega/timer/timer_d0.hpp **** 
  39:/home/rene/xpcc/src/xpcc/architecture/platform/avr/atxmega/timer/timer_d0.hpp **** #include <avr/io.h>
  40:/home/rene/xpcc/src/xpcc/architecture/platform/avr/atxmega/timer/timer_d0.hpp **** #include <stdint.h>
  41:/home/rene/xpcc/src/xpcc/architecture/platform/avr/atxmega/timer/timer_d0.hpp **** 
  42:/home/rene/xpcc/src/xpcc/architecture/platform/avr/atxmega/timer/timer_d0.hpp **** #include "timer.hpp"
  43:/home/rene/xpcc/src/xpcc/architecture/platform/avr/atxmega/timer/timer_d0.hpp **** #include "hires_d.hpp"
  44:/home/rene/xpcc/src/xpcc/architecture/platform/avr/atxmega/timer/timer_d0.hpp **** #ifdef AWAXD
  45:/home/rene/xpcc/src/xpcc/architecture/platform/avr/atxmega/timer/timer_d0.hpp **** #include "awex_d.hpp"
  46:/home/rene/xpcc/src/xpcc/architecture/platform/avr/atxmega/timer/timer_d0.hpp **** #endif // AWAXD
  47:/home/rene/xpcc/src/xpcc/architecture/platform/avr/atxmega/timer/timer_d0.hpp **** 
  48:/home/rene/xpcc/src/xpcc/architecture/platform/avr/atxmega/timer/timer_d0.hpp **** #if defined(TCD0) || defined(__DOXYGEN__)
  49:/home/rene/xpcc/src/xpcc/architecture/platform/avr/atxmega/timer/timer_d0.hpp **** 
  50:/home/rene/xpcc/src/xpcc/architecture/platform/avr/atxmega/timer/timer_d0.hpp **** namespace xpcc
  51:/home/rene/xpcc/src/xpcc/architecture/platform/avr/atxmega/timer/timer_d0.hpp **** {
  52:/home/rene/xpcc/src/xpcc/architecture/platform/avr/atxmega/timer/timer_d0.hpp **** 	namespace atxmega
  53:/home/rene/xpcc/src/xpcc/architecture/platform/avr/atxmega/timer/timer_d0.hpp **** 	{
  54:/home/rene/xpcc/src/xpcc/architecture/platform/avr/atxmega/timer/timer_d0.hpp **** 		/**
  55:/home/rene/xpcc/src/xpcc/architecture/platform/avr/atxmega/timer/timer_d0.hpp **** 		 * \brief		Timer Module D0
  56:/home/rene/xpcc/src/xpcc/architecture/platform/avr/atxmega/timer/timer_d0.hpp **** 		 *
  57:/home/rene/xpcc/src/xpcc/architecture/platform/avr/atxmega/timer/timer_d0.hpp **** 		 * \ingroup		atxmega_timer
  58:/home/rene/xpcc/src/xpcc/architecture/platform/avr/atxmega/timer/timer_d0.hpp **** 		 */
  59:/home/rene/xpcc/src/xpcc/architecture/platform/avr/atxmega/timer/timer_d0.hpp **** #if defined(AWAXD) || defined(__DOXYGEN__)
  60:/home/rene/xpcc/src/xpcc/architecture/platform/avr/atxmega/timer/timer_d0.hpp **** 		class TimerD0 : public HighResD, public WaveformD
  61:/home/rene/xpcc/src/xpcc/architecture/platform/avr/atxmega/timer/timer_d0.hpp **** #else
  62:/home/rene/xpcc/src/xpcc/architecture/platform/avr/atxmega/timer/timer_d0.hpp **** 		class TimerD0 : public HighResD
  63:/home/rene/xpcc/src/xpcc/architecture/platform/avr/atxmega/timer/timer_d0.hpp **** #endif // AWAXD
  64:/home/rene/xpcc/src/xpcc/architecture/platform/avr/atxmega/timer/timer_d0.hpp **** 		{
  65:/home/rene/xpcc/src/xpcc/architecture/platform/avr/atxmega/timer/timer_d0.hpp **** 		public:
  66:/home/rene/xpcc/src/xpcc/architecture/platform/avr/atxmega/timer/timer_d0.hpp **** 			inline static TC0_t&
  67:/home/rene/xpcc/src/xpcc/architecture/platform/avr/atxmega/timer/timer_d0.hpp **** 			getModuleBase()
  68:/home/rene/xpcc/src/xpcc/architecture/platform/avr/atxmega/timer/timer_d0.hpp **** 			{
  69:/home/rene/xpcc/src/xpcc/architecture/platform/avr/atxmega/timer/timer_d0.hpp **** 				return TCD0;
  70:/home/rene/xpcc/src/xpcc/architecture/platform/avr/atxmega/timer/timer_d0.hpp **** 			}
  71:/home/rene/xpcc/src/xpcc/architecture/platform/avr/atxmega/timer/timer_d0.hpp **** 			
  72:/home/rene/xpcc/src/xpcc/architecture/platform/avr/atxmega/timer/timer_d0.hpp **** 			inline static bool
  73:/home/rene/xpcc/src/xpcc/architecture/platform/avr/atxmega/timer/timer_d0.hpp **** 			isType0()
  74:/home/rene/xpcc/src/xpcc/architecture/platform/avr/atxmega/timer/timer_d0.hpp **** 			{
  75:/home/rene/xpcc/src/xpcc/architecture/platform/avr/atxmega/timer/timer_d0.hpp **** 				return true;
  76:/home/rene/xpcc/src/xpcc/architecture/platform/avr/atxmega/timer/timer_d0.hpp **** 			}
  77:/home/rene/xpcc/src/xpcc/architecture/platform/avr/atxmega/timer/timer_d0.hpp **** 			
  78:/home/rene/xpcc/src/xpcc/architecture/platform/avr/atxmega/timer/timer_d0.hpp **** 			inline static void
  79:/home/rene/xpcc/src/xpcc/architecture/platform/avr/atxmega/timer/timer_d0.hpp **** 			setClockSource(TC_CLKSEL_t selection=TC_CLKSEL_DIV1024_gc)
  80:/home/rene/xpcc/src/xpcc/architecture/platform/avr/atxmega/timer/timer_d0.hpp **** 			{
  81:/home/rene/xpcc/src/xpcc/architecture/platform/avr/atxmega/timer/timer_d0.hpp **** 				TCD0_CTRLA = selection;
 477               		.loc 2 81 0
 478 0000 25E0      		ldi r18,lo8(5)	 ;  tmp54,
 479 0002 2093 0009 		sts 2304,r18	 ;  MEM[(volatile uint8_t *)2304B], tmp54
 480               	.LVL7:
 481               	.LBE21:
 482               	.LBE20:
 483               	.LBB22:
 484               	.LBB23:
 485               	.LBB24:
 486               	.LBB25:
  82:/home/rene/xpcc/src/xpcc/architecture/platform/avr/atxmega/timer/timer_d0.hpp **** 			}
  83:/home/rene/xpcc/src/xpcc/architecture/platform/avr/atxmega/timer/timer_d0.hpp **** 	
  84:/home/rene/xpcc/src/xpcc/architecture/platform/avr/atxmega/timer/timer_d0.hpp **** 			inline static void
  85:/home/rene/xpcc/src/xpcc/architecture/platform/avr/atxmega/timer/timer_d0.hpp **** 			setWaveformGenerationMode(TC_WGMODE_t mode=TC_WGMODE_NORMAL_gc)
  86:/home/rene/xpcc/src/xpcc/architecture/platform/avr/atxmega/timer/timer_d0.hpp **** 			{
  87:/home/rene/xpcc/src/xpcc/architecture/platform/avr/atxmega/timer/timer_d0.hpp **** 				TCD0_CTRLB = (TCD0_CTRLB & TC0_WGMODE_gm) | mode;
  88:/home/rene/xpcc/src/xpcc/architecture/platform/avr/atxmega/timer/timer_d0.hpp **** 			}
  89:/home/rene/xpcc/src/xpcc/architecture/platform/avr/atxmega/timer/timer_d0.hpp **** 			
  90:/home/rene/xpcc/src/xpcc/architecture/platform/avr/atxmega/timer/timer_d0.hpp **** 			inline static void
  91:/home/rene/xpcc/src/xpcc/architecture/platform/avr/atxmega/timer/timer_d0.hpp **** 			enableCompareCapture(uint8_t selection)
  92:/home/rene/xpcc/src/xpcc/architecture/platform/avr/atxmega/timer/timer_d0.hpp **** 			{
  93:/home/rene/xpcc/src/xpcc/architecture/platform/avr/atxmega/timer/timer_d0.hpp **** 				TCD0_CTRLB = (TCD0_CTRLB & 0x0f) | (selection & 0xf0);
  94:/home/rene/xpcc/src/xpcc/architecture/platform/avr/atxmega/timer/timer_d0.hpp **** 			}
  95:/home/rene/xpcc/src/xpcc/architecture/platform/avr/atxmega/timer/timer_d0.hpp **** 	
  96:/home/rene/xpcc/src/xpcc/architecture/platform/avr/atxmega/timer/timer_d0.hpp **** 			inline static void
  97:/home/rene/xpcc/src/xpcc/architecture/platform/avr/atxmega/timer/timer_d0.hpp **** 			setCompareOutputValue(uint8_t selection)
  98:/home/rene/xpcc/src/xpcc/architecture/platform/avr/atxmega/timer/timer_d0.hpp **** 			{
  99:/home/rene/xpcc/src/xpcc/architecture/platform/avr/atxmega/timer/timer_d0.hpp **** 				TCD0_CTRLC = selection;
 100:/home/rene/xpcc/src/xpcc/architecture/platform/avr/atxmega/timer/timer_d0.hpp **** 			}
 101:/home/rene/xpcc/src/xpcc/architecture/platform/avr/atxmega/timer/timer_d0.hpp **** 	
 102:/home/rene/xpcc/src/xpcc/architecture/platform/avr/atxmega/timer/timer_d0.hpp **** 			inline static void
 103:/home/rene/xpcc/src/xpcc/architecture/platform/avr/atxmega/timer/timer_d0.hpp **** 			setEventSource(TC_EVSEL_t selection=TC_EVSEL_OFF_gc)
 104:/home/rene/xpcc/src/xpcc/architecture/platform/avr/atxmega/timer/timer_d0.hpp **** 			{
 105:/home/rene/xpcc/src/xpcc/architecture/platform/avr/atxmega/timer/timer_d0.hpp **** 				TCD0_CTRLD = (TCD0_CTRLD & ~TC0_EVSEL_gm) | selection;
 106:/home/rene/xpcc/src/xpcc/architecture/platform/avr/atxmega/timer/timer_d0.hpp **** 			}
 107:/home/rene/xpcc/src/xpcc/architecture/platform/avr/atxmega/timer/timer_d0.hpp **** 			
 108:/home/rene/xpcc/src/xpcc/architecture/platform/avr/atxmega/timer/timer_d0.hpp **** 			inline static void
 109:/home/rene/xpcc/src/xpcc/architecture/platform/avr/atxmega/timer/timer_d0.hpp **** 			setDelayEvent(bool enable=true)
 110:/home/rene/xpcc/src/xpcc/architecture/platform/avr/atxmega/timer/timer_d0.hpp **** 			{
 111:/home/rene/xpcc/src/xpcc/architecture/platform/avr/atxmega/timer/timer_d0.hpp **** 				TCD0_CTRLD = (TCD0_CTRLD & ~TC0_EVDLY_bm) | (enable?TC0_EVDLY_bm:0);
 112:/home/rene/xpcc/src/xpcc/architecture/platform/avr/atxmega/timer/timer_d0.hpp **** 			}
 113:/home/rene/xpcc/src/xpcc/architecture/platform/avr/atxmega/timer/timer_d0.hpp **** 			
 114:/home/rene/xpcc/src/xpcc/architecture/platform/avr/atxmega/timer/timer_d0.hpp **** 			inline static void
 115:/home/rene/xpcc/src/xpcc/architecture/platform/avr/atxmega/timer/timer_d0.hpp **** 			setEventAction(TC_EVACT_t action=TC_EVACT_OFF_gc)
 116:/home/rene/xpcc/src/xpcc/architecture/platform/avr/atxmega/timer/timer_d0.hpp **** 			{
 117:/home/rene/xpcc/src/xpcc/architecture/platform/avr/atxmega/timer/timer_d0.hpp **** 				TCD0_CTRLD = (TCD0_CTRLD & ~TC0_EVACT_gm) | action;
 118:/home/rene/xpcc/src/xpcc/architecture/platform/avr/atxmega/timer/timer_d0.hpp **** 			}
 119:/home/rene/xpcc/src/xpcc/architecture/platform/avr/atxmega/timer/timer_d0.hpp **** 			
 120:/home/rene/xpcc/src/xpcc/architecture/platform/avr/atxmega/timer/timer_d0.hpp **** 			inline static void
 121:/home/rene/xpcc/src/xpcc/architecture/platform/avr/atxmega/timer/timer_d0.hpp **** 			setByteMode(bool enable=true)
 122:/home/rene/xpcc/src/xpcc/architecture/platform/avr/atxmega/timer/timer_d0.hpp **** 			{
 123:/home/rene/xpcc/src/xpcc/architecture/platform/avr/atxmega/timer/timer_d0.hpp **** 				TCD0_CTRLE = (TCD0_CTRLE & ~TC0_BYTEM_bm) | (enable?TC0_BYTEM_bm:0);
 124:/home/rene/xpcc/src/xpcc/architecture/platform/avr/atxmega/timer/timer_d0.hpp **** 			}
 125:/home/rene/xpcc/src/xpcc/architecture/platform/avr/atxmega/timer/timer_d0.hpp **** 			
 126:/home/rene/xpcc/src/xpcc/architecture/platform/avr/atxmega/timer/timer_d0.hpp **** 			/// The TCD0_ERR_vect needs to be handled seperately.
 127:/home/rene/xpcc/src/xpcc/architecture/platform/avr/atxmega/timer/timer_d0.hpp **** 			inline static void
 128:/home/rene/xpcc/src/xpcc/architecture/platform/avr/atxmega/timer/timer_d0.hpp **** 			setErrorInterrupt(TC_ERRINTLVL_t level)
 129:/home/rene/xpcc/src/xpcc/architecture/platform/avr/atxmega/timer/timer_d0.hpp **** 			{
 130:/home/rene/xpcc/src/xpcc/architecture/platform/avr/atxmega/timer/timer_d0.hpp **** 				TCD0_INTCTRLA = (TCD0_INTCTRLA & ~TC0_ERRINTLVL_gm) | level;
 131:/home/rene/xpcc/src/xpcc/architecture/platform/avr/atxmega/timer/timer_d0.hpp **** 			}
 132:/home/rene/xpcc/src/xpcc/architecture/platform/avr/atxmega/timer/timer_d0.hpp **** 			
 133:/home/rene/xpcc/src/xpcc/architecture/platform/avr/atxmega/timer/timer_d0.hpp **** 			/// The TCD0_OVF_vect needs to be handled seperately.
 134:/home/rene/xpcc/src/xpcc/architecture/platform/avr/atxmega/timer/timer_d0.hpp **** 			inline static void
 135:/home/rene/xpcc/src/xpcc/architecture/platform/avr/atxmega/timer/timer_d0.hpp **** 			setOverflowInterrupt(TC_OVFINTLVL_t level)
 136:/home/rene/xpcc/src/xpcc/architecture/platform/avr/atxmega/timer/timer_d0.hpp **** 			{
 137:/home/rene/xpcc/src/xpcc/architecture/platform/avr/atxmega/timer/timer_d0.hpp **** 				TCD0_INTCTRLA = (TCD0_INTCTRLA & ~TC0_OVFINTLVL_gm) | level;
 487               		.loc 2 137 0
 488 0006 E6E0      		ldi r30,lo8(6)	 ;  tmp55,
 489 0008 F9E0      		ldi r31,lo8(9)	 ; ,
 490 000a 2081      		ld r18,Z	 ;  D.4133, MEM[(volatile uint8_t *)2310B]
 491 000c 2C7F      		andi r18,lo8(-4)	 ;  D.4133,
 492 000e 2260      		ori r18,lo8(2)	 ;  D.4133,
 493 0010 2083      		st Z,r18	 ;  MEM[(volatile uint8_t *)2310B], D.4133
 494               	.LBE25:
 495               	.LBE24:
 496               		.file 3 "/home/rene/xpcc/src/xpcc/architecture/platform/avr/atxmega/timer/timer_interrupt_d0.hpp"
   1:/home/rene/xpcc/src/xpcc/architecture/platform/avr/atxmega/timer/timer_interrupt_d0.hpp **** // coding: utf-8
   2:/home/rene/xpcc/src/xpcc/architecture/platform/avr/atxmega/timer/timer_interrupt_d0.hpp **** // ----------------------------------------------------------------------------
   3:/home/rene/xpcc/src/xpcc/architecture/platform/avr/atxmega/timer/timer_interrupt_d0.hpp **** /* Copyright (c) 2011, Roboterclub Aachen e.V.
   4:/home/rene/xpcc/src/xpcc/architecture/platform/avr/atxmega/timer/timer_interrupt_d0.hpp ****  * All rights reserved.
   5:/home/rene/xpcc/src/xpcc/architecture/platform/avr/atxmega/timer/timer_interrupt_d0.hpp ****  *
   6:/home/rene/xpcc/src/xpcc/architecture/platform/avr/atxmega/timer/timer_interrupt_d0.hpp ****  * Redistribution and use in source and binary forms, with or without
   7:/home/rene/xpcc/src/xpcc/architecture/platform/avr/atxmega/timer/timer_interrupt_d0.hpp ****  * modification, are permitted provided that the following conditions are met:
   8:/home/rene/xpcc/src/xpcc/architecture/platform/avr/atxmega/timer/timer_interrupt_d0.hpp ****  * 
   9:/home/rene/xpcc/src/xpcc/architecture/platform/avr/atxmega/timer/timer_interrupt_d0.hpp ****  *     * Redistributions of source code must retain the above copyright
  10:/home/rene/xpcc/src/xpcc/architecture/platform/avr/atxmega/timer/timer_interrupt_d0.hpp ****  *       notice, this list of conditions and the following disclaimer.
  11:/home/rene/xpcc/src/xpcc/architecture/platform/avr/atxmega/timer/timer_interrupt_d0.hpp ****  *     * Redistributions in binary form must reproduce the above copyright
  12:/home/rene/xpcc/src/xpcc/architecture/platform/avr/atxmega/timer/timer_interrupt_d0.hpp ****  *       notice, this list of conditions and the following disclaimer in the
  13:/home/rene/xpcc/src/xpcc/architecture/platform/avr/atxmega/timer/timer_interrupt_d0.hpp ****  *       documentation and/or other materials provided with the distribution.
  14:/home/rene/xpcc/src/xpcc/architecture/platform/avr/atxmega/timer/timer_interrupt_d0.hpp ****  *     * Neither the name of the Roboterclub Aachen e.V. nor the
  15:/home/rene/xpcc/src/xpcc/architecture/platform/avr/atxmega/timer/timer_interrupt_d0.hpp ****  *       names of its contributors may be used to endorse or promote products
  16:/home/rene/xpcc/src/xpcc/architecture/platform/avr/atxmega/timer/timer_interrupt_d0.hpp ****  *       derived from this software without specific prior written permission.
  17:/home/rene/xpcc/src/xpcc/architecture/platform/avr/atxmega/timer/timer_interrupt_d0.hpp ****  *
  18:/home/rene/xpcc/src/xpcc/architecture/platform/avr/atxmega/timer/timer_interrupt_d0.hpp ****  * THIS SOFTWARE IS PROVIDED BY ROBOTERCLUB AACHEN E.V. ''AS IS'' AND ANY
  19:/home/rene/xpcc/src/xpcc/architecture/platform/avr/atxmega/timer/timer_interrupt_d0.hpp ****  * EXPRESS OR IMPLIED WARRANTIES, INCLUDING, BUT NOT LIMITED TO, THE IMPLIED
  20:/home/rene/xpcc/src/xpcc/architecture/platform/avr/atxmega/timer/timer_interrupt_d0.hpp ****  * WARRANTIES OF MERCHANTABILITY AND FITNESS FOR A PARTICULAR PURPOSE ARE
  21:/home/rene/xpcc/src/xpcc/architecture/platform/avr/atxmega/timer/timer_interrupt_d0.hpp ****  * DISCLAIMED. IN NO EVENT SHALL ROBOTERCLUB AACHEN E.V. BE LIABLE FOR ANY
  22:/home/rene/xpcc/src/xpcc/architecture/platform/avr/atxmega/timer/timer_interrupt_d0.hpp ****  * DIRECT, INDIRECT, INCIDENTAL, SPECIAL, EXEMPLARY, OR CONSEQUENTIAL DAMAGES
  23:/home/rene/xpcc/src/xpcc/architecture/platform/avr/atxmega/timer/timer_interrupt_d0.hpp ****  * (INCLUDING, BUT NOT LIMITED TO, PROCUREMENT OF SUBSTITUTE GOODS OR SERVICES;
  24:/home/rene/xpcc/src/xpcc/architecture/platform/avr/atxmega/timer/timer_interrupt_d0.hpp ****  * LOSS OF USE, DATA, OR PROFITS; OR BUSINESS INTERRUPTION) HOWEVER CAUSED AND
  25:/home/rene/xpcc/src/xpcc/architecture/platform/avr/atxmega/timer/timer_interrupt_d0.hpp ****  * ON ANY THEORY OF LIABILITY, WHETHER IN CONTRACT, STRICT LIABILITY, OR TORT
  26:/home/rene/xpcc/src/xpcc/architecture/platform/avr/atxmega/timer/timer_interrupt_d0.hpp ****  * (INCLUDING NEGLIGENCE OR OTHERWISE) ARISING IN ANY WAY OUT OF THE USE OF
  27:/home/rene/xpcc/src/xpcc/architecture/platform/avr/atxmega/timer/timer_interrupt_d0.hpp ****  * THIS SOFTWARE, EVEN IF ADVISED OF THE POSSIBILITY OF SUCH DAMAGE.
  28:/home/rene/xpcc/src/xpcc/architecture/platform/avr/atxmega/timer/timer_interrupt_d0.hpp ****  */
  29:/home/rene/xpcc/src/xpcc/architecture/platform/avr/atxmega/timer/timer_interrupt_d0.hpp **** // ----------------------------------------------------------------------------
  30:/home/rene/xpcc/src/xpcc/architecture/platform/avr/atxmega/timer/timer_interrupt_d0.hpp **** /*
  31:/home/rene/xpcc/src/xpcc/architecture/platform/avr/atxmega/timer/timer_interrupt_d0.hpp ****  * WARNING: This file is generated automatically, do not edit!
  32:/home/rene/xpcc/src/xpcc/architecture/platform/avr/atxmega/timer/timer_interrupt_d0.hpp ****  * Please modify the corresponding *.in file instead and rebuild this file. 
  33:/home/rene/xpcc/src/xpcc/architecture/platform/avr/atxmega/timer/timer_interrupt_d0.hpp ****  */
  34:/home/rene/xpcc/src/xpcc/architecture/platform/avr/atxmega/timer/timer_interrupt_d0.hpp **** // ----------------------------------------------------------------------------
  35:/home/rene/xpcc/src/xpcc/architecture/platform/avr/atxmega/timer/timer_interrupt_d0.hpp **** 
  36:/home/rene/xpcc/src/xpcc/architecture/platform/avr/atxmega/timer/timer_interrupt_d0.hpp **** #ifndef XPCC_ATXMEGA__TIMER_INTERRUPT_D0_HPP
  37:/home/rene/xpcc/src/xpcc/architecture/platform/avr/atxmega/timer/timer_interrupt_d0.hpp **** #define XPCC_ATXMEGA__TIMER_INTERRUPT_D0_HPP
  38:/home/rene/xpcc/src/xpcc/architecture/platform/avr/atxmega/timer/timer_interrupt_d0.hpp **** 
  39:/home/rene/xpcc/src/xpcc/architecture/platform/avr/atxmega/timer/timer_interrupt_d0.hpp **** #include <avr/io.h>
  40:/home/rene/xpcc/src/xpcc/architecture/platform/avr/atxmega/timer/timer_interrupt_d0.hpp **** #include <stdint.h>
  41:/home/rene/xpcc/src/xpcc/architecture/platform/avr/atxmega/timer/timer_interrupt_d0.hpp **** #include <xpcc/utils/dummy.hpp>
  42:/home/rene/xpcc/src/xpcc/architecture/platform/avr/atxmega/timer/timer_interrupt_d0.hpp **** 
  43:/home/rene/xpcc/src/xpcc/architecture/platform/avr/atxmega/timer/timer_interrupt_d0.hpp **** #include "timer.hpp"
  44:/home/rene/xpcc/src/xpcc/architecture/platform/avr/atxmega/timer/timer_interrupt_d0.hpp **** #include "timer_d0.hpp"
  45:/home/rene/xpcc/src/xpcc/architecture/platform/avr/atxmega/timer/timer_interrupt_d0.hpp **** 
  46:/home/rene/xpcc/src/xpcc/architecture/platform/avr/atxmega/timer/timer_interrupt_d0.hpp **** #if defined(TCD0) || defined(__DOXYGEN__)
  47:/home/rene/xpcc/src/xpcc/architecture/platform/avr/atxmega/timer/timer_interrupt_d0.hpp **** 
  48:/home/rene/xpcc/src/xpcc/architecture/platform/avr/atxmega/timer/timer_interrupt_d0.hpp **** namespace xpcc
  49:/home/rene/xpcc/src/xpcc/architecture/platform/avr/atxmega/timer/timer_interrupt_d0.hpp **** {
  50:/home/rene/xpcc/src/xpcc/architecture/platform/avr/atxmega/timer/timer_interrupt_d0.hpp **** 	namespace atxmega
  51:/home/rene/xpcc/src/xpcc/architecture/platform/avr/atxmega/timer/timer_interrupt_d0.hpp **** 	{
  52:/home/rene/xpcc/src/xpcc/architecture/platform/avr/atxmega/timer/timer_interrupt_d0.hpp **** 		/**
  53:/home/rene/xpcc/src/xpcc/architecture/platform/avr/atxmega/timer/timer_interrupt_d0.hpp **** 		 * \brief		Timer Interrupt Module D0
  54:/home/rene/xpcc/src/xpcc/architecture/platform/avr/atxmega/timer/timer_interrupt_d0.hpp **** 		 *
  55:/home/rene/xpcc/src/xpcc/architecture/platform/avr/atxmega/timer/timer_interrupt_d0.hpp **** 		 * \ingroup		atxmega_timer
  56:/home/rene/xpcc/src/xpcc/architecture/platform/avr/atxmega/timer/timer_interrupt_d0.hpp **** 		 */
  57:/home/rene/xpcc/src/xpcc/architecture/platform/avr/atxmega/timer/timer_interrupt_d0.hpp **** 		class TimerInterruptD0 : public TimerD0
  58:/home/rene/xpcc/src/xpcc/architecture/platform/avr/atxmega/timer/timer_interrupt_d0.hpp **** 		{
  59:/home/rene/xpcc/src/xpcc/architecture/platform/avr/atxmega/timer/timer_interrupt_d0.hpp **** 		public:
  60:/home/rene/xpcc/src/xpcc/architecture/platform/avr/atxmega/timer/timer_interrupt_d0.hpp **** 			typedef void (*F) ();
  61:/home/rene/xpcc/src/xpcc/architecture/platform/avr/atxmega/timer/timer_interrupt_d0.hpp **** 			
  62:/home/rene/xpcc/src/xpcc/architecture/platform/avr/atxmega/timer/timer_interrupt_d0.hpp **** 			inline static void
  63:/home/rene/xpcc/src/xpcc/architecture/platform/avr/atxmega/timer/timer_interrupt_d0.hpp **** 			attachErrorInterrupt(TC_ERRINTLVL_t level, F function=xpcc::dummy)
  64:/home/rene/xpcc/src/xpcc/architecture/platform/avr/atxmega/timer/timer_interrupt_d0.hpp **** 			{
  65:/home/rene/xpcc/src/xpcc/architecture/platform/avr/atxmega/timer/timer_interrupt_d0.hpp **** 				setErrorInterrupt(level);
  66:/home/rene/xpcc/src/xpcc/architecture/platform/avr/atxmega/timer/timer_interrupt_d0.hpp **** 				error = function;
  67:/home/rene/xpcc/src/xpcc/architecture/platform/avr/atxmega/timer/timer_interrupt_d0.hpp **** 			}
  68:/home/rene/xpcc/src/xpcc/architecture/platform/avr/atxmega/timer/timer_interrupt_d0.hpp **** 			
  69:/home/rene/xpcc/src/xpcc/architecture/platform/avr/atxmega/timer/timer_interrupt_d0.hpp **** 			inline static void
  70:/home/rene/xpcc/src/xpcc/architecture/platform/avr/atxmega/timer/timer_interrupt_d0.hpp **** 			attachOverflowInterrupt(TC_OVFINTLVL_t level, F function=xpcc::dummy)
  71:/home/rene/xpcc/src/xpcc/architecture/platform/avr/atxmega/timer/timer_interrupt_d0.hpp **** 			{
  72:/home/rene/xpcc/src/xpcc/architecture/platform/avr/atxmega/timer/timer_interrupt_d0.hpp **** 				setOverflowInterrupt(level);
  73:/home/rene/xpcc/src/xpcc/architecture/platform/avr/atxmega/timer/timer_interrupt_d0.hpp **** 				overflow = function;
 497               		.loc 3 73 0
 498 0012 8093 0000 		sts _ZN4xpcc7atxmega16TimerInterruptD08overflowE,r24	 ;  overflow, function
 499 0016 9093 0000 		sts _ZN4xpcc7atxmega16TimerInterruptD08overflowE+1,r25	 ;  overflow, function
 500               	.LBE23:
 501               	.LBE22:
  81:/home/rene/xpcc/src/xpcc/architecture/platform/avr/atxmega/timer/timer_interrupt_d0.cpp **** 	setClockSource(TC_CLKSEL_DIV64_gc);
  82:/home/rene/xpcc/src/xpcc/architecture/platform/avr/atxmega/timer/timer_interrupt_d0.cpp **** 	attachOverflowInterrupt(TC_OVFINTLVL_MED_gc, function);
  83:/home/rene/xpcc/src/xpcc/architecture/platform/avr/atxmega/timer/timer_interrupt_d0.cpp **** 	TCD0_PER = (interval * F_CPU) / 64000l;
 502               		.loc 1 83 0
 503 001a A62F      		mov r26,r22	 ; , interval
 504 001c B0E0      		ldi r27,0	 ; 
 505 001e 20E0      		ldi r18,0	 ; 
 506 0020 34E2      		ldi r19,lo8(36)	 ; ,
 507 0022 44EF      		ldi r20,lo8(-12)	 ; ,
 508 0024 50E0      		ldi r21,0	 ; 
 509 0026 0E94 0000 		call __muluhisi3
 510               	.LVL8:
 511 002a 20E0      		ldi r18,0	 ; 
 512 002c 3AEF      		ldi r19,lo8(-6)	 ; ,
 513 002e 40E0      		ldi r20,0	 ; 
 514 0030 50E0      		ldi r21,0	 ; 
 515 0032 0E94 0000 		call __udivmodsi4
 516               	.LVL9:
 517 0036 2093 2609 		sts 2342,r18	 ;  MEM[(volatile uint16_t *)2342B], tmp61
 518 003a 3093 2709 		sts 2342+1,r19	 ;  MEM[(volatile uint16_t *)2342B], tmp61
 519 003e 0895      		ret
 520               	.LFE31:
 522               		.section	.text._ZN4xpcc7atxmega16TimerInterruptD029attachCompareCaptureInterruptENS_5timer7Channel
 523               	.global	_ZN4xpcc7atxmega16TimerInterruptD029attachCompareCaptureInterruptENS_5timer7ChannelEhPFvvE
 525               	_ZN4xpcc7atxmega16TimerInterruptD029attachCompareCaptureInterruptENS_5timer7ChannelEhPFvvE:
 526               	.LFB32:
  84:/home/rene/xpcc/src/xpcc/architecture/platform/avr/atxmega/timer/timer_interrupt_d0.cpp **** }
  85:/home/rene/xpcc/src/xpcc/architecture/platform/avr/atxmega/timer/timer_interrupt_d0.cpp **** 
  86:/home/rene/xpcc/src/xpcc/architecture/platform/avr/atxmega/timer/timer_interrupt_d0.cpp **** bool
  87:/home/rene/xpcc/src/xpcc/architecture/platform/avr/atxmega/timer/timer_interrupt_d0.cpp **** xpcc::atxmega::TimerInterruptD0::attachCompareCaptureInterrupt(xpcc::timer::Channel channel, uint8_
  88:/home/rene/xpcc/src/xpcc/architecture/platform/avr/atxmega/timer/timer_interrupt_d0.cpp **** {
 527               		.loc 1 88 0
 528               	.LVL10:
 529               	/* prologue: function */
 530               	/* frame size = 0 */
 531               	/* stack size = 0 */
 532               	.L__stack_usage = 0
  89:/home/rene/xpcc/src/xpcc/architecture/platform/avr/atxmega/timer/timer_interrupt_d0.cpp **** 	level <<= 2*channel;
 533               		.loc 1 89 0
 534 0000 982F      		mov r25,r24	 ;  tmp74, channel
 535 0002 990F      		lsl r25	 ;  tmp74
 536 0004 092E      		mov r0,r25	 ; , tmp74
 537 0006 00C0      		rjmp 2f
 538               		1:
 539 0008 660F      		lsl r22	 ;  D.4010
 540               		2:
 541 000a 0A94      		dec r0	 ; 
 542 000c 02F4      		brpl 1b
 543               	.LVL11:
  90:/home/rene/xpcc/src/xpcc/architecture/platform/avr/atxmega/timer/timer_interrupt_d0.cpp **** 	if (channel == xpcc::timer::CHANNELA) {
 544               		.loc 1 90 0
 545 000e 8111      		cpse r24,__zero_reg__	 ;  channel,
 546 0010 00C0      		rjmp .L9	 ; 
 547               	.LVL12:
 548               	.LBB42:
 549               	.LBB43:
 550               	.LBB44:
 551               	.LBB45:
 138:/home/rene/xpcc/src/xpcc/architecture/platform/avr/atxmega/timer/timer_d0.hpp **** 			}
 139:/home/rene/xpcc/src/xpcc/architecture/platform/avr/atxmega/timer/timer_d0.hpp **** 			
 140:/home/rene/xpcc/src/xpcc/architecture/platform/avr/atxmega/timer/timer_d0.hpp **** 			/// The TCD0_CCA_vect needs to be handled seperately.
 141:/home/rene/xpcc/src/xpcc/architecture/platform/avr/atxmega/timer/timer_d0.hpp **** 			inline static void
 142:/home/rene/xpcc/src/xpcc/architecture/platform/avr/atxmega/timer/timer_d0.hpp **** 			setCompareCaptureAInterrupt(TC_CCAINTLVL_t level)
 143:/home/rene/xpcc/src/xpcc/architecture/platform/avr/atxmega/timer/timer_d0.hpp **** 			{
 144:/home/rene/xpcc/src/xpcc/architecture/platform/avr/atxmega/timer/timer_d0.hpp **** 				TCD0_INTCTRLB = (TCD0_INTCTRLB & ~TC0_CCAINTLVL_gm) | level;
 552               		.loc 2 144 0
 553 0012 8091 0709 		lds r24,2311	 ;  D.4143, MEM[(volatile uint8_t *)2311B]
 554               	.LVL13:
 555 0016 8C7F      		andi r24,lo8(-4)	 ;  D.4143,
 556 0018 862B      		or r24,r22	 ;  D.4143, D.4010
 557 001a 8093 0709 		sts 2311,r24	 ;  MEM[(volatile uint8_t *)2311B], D.4143
 558               	.LBE45:
 559               	.LBE44:
  74:/home/rene/xpcc/src/xpcc/architecture/platform/avr/atxmega/timer/timer_interrupt_d0.hpp **** 			}
  75:/home/rene/xpcc/src/xpcc/architecture/platform/avr/atxmega/timer/timer_interrupt_d0.hpp **** 			
  76:/home/rene/xpcc/src/xpcc/architecture/platform/avr/atxmega/timer/timer_interrupt_d0.hpp **** 			inline static void
  77:/home/rene/xpcc/src/xpcc/architecture/platform/avr/atxmega/timer/timer_interrupt_d0.hpp **** 			attachCompareCaptureAInterrupt(TC_CCAINTLVL_t level, F function=xpcc::dummy)
  78:/home/rene/xpcc/src/xpcc/architecture/platform/avr/atxmega/timer/timer_interrupt_d0.hpp **** 			{
  79:/home/rene/xpcc/src/xpcc/architecture/platform/avr/atxmega/timer/timer_interrupt_d0.hpp **** 				setCompareCaptureAInterrupt(level);
  80:/home/rene/xpcc/src/xpcc/architecture/platform/avr/atxmega/timer/timer_interrupt_d0.hpp **** 				cca = function;
 560               		.loc 3 80 0
 561 001e 4093 0000 		sts _ZN4xpcc7atxmega16TimerInterruptD03ccaE,r20	 ;  cca, function
 562 0022 5093 0000 		sts _ZN4xpcc7atxmega16TimerInterruptD03ccaE+1,r21	 ;  cca, function
 563 0026 00C0      		rjmp .L10	 ; 
 564               	.LVL14:
 565               	.L9:
 566               	.LBE43:
 567               	.LBE42:
  91:/home/rene/xpcc/src/xpcc/architecture/platform/avr/atxmega/timer/timer_interrupt_d0.cpp **** 		attachCompareCaptureAInterrupt(static_cast<TC_CCAINTLVL_t>(level), function);
  92:/home/rene/xpcc/src/xpcc/architecture/platform/avr/atxmega/timer/timer_interrupt_d0.cpp **** 		
  93:/home/rene/xpcc/src/xpcc/architecture/platform/avr/atxmega/timer/timer_interrupt_d0.cpp **** 	}
  94:/home/rene/xpcc/src/xpcc/architecture/platform/avr/atxmega/timer/timer_interrupt_d0.cpp **** 	else if (channel == xpcc::timer::CHANNELB) {
 568               		.loc 1 94 0
 569 0028 8130      		cpi r24,lo8(1)	 ;  channel,
 570 002a 01F4      		brne .L11	 ; ,
 571               	.LVL15:
 572               	.LBB46:
 573               	.LBB47:
 574               	.LBB48:
 575               	.LBB49:
 145:/home/rene/xpcc/src/xpcc/architecture/platform/avr/atxmega/timer/timer_d0.hpp **** 			}
 146:/home/rene/xpcc/src/xpcc/architecture/platform/avr/atxmega/timer/timer_d0.hpp **** 			
 147:/home/rene/xpcc/src/xpcc/architecture/platform/avr/atxmega/timer/timer_d0.hpp **** 			/// The TCD0_CCB_vect needs to be handled seperately.
 148:/home/rene/xpcc/src/xpcc/architecture/platform/avr/atxmega/timer/timer_d0.hpp **** 			inline static void
 149:/home/rene/xpcc/src/xpcc/architecture/platform/avr/atxmega/timer/timer_d0.hpp **** 			setCompareCaptureBInterrupt(TC_CCBINTLVL_t level)
 150:/home/rene/xpcc/src/xpcc/architecture/platform/avr/atxmega/timer/timer_d0.hpp **** 			{
 151:/home/rene/xpcc/src/xpcc/architecture/platform/avr/atxmega/timer/timer_d0.hpp **** 				TCD0_INTCTRLB = (TCD0_INTCTRLB & ~TC0_CCBINTLVL_gm) | level;
 576               		.loc 2 151 0
 577 002c 8091 0709 		lds r24,2311	 ;  D.4150, MEM[(volatile uint8_t *)2311B]
 578               	.LVL16:
 579 0030 837F      		andi r24,lo8(-13)	 ;  D.4150,
 580 0032 862B      		or r24,r22	 ;  D.4150, D.4010
 581 0034 8093 0709 		sts 2311,r24	 ;  MEM[(volatile uint8_t *)2311B], D.4150
 582               	.LBE49:
 583               	.LBE48:
  81:/home/rene/xpcc/src/xpcc/architecture/platform/avr/atxmega/timer/timer_interrupt_d0.hpp **** 			}
  82:/home/rene/xpcc/src/xpcc/architecture/platform/avr/atxmega/timer/timer_interrupt_d0.hpp **** 			
  83:/home/rene/xpcc/src/xpcc/architecture/platform/avr/atxmega/timer/timer_interrupt_d0.hpp **** 			inline static void
  84:/home/rene/xpcc/src/xpcc/architecture/platform/avr/atxmega/timer/timer_interrupt_d0.hpp **** 			attachCompareCaptureBInterrupt(TC_CCBINTLVL_t level, F function=xpcc::dummy)
  85:/home/rene/xpcc/src/xpcc/architecture/platform/avr/atxmega/timer/timer_interrupt_d0.hpp **** 			{
  86:/home/rene/xpcc/src/xpcc/architecture/platform/avr/atxmega/timer/timer_interrupt_d0.hpp **** 				setCompareCaptureBInterrupt(level);
  87:/home/rene/xpcc/src/xpcc/architecture/platform/avr/atxmega/timer/timer_interrupt_d0.hpp **** 				ccb = function;
 584               		.loc 3 87 0
 585 0038 4093 0000 		sts _ZN4xpcc7atxmega16TimerInterruptD03ccbE,r20	 ;  ccb, function
 586 003c 5093 0000 		sts _ZN4xpcc7atxmega16TimerInterruptD03ccbE+1,r21	 ;  ccb, function
 587 0040 00C0      		rjmp .L10	 ; 
 588               	.LVL17:
 589               	.L11:
 590               	.LBE47:
 591               	.LBE46:
  95:/home/rene/xpcc/src/xpcc/architecture/platform/avr/atxmega/timer/timer_interrupt_d0.cpp **** 		attachCompareCaptureBInterrupt(static_cast<TC_CCBINTLVL_t>(level), function);
  96:/home/rene/xpcc/src/xpcc/architecture/platform/avr/atxmega/timer/timer_interrupt_d0.cpp **** 		
  97:/home/rene/xpcc/src/xpcc/architecture/platform/avr/atxmega/timer/timer_interrupt_d0.cpp **** 	}
  98:/home/rene/xpcc/src/xpcc/architecture/platform/avr/atxmega/timer/timer_interrupt_d0.cpp **** 	else if (channel == xpcc::timer::CHANNELC) {
 592               		.loc 1 98 0
 593 0042 8230      		cpi r24,lo8(2)	 ;  channel,
 594 0044 01F4      		brne .L12	 ; ,
 595               	.LVL18:
 596               	.LBB50:
 597               	.LBB51:
 598               	.LBB52:
 599               	.LBB53:
 152:/home/rene/xpcc/src/xpcc/architecture/platform/avr/atxmega/timer/timer_d0.hpp **** 			}
 153:/home/rene/xpcc/src/xpcc/architecture/platform/avr/atxmega/timer/timer_d0.hpp **** 			
 154:/home/rene/xpcc/src/xpcc/architecture/platform/avr/atxmega/timer/timer_d0.hpp **** 			/// The TCD0_CCC_vect needs to be handled seperately.
 155:/home/rene/xpcc/src/xpcc/architecture/platform/avr/atxmega/timer/timer_d0.hpp **** 			inline static void
 156:/home/rene/xpcc/src/xpcc/architecture/platform/avr/atxmega/timer/timer_d0.hpp **** 			setCompareCaptureCInterrupt(TC_CCCINTLVL_t level)
 157:/home/rene/xpcc/src/xpcc/architecture/platform/avr/atxmega/timer/timer_d0.hpp **** 			{
 158:/home/rene/xpcc/src/xpcc/architecture/platform/avr/atxmega/timer/timer_d0.hpp **** 				TCD0_INTCTRLB = (TCD0_INTCTRLB & ~TC0_CCCINTLVL_gm) | level;
 600               		.loc 2 158 0
 601 0046 8091 0709 		lds r24,2311	 ;  D.4157,
 602               	.LVL19:
 603 004a 8F7C      		andi r24,lo8(-49)	 ;  D.4157,
 604 004c 862B      		or r24,r22	 ;  D.4157, D.4010
 605 004e 8093 0709 		sts 2311,r24	 ;  MEM[(volatile uint8_t *)2311B], D.4157
 606               	.LBE53:
 607               	.LBE52:
  88:/home/rene/xpcc/src/xpcc/architecture/platform/avr/atxmega/timer/timer_interrupt_d0.hpp **** 			}
  89:/home/rene/xpcc/src/xpcc/architecture/platform/avr/atxmega/timer/timer_interrupt_d0.hpp **** 			inline static void
  90:/home/rene/xpcc/src/xpcc/architecture/platform/avr/atxmega/timer/timer_interrupt_d0.hpp **** 			attachCompareCaptureCInterrupt(TC_CCCINTLVL_t level, F function=xpcc::dummy)
  91:/home/rene/xpcc/src/xpcc/architecture/platform/avr/atxmega/timer/timer_interrupt_d0.hpp **** 			{
  92:/home/rene/xpcc/src/xpcc/architecture/platform/avr/atxmega/timer/timer_interrupt_d0.hpp **** 				setCompareCaptureCInterrupt(level);
  93:/home/rene/xpcc/src/xpcc/architecture/platform/avr/atxmega/timer/timer_interrupt_d0.hpp **** 				ccc = function;
 608               		.loc 3 93 0
 609 0052 4093 0000 		sts _ZN4xpcc7atxmega16TimerInterruptD03cccE,r20	 ;  ccc, function
 610 0056 5093 0000 		sts _ZN4xpcc7atxmega16TimerInterruptD03cccE+1,r21	 ;  ccc, function
 611 005a 00C0      		rjmp .L10	 ; 
 612               	.LVL20:
 613               	.L12:
 614               	.LBE51:
 615               	.LBE50:
 616               	.LBB54:
 617               	.LBB55:
 618               	.LBB56:
 619               	.LBB57:
 159:/home/rene/xpcc/src/xpcc/architecture/platform/avr/atxmega/timer/timer_d0.hpp **** 			}
 160:/home/rene/xpcc/src/xpcc/architecture/platform/avr/atxmega/timer/timer_d0.hpp **** 			
 161:/home/rene/xpcc/src/xpcc/architecture/platform/avr/atxmega/timer/timer_d0.hpp **** 			/// The TCD0_CCD_vect needs to be handled seperately.
 162:/home/rene/xpcc/src/xpcc/architecture/platform/avr/atxmega/timer/timer_d0.hpp **** 			inline static void
 163:/home/rene/xpcc/src/xpcc/architecture/platform/avr/atxmega/timer/timer_d0.hpp **** 			setCompareCaptureDInterrupt(TC_CCDINTLVL_t level)
 164:/home/rene/xpcc/src/xpcc/architecture/platform/avr/atxmega/timer/timer_d0.hpp **** 			{
 165:/home/rene/xpcc/src/xpcc/architecture/platform/avr/atxmega/timer/timer_d0.hpp **** 				TCD0_INTCTRLB = (TCD0_INTCTRLB & ~TC0_CCDINTLVL_gm) | level;
 620               		.loc 2 165 0
 621 005c 8091 0709 		lds r24,2311	 ;  D.4164,
 622               	.LVL21:
 623               	.LBE57:
 624 0060 8F73      		andi r24,lo8(63)	 ;  D.4164,
 625 0062 862B      		or r24,r22	 ;  D.4164, D.4010
 626               	.LBB58:
 627 0064 8093 0709 		sts 2311,r24	 ;  MEM[(volatile uint8_t *)2311B], D.4164
 628               	.LBE58:
 629               	.LBE56:
  94:/home/rene/xpcc/src/xpcc/architecture/platform/avr/atxmega/timer/timer_interrupt_d0.hpp **** 			}
  95:/home/rene/xpcc/src/xpcc/architecture/platform/avr/atxmega/timer/timer_interrupt_d0.hpp **** 			
  96:/home/rene/xpcc/src/xpcc/architecture/platform/avr/atxmega/timer/timer_interrupt_d0.hpp **** 			inline static void
  97:/home/rene/xpcc/src/xpcc/architecture/platform/avr/atxmega/timer/timer_interrupt_d0.hpp **** 			attachCompareCaptureDInterrupt(TC_CCDINTLVL_t level, F function=xpcc::dummy)
  98:/home/rene/xpcc/src/xpcc/architecture/platform/avr/atxmega/timer/timer_interrupt_d0.hpp **** 			{
  99:/home/rene/xpcc/src/xpcc/architecture/platform/avr/atxmega/timer/timer_interrupt_d0.hpp **** 				setCompareCaptureDInterrupt(level);
 100:/home/rene/xpcc/src/xpcc/architecture/platform/avr/atxmega/timer/timer_interrupt_d0.hpp **** 				ccd = function;
 630               		.loc 3 100 0
 631 0068 4093 0000 		sts _ZN4xpcc7atxmega16TimerInterruptD03ccdE,r20	 ;  ccd, function
 632 006c 5093 0000 		sts _ZN4xpcc7atxmega16TimerInterruptD03ccdE+1,r21	 ;  ccd, function
 633               	.LVL22:
 634               	.L10:
 635               	.LBE55:
 636               	.LBE54:
  99:/home/rene/xpcc/src/xpcc/architecture/platform/avr/atxmega/timer/timer_interrupt_d0.cpp **** 		attachCompareCaptureCInterrupt(static_cast<TC_CCCINTLVL_t>(level), function);
 100:/home/rene/xpcc/src/xpcc/architecture/platform/avr/atxmega/timer/timer_interrupt_d0.cpp **** 	}
 101:/home/rene/xpcc/src/xpcc/architecture/platform/avr/atxmega/timer/timer_interrupt_d0.cpp **** 	else {
 102:/home/rene/xpcc/src/xpcc/architecture/platform/avr/atxmega/timer/timer_interrupt_d0.cpp **** 		attachCompareCaptureDInterrupt(static_cast<TC_CCDINTLVL_t>(level), function);
 103:/home/rene/xpcc/src/xpcc/architecture/platform/avr/atxmega/timer/timer_interrupt_d0.cpp **** 	}
 104:/home/rene/xpcc/src/xpcc/architecture/platform/avr/atxmega/timer/timer_interrupt_d0.cpp **** 	return true;
 105:/home/rene/xpcc/src/xpcc/architecture/platform/avr/atxmega/timer/timer_interrupt_d0.cpp **** }
 637               		.loc 1 105 0
 638 0070 81E0      		ldi r24,lo8(1)	 ; ,
 639 0072 0895      		ret
 640               	.LFE32:
 642               	.global	_ZN4xpcc7atxmega16TimerInterruptD03ccdE
 643               		.section	.data._ZN4xpcc7atxmega16TimerInterruptD03ccdE,"aw",@progbits
 646               	_ZN4xpcc7atxmega16TimerInterruptD03ccdE:
 647 0000 0000      		.word	gs(_ZN4xpcc5dummyEv)
 648               	.global	_ZN4xpcc7atxmega16TimerInterruptD03cccE
 649               		.section	.data._ZN4xpcc7atxmega16TimerInterruptD03cccE,"aw",@progbits
 652               	_ZN4xpcc7atxmega16TimerInterruptD03cccE:
 653 0000 0000      		.word	gs(_ZN4xpcc5dummyEv)
 654               	.global	_ZN4xpcc7atxmega16TimerInterruptD03ccbE
 655               		.section	.data._ZN4xpcc7atxmega16TimerInterruptD03ccbE,"aw",@progbits
 658               	_ZN4xpcc7atxmega16TimerInterruptD03ccbE:
 659 0000 0000      		.word	gs(_ZN4xpcc5dummyEv)
 660               	.global	_ZN4xpcc7atxmega16TimerInterruptD03ccaE
 661               		.section	.data._ZN4xpcc7atxmega16TimerInterruptD03ccaE,"aw",@progbits
 664               	_ZN4xpcc7atxmega16TimerInterruptD03ccaE:
 665 0000 0000      		.word	gs(_ZN4xpcc5dummyEv)
 666               	.global	_ZN4xpcc7atxmega16TimerInterruptD05errorE
 667               		.section	.data._ZN4xpcc7atxmega16TimerInterruptD05errorE,"aw",@progbits
 670               	_ZN4xpcc7atxmega16TimerInterruptD05errorE:
 671 0000 0000      		.word	gs(_ZN4xpcc5dummyEv)
 672               	.global	_ZN4xpcc7atxmega16TimerInterruptD08overflowE
 673               		.section	.data._ZN4xpcc7atxmega16TimerInterruptD08overflowE,"aw",@progbits
 676               	_ZN4xpcc7atxmega16TimerInterruptD08overflowE:
 677 0000 0000      		.word	gs(_ZN4xpcc5dummyEv)
 1264               	.Letext0:
 1265               		.file 4 "/usr/lib/gcc/avr/4.7.2/../../../avr/include/stdint.h"
 1266               		.file 5 "/usr/lib/gcc/avr/4.7.2/../../../avr/include/avr/iox32a4.h"
 1267               		.file 6 "/home/rene/xpcc/src/xpcc/utils/dummy.hpp"
 1268               		.file 7 "/home/rene/xpcc/src/xpcc/architecture/platform/avr/atxmega/timer/timer.hpp"
 1269               		.file 8 "/home/rene/xpcc/src/xpcc/architecture/platform/avr/atxmega/timer/hires_d.hpp"
DEFINED SYMBOLS
                            *ABS*:0000000000000000 timer_interrupt_d0.cpp
     /tmp/ccZfOtlJ.s:2      *ABS*:000000000000003e __SP_H__
     /tmp/ccZfOtlJ.s:3      *ABS*:000000000000003d __SP_L__
     /tmp/ccZfOtlJ.s:4      *ABS*:000000000000003f __SREG__
     /tmp/ccZfOtlJ.s:5      *ABS*:0000000000000034 __CCP__
     /tmp/ccZfOtlJ.s:6      *ABS*:0000000000000000 __tmp_reg__
     /tmp/ccZfOtlJ.s:7      *ABS*:0000000000000001 __zero_reg__
     /tmp/ccZfOtlJ.s:63     .text.__vector_78:0000000000000000 __vector_78
     /tmp/ccZfOtlJ.s:670    .data._ZN4xpcc7atxmega16TimerInterruptD05errorE:0000000000000000 _ZN4xpcc7atxmega16TimerInterruptD05errorE
     /tmp/ccZfOtlJ.s:131    .text.__vector_77:0000000000000000 __vector_77
     /tmp/ccZfOtlJ.s:676    .data._ZN4xpcc7atxmega16TimerInterruptD08overflowE:0000000000000000 _ZN4xpcc7atxmega16TimerInterruptD08overflowE
     /tmp/ccZfOtlJ.s:198    .text.__vector_79:0000000000000000 __vector_79
     /tmp/ccZfOtlJ.s:664    .data._ZN4xpcc7atxmega16TimerInterruptD03ccaE:0000000000000000 _ZN4xpcc7atxmega16TimerInterruptD03ccaE
     /tmp/ccZfOtlJ.s:265    .text.__vector_80:0000000000000000 __vector_80
     /tmp/ccZfOtlJ.s:658    .data._ZN4xpcc7atxmega16TimerInterruptD03ccbE:0000000000000000 _ZN4xpcc7atxmega16TimerInterruptD03ccbE
     /tmp/ccZfOtlJ.s:332    .text.__vector_81:0000000000000000 __vector_81
     /tmp/ccZfOtlJ.s:652    .data._ZN4xpcc7atxmega16TimerInterruptD03cccE:0000000000000000 _ZN4xpcc7atxmega16TimerInterruptD03cccE
     /tmp/ccZfOtlJ.s:399    .text.__vector_82:0000000000000000 __vector_82
     /tmp/ccZfOtlJ.s:646    .data._ZN4xpcc7atxmega16TimerInterruptD03ccdE:0000000000000000 _ZN4xpcc7atxmega16TimerInterruptD03ccdE
     /tmp/ccZfOtlJ.s:466    .text._ZN4xpcc7atxmega16TimerInterruptD010setMsTimerEPFvvEh:0000000000000000 _ZN4xpcc7atxmega16TimerInterruptD010setMsTimerEPFvvEh
     /tmp/ccZfOtlJ.s:525    .text._ZN4xpcc7atxmega16TimerInterruptD029attachCompareCaptureInterruptENS_5timer7ChannelEhPFvvE:0000000000000000 _ZN4xpcc7atxmega16TimerInterruptD029attachCompareCaptureInterruptENS_5timer7ChannelEhPFvvE

UNDEFINED SYMBOLS
__muluhisi3
__udivmodsi4
_ZN4xpcc5dummyEv
__do_copy_data
